<?xml version='1.0' encoding='UTF-8'?>
<root>
	<TAGS>
		<HYPERLIPIDEMIA time="before DCT" indicator="mention"/>
		<HYPERLIPIDEMIA time="during DCT" indicator="mention"/>
		<HYPERLIPIDEMIA time="after DCT" indicator="mention"/>
		<FAMILY_HIST indicator="not present"/>
		<SMOKER status="unknown"/>
	</TAGS>
</root>
