<?xml version='1.0' encoding='UTF-8'?>
<root>
	<TAGS>
		<smoker status="past"/>
		<MEDICATION time="before DCT" type1="statin" type2=""/>
		<MEDICATION time="during DCT" type1="statin" type2=""/>
		<MEDICATION time="after DCT" type1="statin" type2=""/>
		<MEDICATION time="before DCT" type1="calcium channel blocker" type2=""/>
		<MEDICATION time="during DCT" type1="calcium channel blocker" type2=""/>
		<MEDICATION time="after DCT" type1="calcium channel blocker" type2=""/>
		<FAMILY_HIST indicator="not present"/>
	</TAGS>
</root>
