<?xml version='1.0' encoding='UTF-8'?>
<root>
	<TAGS>
		<DIABETES time="before DCT" indicator="mention"/>
		<DIABETES time="during DCT" indicator="mention"/>
		<DIABETES time="after DCT" indicator="mention"/>
		<smoker status="past"/>
		<MEDICATION time="before DCT" type1="insulin" type2=""/>
		<MEDICATION time="during DCT" type1="insulin" type2=""/>
		<MEDICATION time="after DCT" type1="insulin" type2=""/>
		<CAD time="before DCT" indicator="mention"/>
		<CAD time="during DCT" indicator="mention"/>
		<CAD time="after DCT" indicator="mention"/>
		<HYPERLIPIDEMIA time="before DCT" indicator="mention"/>
		<HYPERLIPIDEMIA time="during DCT" indicator="mention"/>
		<HYPERLIPIDEMIA time="after DCT" indicator="mention"/>
		<FAMILY_HIST indicator="not present"/>
	</TAGS>
</root>
