<?xml version='1.0' encoding='UTF-8'?>
<root>
	<TAGS>
		<MEDICATION time="before DCT" type1="arb" type2=""/>
		<MEDICATION time="during DCT" type1="arb" type2=""/>
		<MEDICATION time="after DCT" type1="arb" type2=""/>
		<MEDICATION time="before DCT" type1="calcium channel blocker" type2=""/>
		<MEDICATION time="during DCT" type1="calcium channel blocker" type2=""/>
		<MEDICATION time="after DCT" type1="calcium channel blocker" type2=""/>
		<FAMILY_HIST indicator="not present"/>
		<SMOKER status="unknown"/>
	</TAGS>
</root>
