<?xml version='1.0' encoding='UTF-8'?>
<root>
	<TAGS>
		<cad time="beforedct" indicator="test"/>
		<cad time="beforedct" indicator="event"/>
		<smoker status="past"/>
		<HYPERTENSION time="before DCT" indicator="mention"/>
		<HYPERTENSION time="during DCT" indicator="mention"/>
		<HYPERTENSION time="after DCT" indicator="mention"/>
		<MEDICATION time="before DCT" type1="beta blocker" type2=""/>
		<MEDICATION time="during DCT" type1="beta blocker" type2=""/>
		<MEDICATION time="after DCT" type1="beta blocker" type2=""/>
		<CAD time="before DCT" indicator="mention"/>
		<CAD time="during DCT" indicator="mention"/>
		<CAD time="after DCT" indicator="mention"/>
		<MEDICATION time="before DCT" type1="aspirin" type2=""/>
		<MEDICATION time="during DCT" type1="aspirin" type2=""/>
		<MEDICATION time="after DCT" type1="aspirin" type2=""/>
		<MEDICATION time="before DCT" type1="statin" type2=""/>
		<MEDICATION time="during DCT" type1="statin" type2=""/>
		<MEDICATION time="after DCT" type1="statin" type2=""/>
		<HYPERLIPIDEMIA time="before DCT" indicator="mention"/>
		<HYPERLIPIDEMIA time="during DCT" indicator="mention"/>
		<HYPERLIPIDEMIA time="after DCT" indicator="mention"/>
		<MEDICATION time="before DCT" type1="ace inhibitor" type2=""/>
		<MEDICATION time="during DCT" type1="ace inhibitor" type2=""/>
		<MEDICATION time="after DCT" type1="ace inhibitor" type2=""/>
		<MEDICATION time="before DCT" type1="thienopyridine" type2=""/>
		<MEDICATION time="during DCT" type1="thienopyridine" type2=""/>
		<MEDICATION time="after DCT" type1="thienopyridine" type2=""/>
		<FAMILY_HIST indicator="not present"/>
	</TAGS>
</root>
