<?xml version='1.0' encoding='UTF-8'?>
<root>
	<TAGS>
		<cad time="beforedct" indicator="event"/>
		<DIABETES time="before DCT" indicator="mention"/>
		<DIABETES time="during DCT" indicator="mention"/>
		<DIABETES time="after DCT" indicator="mention"/>
		<MEDICATION time="before DCT" type1="insulin" type2=""/>
		<MEDICATION time="during DCT" type1="insulin" type2=""/>
		<MEDICATION time="after DCT" type1="insulin" type2=""/>
		<HYPERTENSION time="before DCT" indicator="mention"/>
		<HYPERTENSION time="during DCT" indicator="mention"/>
		<HYPERTENSION time="after DCT" indicator="mention"/>
		<CAD time="before DCT" indicator="mention"/>
		<CAD time="during DCT" indicator="mention"/>
		<CAD time="after DCT" indicator="mention"/>
		<MEDICATION time="before DCT" type1="aspirin" type2=""/>
		<MEDICATION time="during DCT" type1="aspirin" type2=""/>
		<MEDICATION time="after DCT" type1="aspirin" type2=""/>
		<MEDICATION time="before DCT" type1="ace inhibitor" type2=""/>
		<MEDICATION time="during DCT" type1="ace inhibitor" type2=""/>
		<MEDICATION time="after DCT" type1="ace inhibitor" type2=""/>
		<OBESE time="before DCT" indicator="mention"/>
		<OBESE time="during DCT" indicator="mention"/>
		<OBESE time="after DCT" indicator="mention"/>
		<FAMILY_HIST indicator="not present"/>
		<SMOKER status="unknown"/>
	</TAGS>
</root>
