<?xml version='1.0' encoding='UTF-8'?>
<root>
	<TAGS>
		<cad time="beforedct" indicator="event"/>
		<CAD time="before DCT" indicator="mention"/>
		<CAD time="during DCT" indicator="mention"/>
		<CAD time="after DCT" indicator="mention"/>
		<OBESE time="before DCT" indicator="mention"/>
		<OBESE time="during DCT" indicator="mention"/>
		<OBESE time="after DCT" indicator="mention"/>
		<FAMILY_HIST indicator="not present"/>
		<SMOKER status="unknown"/>
	</TAGS>
</root>
