<?xml version='1.0' encoding='UTF-8'?>
<root>
	<TAGS>
		<cad time="beforedct" indicator="test"/>
		<DIABETES time="before DCT" indicator="mention"/>
		<DIABETES time="during DCT" indicator="mention"/>
		<DIABETES time="after DCT" indicator="mention"/>
		<hypertension time="duringdct" indicator="high bp"/>
		<MEDICATION time="before DCT" type1="insulin" type2=""/>
		<MEDICATION time="during DCT" type1="insulin" type2=""/>
		<MEDICATION time="after DCT" type1="insulin" type2=""/>
		<MEDICATION time="before DCT" type1="beta blocker" type2=""/>
		<MEDICATION time="during DCT" type1="beta blocker" type2=""/>
		<MEDICATION time="after DCT" type1="beta blocker" type2=""/>
		<MEDICATION time="before DCT" type1="aspirin" type2=""/>
		<MEDICATION time="during DCT" type1="aspirin" type2=""/>
		<MEDICATION time="after DCT" type1="aspirin" type2=""/>
		<MEDICATION time="before DCT" type1="statin" type2=""/>
		<MEDICATION time="during DCT" type1="statin" type2=""/>
		<MEDICATION time="after DCT" type1="statin" type2=""/>
		<diabetes time="beforedct" indicator="a1c"/>
		<HYPERLIPIDEMIA time="before DCT" indicator="mention"/>
		<HYPERLIPIDEMIA time="during DCT" indicator="mention"/>
		<HYPERLIPIDEMIA time="after DCT" indicator="mention"/>
		<MEDICATION time="before DCT" type1="ace inhibitor" type2=""/>
		<MEDICATION time="during DCT" type1="ace inhibitor" type2=""/>
		<MEDICATION time="after DCT" type1="ace inhibitor" type2=""/>
		<FAMILY_HIST indicator="not present"/>
		<SMOKER status="unknown"/>
	</TAGS>
</root>
