<?xml version='1.0' encoding='UTF-8'?>
<root>
	<TAGS>
		<DIABETES time="before DCT" indicator="mention"/>
		<DIABETES time="during DCT" indicator="mention"/>
		<DIABETES time="after DCT" indicator="mention"/>
		<diabetes time="beforedct" indicator="a1c"/>
		<MEDICATION time="before DCT" type1="ace inhibitor" type2=""/>
		<MEDICATION time="during DCT" type1="ace inhibitor" type2=""/>
		<MEDICATION time="after DCT" type1="ace inhibitor" type2=""/>
		<MEDICATION time="before DCT" type1="calcium channel blocker" type2=""/>
		<MEDICATION time="during DCT" type1="calcium channel blocker" type2=""/>
		<MEDICATION time="after DCT" type1="calcium channel blocker" type2=""/>
		<MEDICATION time="before DCT" type1="metformin" type2=""/>
		<MEDICATION time="during DCT" type1="metformin" type2=""/>
		<MEDICATION time="after DCT" type1="metformin" type2=""/>
		<FAMILY_HIST indicator="not present"/>
		<SMOKER status="unknown"/>
	</TAGS>
</root>
