<?xml version='1.0' encoding='UTF-8'?>
<root>
	<TAGS>
		<DIABETES time="before DCT" indicator="mention"/>
		<DIABETES time="during DCT" indicator="mention"/>
		<DIABETES time="after DCT" indicator="mention"/>
		<hypertension time="duringdct" indicator="high bp"/>
		<HYPERTENSION time="before DCT" indicator="mention"/>
		<HYPERTENSION time="during DCT" indicator="mention"/>
		<HYPERTENSION time="after DCT" indicator="mention"/>
		<HYPERLIPIDEMIA time="before DCT" indicator="mention"/>
		<HYPERLIPIDEMIA time="during DCT" indicator="mention"/>
		<HYPERLIPIDEMIA time="after DCT" indicator="mention"/>
		<FAMILY_HIST indicator="not present"/>
		<SMOKER status="unknown"/>
	</TAGS>
</root>
