<?xml version='1.0' encoding='UTF-8'?>
<root>
	<TAGS>
		<DIABETES time="before DCT" indicator="mention"/>
		<DIABETES time="during DCT" indicator="mention"/>
		<DIABETES time="after DCT" indicator="mention"/>
		<HYPERTENSION time="before DCT" indicator="mention"/>
		<HYPERTENSION time="during DCT" indicator="mention"/>
		<HYPERTENSION time="after DCT" indicator="mention"/>
		<MEDICATION time="before DCT" type1="beta blocker" type2=""/>
		<MEDICATION time="during DCT" type1="beta blocker" type2=""/>
		<MEDICATION time="after DCT" type1="beta blocker" type2=""/>
		<CAD time="before DCT" indicator="mention"/>
		<CAD time="during DCT" indicator="mention"/>
		<CAD time="after DCT" indicator="mention"/>
		<MEDICATION time="before DCT" type1="statin" type2=""/>
		<MEDICATION time="during DCT" type1="statin" type2=""/>
		<MEDICATION time="after DCT" type1="statin" type2=""/>
		<HYPERLIPIDEMIA time="before DCT" indicator="mention"/>
		<HYPERLIPIDEMIA time="during DCT" indicator="mention"/>
		<HYPERLIPIDEMIA time="after DCT" indicator="mention"/>
		<MEDICATION time="before DCT" type1="metformin" type2=""/>
		<MEDICATION time="during DCT" type1="metformin" type2=""/>
		<MEDICATION time="after DCT" type1="metformin" type2=""/>
		<OBESE time="before DCT" indicator="mention"/>
		<OBESE time="during DCT" indicator="mention"/>
		<OBESE time="after DCT" indicator="mention"/>
		<MEDICATION time="before DCT" type1="diuretic" type2=""/>
		<MEDICATION time="during DCT" type1="diuretic" type2=""/>
		<MEDICATION time="after DCT" type1="diuretic" type2=""/>
		<MEDICATION time="before DCT" type1="thienopyridine" type2=""/>
		<MEDICATION time="during DCT" type1="thienopyridine" type2=""/>
		<MEDICATION time="after DCT" type1="thienopyridine" type2=""/>
		<FAMILY_HIST indicator="not present"/>
		<SMOKER status="unknown"/>
	</TAGS>
</root>
