<?xml version='1.0' encoding='UTF-8'?>
<root>
	<TAGS>
		<HYPERTENSION time="before DCT" indicator="mention"/>
		<HYPERTENSION time="during DCT" indicator="mention"/>
		<HYPERTENSION time="after DCT" indicator="mention"/>
		<MEDICATION time="before DCT" type1="statin" type2=""/>
		<MEDICATION time="during DCT" type1="statin" type2=""/>
		<MEDICATION time="after DCT" type1="statin" type2=""/>
		<MEDICATION time="before DCT" type1="ace inhibitor" type2=""/>
		<MEDICATION time="during DCT" type1="ace inhibitor" type2=""/>
		<MEDICATION time="after DCT" type1="ace inhibitor" type2=""/>
		<MEDICATION time="before DCT" type1="diuretic" type2=""/>
		<MEDICATION time="during DCT" type1="diuretic" type2=""/>
		<MEDICATION time="after DCT" type1="diuretic" type2=""/>
		<FAMILY_HIST indicator="not present"/>
		<SMOKER status="unknown"/>
	</TAGS>
</root>
