<?xml version='1.0' encoding='UTF-8'?>
<root>
	<TAGS>
		<DIABETES time="before DCT" indicator="mention"/>
		<DIABETES time="during DCT" indicator="mention"/>
		<DIABETES time="after DCT" indicator="mention"/>
		<hypertension time="duringdct" indicator="high bp"/>
		<MEDICATION time="before DCT" type1="insulin" type2=""/>
		<MEDICATION time="during DCT" type1="insulin" type2=""/>
		<MEDICATION time="after DCT" type1="insulin" type2=""/>
		<FAMILY_HIST indicator="not present"/>
		<SMOKER status="unknown"/>
	</TAGS>
</root>
