67,53,4,13725,2092,624,2,7915,62,13726,3626,317,481,7916,1453,121,589,4,5395,2,7917,553,49,4,9702,2185,4,1094,763,2,3176,853,62,3626,4,1012,356,17,519,318,7917,5395,10,1085,310,481 1,1,1,1,1,1,1,1,1,1,1,1,1,1,1,1,1,1,1,1,1,1,1,1,1,1,1,1,1,1,1,1,1,1,1,1,1,1,1,1,1,1,1,1,1,1
50,1434,37,16,14,519,436,17,176,7,4604 1,1,1,1,1,1,1,1,1,1,1
318,5395,14,15,3177,3627,72,509,120,21,396,839,7,24,229,131,160,9703,6,839,118,12,24,419,5,1840,4043,694,114,10,6,445,7,6,372 1,1,1,1,1,1,20,1,1,1,1,1,1,1,1,1,1,1,1,1,1,1,1,1,1,1,1,1,1,1,1,1,1,1,1
12,13727,2,6,839,118,10,1325,24,619 1,1,1,1,1,1,1,1,1,1
12,7918,2,6,29,54,2660,7,6,569,4017,7919,784,7,395,619,2,56,940,300,75 1,1,1,1,1,1,1,1,1,1,1,1,1,1,1,1,1,1,1,1,1
6,29,91,98,33,12,24,280,26,786 1,1,1,1,1,1,1,1,1,1
16,21,15,1771,86,30,7,1948,277,192,33,5,134,33,579,10,24,56,451,131,223,6,1875,455,10,24,619 1,1,1,1,1,1,1,1,1,1,1,1,1,1,1,1,1,1,1,1,1,1,1,1,1,1,1
12,9704,2,6,29,2500,455,15,7920,71,15,1954,7,200,182,786 1,1,1,1,1,1,1,1,1,1,1,1,1,1,1,1
1573,10,6,29,2,16,3467,15,850,3178,2,51,171,20,31,955 1,1,1,1,1,1,1,1,1,1,1,1,1,1,1,1
16,2731,45,33,12,24,56,2046,5,134,136,6,778 1,1,1,1,1,1,1,1,1,1,1,1,1
6,29,396,2820,5,631,12,7921,12,7918,2,16,118,10,45,126,7,2093,1393,76,16,746,32,199,7922,2,7923,7,873,751,1175 1,1,1,1,1,1,1,1,1,1,1,1,1,1,1,1,1,1,1,1,1,1,1,1,1,1,1,1,1,1,1
6,29,96,54,709,5396,12,7918,186,10,24,936,12,6732,82,41,30,4,157,1123,72,160,6706,2,127,2,831,2,631,2,2820,2,2915,3305,7,6,402,2,986,2,119,2188,527,2,30,7,134,33,5,277,192,33,32,1987,288,2,30,7,2197,1004,80,2,212,153,154,15,1264,7,1176,1293,2,6733,4605,12,7921,129,41,4,255,2,2585,2,1035,2,4299,2,1176,1293,2,907,2,3822,2,3311,2,157 1,1,1,1,1,1,1,1,1,1,1,1,1,1,1,1,1,1,9,1,1,1,1,1,6,1,4,1,1,1,1,1,1,1,1,1,1,1,1,1,1,1,1,1,1,1,1,1,1,1,1,1,1,1,1,1,1,1,1,1,1,1,1,1,1,1,1,1,1,1,1,1,1,1,1,1,1,1,12,1,16,1,6,1,8,1,1,1,1,1,1,1,1,1,1,9
139,4,11,363,366,139 1,1,1,1,1,1
204,30,4,6,29,14,941,16,21,279,540,2,182,5,155,86,7,447 1,1,1,1,1,1,1,1,1,1,1,1,1,1,1,1,1,1
16,154,10,264,32,15,5397,7924,585,16,936,12,1308,7,6732,6,29,353,232,12,6734,16,91,98,30,7,541,26,366,1230 1,1,1,1,1,1,1,1,1,1,1,1,1,1,1,1,1,6,6,1,1,1,1,1,1,1,1,1,1,1
149,30,4,651,611,7,906,721,27,6,447,7,13728,24,651,20,72,5,39,138,153 1,1,1,1,1,1,1,1,1,1,1,1,1,1,1,1,20,1,1,1,1
518,611,12,23,182,79 1,1,1,1,1,1
6,29,113,31,725,6,721,7,2640 1,1,1,1,1,1,1,1,1
6,29,39,178,1114,120,611,12,24,227,79,71,72,664 1,1,1,1,1,1,1,1,1,1,1,1,20,1
16,39,279,992,120,611,7,72,664 1,1,1,1,1,1,1,20,1
7,24,279,249,992,2,178,7,1374,14,96,15,72 1,1,1,1,1,1,1,1,1,1,1,1,20
6,29,79,540,57,31,72 1,1,1,1,1,1,20
74,14,11,363,149,30,7,13729,956 1,1,1,1,1,1,1,1,1
105,107,4,500,7,730,7,6,134,14,406 1,1,1,1,1,1,1,1,1,1,1
424,3628,1268,866,10,1347,567 1,1,1,1,1,1,1
406,134,1020 1,1,1
69,13730,1876 1,1,1
69,946,250 1,1,1
150,101,245,2,11,138,208 1,1,1,1,1,1,1
69,218,207 1,1,1
12,6,3147,286,2,73,100,13731,2,138,169,312,5,150 1,1,1,1,1,1,1,1,1,1,1,1,1,1
751,1175,2,73,100,918,10,13732,2,138,169,511,5398,6,29,20,1394 1,1,1,1,1,1,1,1,1,1,1,1,1,1,1,1,1
310,107,4,959,166,4,452,2,9705,5,958 1,1,1,1,1,1,1,1,1,1,1
6,29,725,6,400,7,24,327,2,62,3626,2,62,9706,2,5,62,4606,27,9707,164 1,1,1,1,1,1,1,1,1,1,1,1,1,1,1,1,1,1,1,1,1
1432,1150,4,728,1567,295 1,1,1,1,1,1
728,4300,13,1125,2314,13733,19,6,75,2,9708,6724,19,6,56 1,1,1,1,1,1,1,1,1,1,1,1,1,1,1
2143,736,295 1,1,1
11,1829 1,1
1206,9709,1186,10,718 1,1,1,1,1
4579,1594,935,103 1,1,1,1
11,1185,3823 1,1,1
6,1515,5,159,2813,1224,641 1,1,1,1,1,1,1
770,107,4,2660,7,6,569,4017,7919,5,6735,2,940,19,6,56,619 1,1,1,1,1,1,1,1,1,1,1,1,1,1,1,1,1
11,2660,7,6,5926,5927,7925 1,1,1,1,1,1,1
69,313,2905 1,1,1
770,634,145,1038,12,223,784,7,395,451,131,720,17,3468,374,7,6,569,4017,7919,5,5926,13734,13735,103 1,1,1,1,1,1,1,1,1,1,1,1,1,1,1,1,1,1,1,1,1,1,1,1,1
11,374,7,6,5926,5927,7925,19,1347,619 1,1,1,1,1,1,1,1,1,1
770,634,145,7,6,229,131,1038,720,17,143,374,7,419,3824,9710,103 1,1,1,1,1,1,1,1,1,1,1,1,1,1,1,1,1
6,29,20,418,10,324,19,24,419,5,1764,471,710,6736,6,107 1,1,1,1,1,1,1,1,1,1,1,1,1,1,1,1
1671,2315,1057,196,103,27,6,2586,2,3629,2,5,372 1,1,1,1,1,1,1,1,1,1,1,1,1
1761,572,5928,103 1,1,1,1
419,2512 1,1
11,13736,7,6,229,131 1,1,1,1,1,1
1107,107,4,185,17,1761,3825,6737,498,12,395,786,114,10,6,445,7,6,372 1,1,1,1,1,1,1,1,1,1,1,1,1,1,1,1,1,1,1
3825,6737,498,14,1336,12,6,4017,1498,7,223,1033,5,6,7926,1498,7,395,619 1,1,1,1,1,1,1,1,1,1,1,1,1,1,1,1,1,1,1
2906,498,1761,12,6,419,2,203,27,6,572,5,372,103 1,1,1,1,1,1,1,1,1,1,1,1,1,1
203,2906,498,12,6,451,131 1,1,1,1,1,1,1
3160,145,185,17,1672,7927,2,51,6,29,252,31,778 1,1,1,1,1,1,1,1,1,1,1,1,1
4607,709,20,428,2,51,253,179,710,6,107 1,1,1,1,1,1,1,1,1,1,1
11,2804,2732 1,1,1
489,512,4,85,7,326,489,145,7,197,2,7915,2,415,2135,2,358,2094,2,371,13737,1308,2,5399,2,1013,44 1,1,1,1,1,1,1,1,1,1,1,1,1,1,1,1,1,1,1,1,1,1,1,1,1,1,1
1388,2,7928,2,1225,44 1,1,1,1,1,1
69,5929 1,1
6,29,1599,16,20,145,69,17,2733,12,5930,2,5,9711,729,7,6,1303,12,5930,5,7928,290,103,810,3469,83,12,6,2734,7929,97,98,2440,236,266 1,1,1,1,1,1,1,1,1,1,1,1,1,1,1,1,1,1,1,1,1,1,1,1,1,1,1,1,1,1,1,1,1,1,1,1
210,5,108,4,12,1212,2,102,45,15,3177,72,509,120,205,10,45,185,9712,4604,13,3179,756 1,1,1,1,1,1,1,1,1,1,1,20,1,1,1,1,1,1,1,1,1,1,1
16,113,45,631,5,2820,32,61,32,2093,1393 1,1,1,1,1,1,1,1,1,1,1
32,102,214,19,6,2095,2,24,3028,41,163,10,52,1226,5,6,29,40,52,104,114,13,356,607,38 1,1,1,1,1,1,1,1,1,1,1,1,1,1,1,1,1,1,1,1,1,1,1,1,1
16,197,1136,71,7930,3826,10,1031,24,126,7,2093,1393 1,1,1,1,1,1,1,1,1,1,1,1,1
50,40,52,864,68,3464,10,210,24,4604,5,909,17,98,181,7,6738,2821,575,26,850,4608,19,6,56 1,1,1,1,1,1,1,1,1,1,1,1,1,1,1,1,1,1,1,1,1,1,1,1,1
6,3464,494,96,156,618,732,7931,5,9713,212,985 1,1,1,1,1,1,1,1,1,1,1,1
729,7,6,850,946,20,96,864,10,836,316,98,1600,1877,76,197,96,2441,10,302,7,498,12,6,280 1,1,1,1,1,1,1,1,1,1,1,1,1,1,1,1,1,1,1,1,1,1,1,1,1
6,29,113,45,15,30,7,3470,850,3467,3178,12,9703,16,197,96,45,39,15,56,2046,1149,27,38,84,76,344,726,194,9714,10,396,13738,2821,3807 1,1,1,1,1,1,1,1,1,1,1,1,1,1,1,1,1,1,1,1,1,1,1,1,1,1,1,1,1,1,1,1,1,1,1
6,29,40,403,17,15,476,110,136,6,288,145 1,1,1,1,1,1,1,1,1,1,1,1
1012,356,467,17,519,318,7917,5395,10,1085,310,481 1,1,1,1,1,1,1,1,1,1,1,1
1028,2,13739,9715,2,106 1,1,1,1,1,1
421,4,62,2253,9706,2,304,317,13740,2,7916,1453,121,13741,13742,13743,13744 1,1,1,1,1,1,1,1,1,1,1,1,1,1,1,1,1
