67,53,4,13990,101,171,5966,1778,121,53,7,616,4,9800,9801,7988,5969,4,175,1703,1589,4,6781,2,2736,519,1589,4,9792,2,9791,519,327,4,6780,2,6779,30,7,63,361,318,9785,14,15,981,86,333,373,13,15,30,7,127,2,283,5,328,638,144 1,1,1,1,1,1,1,1,1,1,1,1,1,1,1,1,1,1,1,1,1,1,1,1,1,1,1,1,1,1,1,1,1,1,1,1,1,1,1,1,1,1,1,1,1,1,1,1,1,1,1,1,1,47,1,9,1,2,2,3
279,109,173,2,16,54,829,287,7,387,399 1,1,1,1,1,1,1,1,1,1,1
16,20,118,19,925,5,1921,13,11,253 1,1,1,1,1,1,1,1,1,1
19,9802,2,16,1446,620,387,233,7,183,5,143,48,449 1,1,1,1,1,1,1,1,1,1,1,1,1,1
16,6784,41,2086,27,5967,121,222 1,1,1,1,1,1,1,1
68,444,964,290,555,837,12,4642 1,1,1,1,1,1,1,1
16,836,12,17,68,768,475,13,15,749,19,5905,16,20,557,10,52,12,887,138,377 1,1,1,1,1,18,18,1,1,1,1,1,1,1,1,1,1,1,1,1,1
16,20,146,514,2,198,2,2746,5,242,260,13,253,12,126 1,1,1,9,1,4,1,1,1,1,1,1,1,1,1
19,9787,2,16,20,690,10,5966,1778,121,17,101,594 1,2,2,2,2,2,2,2,2,2,2,10,10
6,258,151,185,17,4326,188,128,80,5,595,1261,714,1922,13,68,56,760,893,1166,7,274,10,182,42 2,2,2,2,2,2,4,4,4,1,1,1,1,1,1,1,1,1,1,1,1,1,1,1,1
16,20,519,10,62,13991,9803,17,2436,101,586,2593,5,270,1261,714,892 1,1,1,1,1,1,1,1,1,1,1,1,1,1,1,1,1
16,20,271,10,164,19,13992 1,1,1,1,1,1,1
19,9804,2,16,396,656,56,567,48,100,471,27,416 1,1,1,1,1,1,1,1,1,1,1,1,1
16,1351,55,1168,1913,13,253,12,126 1,1,1,1,19,1,1,1,1
16,63,10,5966,1778,121,222 1,1,1,1,1,1,1
16,20,118,19,242,652 1,1,1,1,1,1
444,101,3202,151,69 1,1,1,1,1
16,20,557,10,45,68,217,1737,10,13993,15,508,115,887,138,377 1,1,1,1,1,1,1,1,1,1,1,1,1,1,1,1
16,20,170,10,13994 1,1,1,1,1
16,39,68,287,7,48,100,471,27,416,37,523,13,35,1168,1913 1,1,1,1,1,1,1,1,1,1,1,1,1,1,1,19
16,14,52,519,17,1803,7,101,171 1,1,1,1,1,1,1,1,1
955,887,138,377,2303,757,2156,307,679,142,9,965,8,4,13995,1954,9,12,8,4,9805,72,328,4,72,369,328,638,72,187,4,832,1805,2381,358,4,7989,127,186,666,1083,175,82,3484,30,127,283,72,369,328,638,1270,1187,5962,13996,2745,5,2088,1546,139,1525,4,11,363,139,162,41,198,9,912,577,8,407,22,25,95,989,9,336,8,487,22,25,95,260,9,828,8,155,22,25,64,216,94,22,25,95,545,9,604,1455,8,274,22,25,64,2745,488,22,25,550,28,488,22,27,5968,2,801,22,27,314,838,1651,22,9,838,6785,9,1651,22,8,8,35,293,1168,165,1628,9,1501,429,8,235,9806,25,95,13997,9,3619,929,1009,8,487,22,25,64,129,41,912,577,9,198,8,407,22,25,550,911,9,241,8,404,22,25,549,6722,1326,6786,22,242,4643,95,3619,9,2088,8,487,22,25,64,1962,429,9,907,8,235,22,25,64,828,9,260,8,122,22,25,95,654,94,22,25,550,329,1241,652,101,1165,919,242,9807,4988,242,87,3337,157,150,4989,1165,919,438,64,329,1241,5,329,1981,1847,4327,123,22,25,322,2450,1505,1009,9,673,790,3485 1,1,1,1,2,2,1,1,1,1,1,1,1,1,1,1,1,1,1,1,1,1,1,1,1,1,1,1,1,1,1,1,1,1,1,1,1,47,1,1,1,1,1,1,1,47,9,1,1,1,1,1,1,1,1,1,1,1,1,1,1,1,1,1,1,1,1,4,1,1,1,1,1,1,1,1,56,1,47,1,1,1,1,1,1,1,1,1,1,1,1,1,15,1,1,1,1,28,1,79,1,1,1,1,1,1,1,1,1,1,1,1,1,1,1,1,1,1,1,1,1,16,1,1,1,16,1,1,1,1,1,1,1,1,1,1,1,1,1,1,1,1,1,1,1,1,1,1,1,1,1,1,1,1,1,1,1,1,1,1,4,1,1,1,1,1,33,1,28,1,1,1,1,1,1,1,1,1,1,1,1,1,1,1,1,1,1,1,1,1,1,1,1,1,1,1,1,1,1,1,1,1,1,1,1,1,8,1,1,1,1,1,1,1,1,1,1,1,1,1,1,1,1,58,1,1,1,1,1,1,1,1,1,1,1,1,1,1,1,1,1,1,1,1,1,1,1,1
3338 1
8,122,1918,25,1541,2450,1505,1009,9,673,790,3485 1,1,1,1,1,1,1,1,1,1,1,1
3338 1
8,155,1918,25,1541,1501,429,235,1240,25,95,604,1455,9,545,8,1236,22,25,322,838,6785,9,1651,22,8,35,293,1168,555,94,1572,112,117,225,673,790,2423,1009,293,155,1918,25,1541,673,790,2423,1009,293,122,1918,25,1541,3482,9,2745,8,488,22,25,27,94,874,3482,9,2745,8,488,22,25,12,248,3482,9,2745,8,801,22,25,1234,2843,805,9,2038,8,801,22,25,64,429,790,1708,42,3646,117,1447,242,9808,429,790,1708,42,3646,117,1447,242,2103,2381,101,166,768,475,4,9,9802,2,9804,8,179,4,81,733,28,289,548,5,81,903,28,951,548,138,377,7982,9809,4,7982,2912,1091,101,63,4,1827,2,2303,757,3339,1539,5,1320,145,695,13998,1146,864,964,13999,2,555,837,12,4642,218,3486,263,9810,4644,79,290,44,9,612,8,2451,79,204,30,2939,4,936,3848,175,54,4,14000,28,55,1910,687,149,30,72,9811,175,54,4,14001,611,7,68,768,475,27,447,14002,13,144,2,611,7,2734,367,2937,26,768,475,27,447,1487,85,7,191,14003,1987,12,259,105,78,133,9,75,8,4,5433,28,133,9,56,8,4,5433,28,137,4,1670,28,245,4,6787,202,4,61,205,2,2587,802,1442,12,891,12,11,195,350,234,4,1277,645,2,1140,1597,1373,2,855,2647,4,12,230,892,134,4,351,2,11,937,666,4,456,2,1257,2,1730,4990,1342,4,90,103,212,4,11,266,26,284,9812,4,662,2,11,88,365,4,61,1255,2727,1923,2,1353,2,159,2,976,2,11,1131,846,4,44,1332,2,11,236,2,1007,696,2,159,2266,2525,1071,9,36,8,491,352,4,452,5,661,112,117,2,2425,2267,731,4,103,9813,79,205,5970,19,1175,137,4,9,612,8,218,4,196,28,3050,4,196,28,1311,4,196,28,2821,4,427,609,4,196,28,1063,4,564,28,332,1982,4,564,28,2326,2150,4,427,207,4,9,612,8,609,207,4,180,901,28,218,207,4,9,59,8,63,48,788,9810,5434,508,4,88,2,9,612,8,877,348,93,141,9,160,162,8,60,60,4645,6788,36,330,932,3487,430,4645,6788,36,499,932,6789,1367,9,59,8,4645,6788,36,296,932,4991,42,9,59,8,4645,6788,36,484,932,5971,1287,60,60,4071,4328,36,321,686,932,4646,325,9,59,8,4645,7990,36,321,571,932,1997,325,4071,4328,36,321,857,932,2364,325,9,59,8,4071,4328,36,321,9814,932,4992,325,4071,4328,36,321,415,932,610,193,4071,4328,36,321,844,932,7989,193,4645,7990,36,321,813,932,2594,193,9,77,8,4071,4328,36,1177,932,1676,193,4071,4328,36,22,932,2094,1384,60,60,4645,7990,36,1639,932,2595,658,9,59,8,4071,14004,36,14005,932,69,60,60,4071,4328,36,70,932,3828,1059,4071,4328,36,1049,932,1256,4645,14006,36,2042,932,14007,1059,9,77,8,153,5,108,35,4,101,14008,81,1178,28,1539,219,14009,79,749,2,437,217,10,9815,14010,225,7,514,19,14011,9816,2596,1146,521,17,89,10,273,210,6,866,7,553,55,4,3051,9816,731,3329,864,17,89,10,176,9,612,8,9813,79,32,5970,3051,117,4,2381,470,9817,141,2,1924,2,359,818,81,1178,28,66,864,1472,586,2385,640,213,4,101,171,2381,9818,9817,9818,118,89,28,14012,224,43,14013,927,14014,2,3052,19,9800,9801 1,1,1,1,1,1,1,1,1,1,1,79,1,1,28,1,1,1,1,1,16,1,1,1,1,1,1,1,1,1,1,1,1,1,1,1,1,1,1,1,1,1,1,1,1,1,1,1,1,1,1,1,1,1,1,1,1,1,1,1,1,1,1,1,1,1,1,1,1,1,1,1,1,1,1,1,1,1,1,1,1,1,1,1,1,1,1,1,1,1,1,1,1,1,1,1,1,1,1,1,1,1,1,1,1,1,1,1,1,1,18,18,3,3,3,3,3,3,1,1,1,1,1,1,1,1,1,1,1,1,1,1,1,1,1,1,1,1,1,1,1,1,1,1,2,2,1,1,1,1,1,1,1,1,1,1,1,1,1,1,1,1,1,1,1,1,1,1,1,1,1,1,1,1,1,1,1,1,1,1,1,1,1,1,1,1,1,1,1,1,1,1,1,1,1,1,1,1,1,1,18,18,1,1,1,1,3,1,1,1,1,1,1,1,18,18,1,1,1,1,1,1,1,1,1,1,1,1,1,1,1,1,1,1,1,1,1,1,1,1,1,1,1,1,1,1,1,1,1,1,1,1,1,1,1,1,1,1,1,1,1,1,1,1,1,1,1,1,1,1,1,1,1,1,1,1,1,1,1,1,1,1,1,1,1,1,1,1,1,1,1,1,1,1,1,1,1,1,1,1,1,1,1,1,1,1,1,1,1,1,1,1,1,1,1,1,1,1,1,1,1,1,1,1,1,1,1,1,1,1,1,1,1,1,1,1,1,1,1,1,1,1,1,1,1,1,1,1,1,1,1,1,1,1,1,1,1,1,1,1,1,1,1,1,1,1,1,1,1,1,1,1,1,1,1,1,1,1,1,1,1,1,1,1,1,1,1,1,1,1,1,1,1,1,1,1,1,1,1,1,1,1,1,1,1,1,1,1,1,1,1,1,1,1,1,1,1,1,1,1,1,1,1,1,1,1,1,1,1,1,1,1,1,1,1,1,1,1,1,1,1,1,1,1,1,1,1,1,1,1,1,1,1,1,1,1,1,1,1,1,1,1,1,1,1,1,1,1,1,1,1,1,1,1,1,1,1,1,1,1,1,1,1,1,1,1,1,1,1,1,1,1,1,1,1,1,1,1,1,1,1,1,1,1,1,1,1,1,1,1,1,1,1,1,1,1,1,1,1,1,1,1,1,1,1,1,1,1,1,1,1,1,1,1,1,1,1,1,1,1,1,1,1,1,1,1,1,1,1,1,1,1,1,1,1,1,1,1,1,1,1,1,1,1,1,1,1,1,1,1,1,1,1,1,1,1,1,1,1,1,1,1,1,1,1,1,1,1,1,1,1,1,1,1,1,1,1,1,1,1,1,1,1,1,1,1,1,1,1,1,1,1,1,1,1,1,1,1,9,1,1,1,1,1,1,1,1,1,1,1,1,1,1,1,1,1,1,1,1,1,1,1,1,1,1,1,1,1,1,1,1,1,1,1,1,1,1,1,1,1,1,1,1,1,1,1,1,1,1,1,1,1,1,1,1,1,1,1,1,1,1,1,1,1,1,1,1,1,1,1,1,1,1,1,1
