67,53,4,13976,543,5966,1778,121,431,17,110,4,543,1169,162,54,17,655,6781,2,519,71,655,9791,9792 1,1,1,1,1,1,1,1,1,1,1,1,1,1,1,1,1,1,1,1,1,1,1,1,1
1827,5,461,13,108,17,101,443 3,1,1,1,1,1,1,1
732,30,4,13977,13,144,19,832,1381,120,1045,113,112,55,109,2,444,118,19,13978,1921,97,253,60,81,733,28,55,58,186,10,162,27,5967,121,9,170,9793,8,1045,620,299,13,48,449 1,1,1,1,1,4,1,1,1,1,1,1,1,1,1,1,1,1,1,1,1,1,1,1,1,1,1,1,1,1,1,1,1,1,1,1,1,1,1,1,1,1,1,1,1
54,143,580,417 1,1,1,1
91,98,175,126,36,692,2,740,2,411,2,1239,2,26,823 1,1,1,1,1,1,1,1,1,1,1,1,1,1,1
16,21,622,39,1161,68,287,329 1,1,1,1,1,1,1,1
27,6782,2,167,13,4640,13979 1,1,1,1,1,1,1
886,1128,1084,2,3793,1128,13980,118,19,198,2,1738,2,2746,2,5,260,13,1906,7,126 1,1,1,1,1,1,1,1,1,52,1,56,1,1,1,1,1,1,1,1,1
16,14,690,17,101,594,13,62,13981,19,13982,13,108,17,443,89 1,1,1,1,1,1,1,1,1,1,1,1,1,1,1,1
85,13983,5,13984,17,554 1,1,1,1,1,1
82,41,30,4,1827,32,288,144,36,19,654,5,336,5962,4039,36,19,2745,5,2088,1187,36,19,1628,1546,164,41,4,189,1501,9794,95,190,2745,1500,248,2,1500,27,5968,2,2592,27,1234,220,2088,819,64,281,654,566,95,380,336,819,64,690,41,4,189,32,288,13,190,198,942,95,220,514,1500,95,281,911,1607,95,380,604,807,95,129,41,1103,4,912,577,9,198,8,407,22,25,34,13985,22,25,549,3619,9,2088,8,487,22,25,64,13986,22,25,34,1962,429,9,907,8,235,22,25,322,1501,429,9,1628,8,235,1240,25,34,216,94,22,25,34,604,13987,22,25,64,3482,9,2745,8,801,22,25,27,1234,3482,9,2745,8,488,22,25,555,5968,3482,9,2745,8,488,22,25,550,83,10,139,1525,4,11,363,139,36,1108,4,238,85,239,149,30,4,91,98,363,3006,206,204,30,4,1224,71,9795,12,1537,9796,249,13,547,5,747,79,149,12,13988,2,12 1,1,1,1,3,1,1,4,1,1,19,1,21,1,1,1,1,1,1,1,1,1,1,1,1,1,1,1,1,1,1,1,1,1,1,1,1,1,1,1,1,1,1,1,1,1,1,1,1,19,1,1,1,21,1,1,1,1,1,1,1,1,1,1,52,1,1,1,1,1,1,1,79,1,1,1,37,1,1,1,1,1,1,1,1,1,52,1,1,1,1,1,79,1,1,1,1,1,1,1,1,1,1,1,84,1,1,1,1,1,1,1,1,1,1,1,1,1,1,1,1,1,1,1,1,1,69,1,1,1,1,37,1,1,1,1,1,1,1,1,1,1,1,1,1,1,1,1,1,1,1,1,1,1,1,1,1,1,1,1,1,1,1,1,1,1,1,1,1,1,1,1,1,1,1,1,1,1,1,1,1,1,1,1,1,1,1,1,1,1,1,1,1,1,1,1,1,1,1,1,1,1,1,1
936,141,9797 1,1,1
91,232 14,14
1983,463,2,31,112,182,86 1,1,1,1,1,1,1
91,1202,366 1,1,1
85,7,191,4,32,140,259 1,1,1,1,1,1,1
382,69,12,393 1,1,1,1
105,107,4,1608,4,3314,150,1996 1,1,1,1,1,1,1,1
169,4,763,1681,4,61,205,2,1878,9798,373,12,11,771,410,350 1,1,1,1,1,1,1,1,1,1,1,1,1,1,1,1
418,10,1442,935 1,1,1,1
1881,4,1305,855,1682,4,218,196,103,13,44,1647,5,11,207,2,530,6783,5943,13,1707,13989,1609,4,2054,961,59,81,733,28,184,1472,4,456,2,44,1257,2,11,7986,2665,26,1776,3645,2,1415,2265,2,11,7987,2,3200,1006,215,1650,1610,4,159,2,414,2,1353,11,207,26,4641,1579,4,3201,103,786 1,1,1,1,1,1,1,1,1,1,1,1,1,1,1,1,1,1,1,1,1,1,1,1,1,1,1,1,1,1,1,1,1,1,1,1,1,1,1,1,1,1,1,1,1,1,1,1,1,1,1,1,1,1,1,1,1,1,1,1,1,1,1,1,1,1,1,1,1,1,1
196,9799,13,159,207,184,81,733,28,59,2,196,3483 1,1,1,1,1,1,1,1,1,1,1,1,1
564,88 1,1
2524,4,452,2,958,12,203 1,1,1,1,1,1,1
1547,4,2722,1605,93,141,4,1677,53 1,1,1,1,1,1,1,1,1
