67,53,4,14132,29,400,4,4658,2,3347,238,528,4,14133,239,53,7,110,4,14134,421,4,436,17,384,135,2,144,2,206,28,2381,17,402,171,8020,259,4,1636,323,646,247,144,2108,2,831,2,461,2,206,119,1023 1,1,1,1,1,1,1,1,1,1,1,1,1,1,1,1,1,1,1,1,1,1,1,1,1,10,1,65,1,12,1,1,1,1,1,1,1,1,1,1,1,1,65,70,1,9,1,1,1,12,10,3
18,14,521,9868,402,171,13,62,8021,19,8020 1,1,1,1,1,1,1,1,1,1,1
18,163,68,167,2,1297,2,842,2,5994 1,1,1,1,1,1,1,1,1,1
13,2805,10,23,666,470,2,18,14,47,1743,182,22,34,2,216,155,22,34,2,260,404,64,2,5,255,235,22,25,34 1,1,1,1,1,1,1,1,1,1,4,1,1,1,1,65,1,1,1,1,1,1,1,1,1,28,1,1,1,1
18,14,96,47,243,407,22,25,34 1,1,1,1,28,1,1,1,1
50,1159,23,18,494,469,47,243,830,58,186,10,171 1,1,1,1,1,1,1,28,1,1,1,1,1
18,91,98,495,2,299,2,301,2,392 1,1,1,1,1,1,1,1,1,1
589,4,144,2108,2,18,148,37,23,1192,45,65,32,277,32,2333,3351,12,248,2,5,32,360,32,9869,12,6,14135 1,1,65,70,1,1,1,1,1,1,1,1,1,1,1,1,1,1,1,1,1,1,1,1,1,1,1,1
18,14,47,654,94,22,55,46,550 1,1,1,4,1,1,1,1,1
99,2602,1170,12,1217,5999,589,4,1018,28,18,47,2662,227,22,555,289,548,630 13,3,3,1,1,1,1,1,1,1,1,1,1,1,1,1,1,1,1
50,1471,29,31,10,47,2662,830,58,186,10,402,171 1,1,1,1,1,1,1,1,1,1,1,1,1
39,1207,93,14136,5,526 1,1,1,1,1,1
544,4,32,288,4,1349,665,123,765,160,2032,2334 1,1,1,1,1,1,1,1,1,1,1,1
1551,153,1551,188,128,80,1023,461,72,831,510,1207,2163,2216,2580,510,1074,145,1551,41,1551,255,722,25,34,1832,1024,25,34,1743,1611,25,34,260,1607,25,64,241,9,911,8,425,35,46,9,66,8,25,34,216,485,25,34,336,819,35,46,9,66,8,25,64,1913,1289,22,4665,1168,555,94,1572,112,117,1157,4077,634,9,2004,559,932,819,25,55,293,885,289,548,32,163,2662,9,3498,8,667,25,1744,165 1,1,1,13,13,13,1,1,11,9,1,1,1,1,1,1,1,1,1,1,1,28,1,1,1,1,1,1,1,4,1,1,1,1,1,1,1,4,1,1,1,1,1,1,1,1,1,1,1,65,1,1,1,15,1,1,1,1,1,1,1,1,8,1,1,1,1,1,1,1,1,1,1,1,1,1,1,1,1,1,1,1,1,1,1,1,1,1,1,1,1,1,1,1,1,1
6705,9,14137,8,533,35,46,9,66,8,25,34,1551,139,1551,789,1551,339,224,1551,73,100,4,60,14138,238,56,313,239,238,997,239,137,4,60,1228,238,150,239,238,1311,239,142,4,60,5451,238,647,239,799,4,3063,2,3209,2,474,2,11,218,207,234,4,978,90,351,14139,2,11,870,2,11,218,207 1,1,1,1,1,1,1,1,1,1,1,1,1,1,1,1,1,1,1,1,1,1,1,1,1,1,1,1,1,1,1,1,1,1,1,1,1,1,1,1,1,1,1,1,1,1,1,1,1,1,1,1,1,1,1,1,1,1,1,1,1,1,1,1,1,1,1,1,1,1,1,1,1
138,4,618,2,1257,152,4,787,11,14140,221,4,1353,2,159,2,897,2,1307,559,4,11,14141,141,4,167,2,1297,2,5994,2,842,2,3166,2,2519,1355,393,17,4658,2,3347,5996,73,8022,8023,953,49,9870,145,1641,258,1781,1377 1,1,1,1,1,1,1,1,1,1,1,1,1,1,1,1,1,1,1,1,1,1,1,1,1,1,1,1,1,1,1,1,1,1,1,1,1,1,1,1,1,1,1,1,1,1,1,1,1,1,1,1,1,1
500,1377 1,1
168,371,4339,251,49,14142,193,1782,1739,2603,251,6000,193,358,1710,9871,193,429,1550,14143,325,673,1884,9872,325,790,2217,8024,325,493,727,274,14144,325,1424,2453,875,3855,325,14145,1155,14146,658,14147,1203,14148,658,4049,1177,1314,14149,658,9873,3614,1651,6001,193,2599,3614,1475,2045,193,9873,4958,6002,5452,598,1343,2005,14150,598,1841,1946,14151,598,483,3633,14152,193,4666,3210,383,3616,14153,393,17,4658,2,3347,5996,73,8022,8023,953,49,9870,145,1641,258,1781,1377 1,1,1,1,1,1,1,1,1,1,1,1,1,1,1,1,1,1,1,1,1,1,1,1,1,1,1,1,1,1,1,1,1,1,1,1,1,1,1,1,1,1,1,1,1,1,1,1,1,1,1,1,1,1,1,1,1,1,1,1,1,1,1,1,1,1,1,1,1,1,1,1,1,1,1,1,1,1,1,1,1,1,1,1,1,1,1,1,1,1,1,1,1,1,1,1,1,1,1,1,1
500,1377 1,1
168,330,14154,9874,6811,660,14155,14156,9875,499,1236,14157,598,296,8025,14158,42,578,14159,251,14160,14161,700,5024,251,14162,14163,737,5007,9876,598,701,3352,14164,484,6702,49,14165,6811,9877,42,4667,14166,772,42,1926,14167,1124,42,14168,14169,773,42,1884,5453,796,42,1708,14170,9877,49,9878,14171,772,49,14172,14173,1124,49,14174,14175,773,49,6003,14176,796,49,3061,14177,2006,292,70,3499,14178,1059,1072,6004,14179,1059,70,9,1053,8,1459,14180,4666,3210,383,3616,958 1,1,1,1,1,1,1,1,1,1,1,1,1,1,1,1,1,1,1,1,1,1,1,1,1,1,1,1,1,1,1,1,1,1,1,1,1,1,1,1,1,1,1,1,1,1,1,1,1,1,1,1,1,1,1,1,1,1,1,1,1,1,1,1,1,1,1,1,1,1,1,1,1,1,1,1,1,1,1,1,1,1,1,1,1,1,1,1,1,1,1,1,1,1,1,1,1,1,1,1
1152,393,17,4658,2,3347,5996,359,8022,8023,953,49,14181,145,1641,258,1781,1377 1,1,1,1,1,1,1,1,1,1,1,1,1,1,1,1,1,1
500,1377 1,1
168,1711,1612,258,2256,4,4078,3500,14182,9879,14183,2674,1966,14184,972,174,371,174,14185,4079,174,3614,174,73,174,9880,5410,2053,4668,174,14186,174,330,6710,14187,660,1898,1450,4294,1476,2710,174,8026,14188,1476,5025,174,175,174,1597,174,9881,174,4666,3210,383,3616,958 1,1,1,1,1,1,1,1,1,1,1,1,1,1,1,1,1,1,1,1,1,1,1,1,1,1,1,1,1,1,1,1,1,1,1,1,1,1,1,1,1,1,1,1,1,1,1,1,1,1,1,1,1,1,1,1,1,1
167,4,804,184,3314,2,2424,3146,1125,862,4,189,6005,4,2602,1170,9882 1,1,1,1,1,1,1,1,1,1,1,1,16,1,3,3,1
40,876,654,2,5,118,336,487,22,25,64 1,13,4,1,1,4,15,1,1,1,1
1159,23,10,31,47,248,225,6,486,7,6,402,171,5,197,1774,874,225,186,10,1981,37,761 1,1,1,1,1,1,1,1,1,1,1,1,1,1,1,1,1,1,1,1,1,1,1
18,1434 1,1
1282,13,64,225,23,144,40,52,458,187,2,1265,12,2316 1,1,1,1,1,65,1,1,1,1,1,1,1,1
8027,3476,14189,217,9882,51,44,132,5,494,52,1115,13,336 1,1,1,1,1,1,1,1,1,1,1,1,1,15
311,2850,17,336,146 1,1,1,15,1
190,666,4,135,2,206,119,1023 1,1,1,10,1,12,10,3
40,147,167,89 1,1,1,1
18,14,1394,27,38,84 1,1,1,1,1,1
1159,10,710,243,830,58,186,10,402,171 1,1,1,28,1,1,1,1,1,1
220,1018,4,1159,10,710,2662,830,58,186,10,171 1,1,1,1,1,1,1,1,1,1,1,1
197,47,1157,17,33,1766,2932 1,1,1,1,1,1,1
281,3038,4,521,17,402,171,14190,62,8021,8020 1,1,1,1,1,1,1,1,1,1,1
2381,592,5,2424,141,32,288,2,156,1297,2,842,2,5994,2,1304,2,167,2,5,2519,9,111,141,288,17,258,8,380,8028,4,143,1274,4,4080,1697,22,25,34,112,117,58,6006,49,117,46 1,1,1,1,1,1,1,1,1,1,1,1,1,1,1,1,1,1,1,1,1,1,1,1,1,1,1,1,1,1,1,1,1,1,1,1,1,1,1,1,1,1,1,1,1,1
501,1502,109,7,1561,14191,9,178,109,186,10,521,402,171,8,10,3856,23,1192,5,144,574,14192,6007,9883,2,106 1,1,1,1,1,1,1,1,1,1,1,1,1,1,1,1,1,1,1,1,65,1,1,1,1,1,1
