67,53,4,14197,1308,1376,2,2673,3501,6812,2,106 1,1,1,1,1,1,1,1,1,1,1,1
14198,8029,3292,8030,2,3655,8031,589,4,2756,2851,553,49,6008,853,8032,4,50,739,767,29,2,2756,2851,2,12,6,543,632,89,5,16,738,161,16,14,253 1,1,1,1,1,1,1,1,1,1,1,1,1,1,1,1,1,1,1,1,1,1,1,1,1,1,1,1,1,1,1,1,1,1,1,1,1
16,199,24,280,57,458,5,37,16,344,324,1401,3637 1,1,1,1,1,1,1,1,1,1,1,1,1
16,199,246,1196 1,1,1,1
24,129,41,156,604,227,22,140,58,2,1552,715,312,22,140,58,2,260,122,22,140,58 1,1,1,1,9,1,1,1,1,1,20,1,1,1,1,1,1,1,1,1,1,1
19,78,89,2,16,21,15,73,100,7,9886,2,15,138,169,7,1213,5,150 1,1,1,1,1,1,1,5,5,5,5,5,1,1,1,1,1,1,1
142,3799,647 1,1,1
424,5,134,526 1,1,1,1
48,14,90 1,1,1
101,78,14,682,17,68,982,5,15,4669,672,893,208 1,1,1,1,1,1,1,1,1,1,1,1,1
6,416,7,24,78,20,526 1,1,1,1,1,1,1
416,624,998,1251,14,888,707,44,385,245,5,15,56,1003,2268 1,1,1,1,1,1,1,1,1,1,1,1,1,1,1
74,14,15,1493,6010,2852,2300 1,1,1,1,1,1,1
50,629,318,2851,14,172,246,61 1,1,1,1,1,1,1,1
16,240,161,10,45,24,128,137,822,4620,5,50,460,10,1780,37,521 1,1,1,1,1,1,1,1,1,1,1,1,1,1,1,1,1
12,466,2,24,604,21,65,343,635,15,58,5,124,16,344,562,92,834,15,58,16,40,45,15,458,187,5,297,1990,307,1468 1,1,1,1,9,1,1,1,1,1,1,1,1,1,1,1,1,1,1,1,1,1,1,1,1,1,1,1,1,1,1
50,520,37,102,116,92,10,227,22,64 1,1,1,1,1,1,1,1,1,1
50,96,954,194,1507,10,47,24,137,5,16,344,1209,68,402,19,92 1,1,1,1,1,1,1,1,1,1,1,1,1,1,1,1,1
124,92,918,1392,277,102,344,1031,6,225 1,1,1,1,1,1,1,1,1,1
16,794,37,50,111,194,467,12,200,1041,130,17,1054,4671,5,50,40,52,2757,10,172,426 1,1,1,1,1,1,1,1,1,1,1,1,1,1,1,1,1,1,1,1,1,1
124,98,153,396,12,6,2365,383,172,31,1849,10,782,291 1,1,1,1,1,1,1,1,1,1,1,1,1,1
1012,356,17,1510,291,10,583,13,24,211 1,1,1,1,1,1,1,1,1,1
6814,607 1,1
2756,2851,553,49,6008,3065,1308,1376,2,2673,1028,767,2,5456,4082,6012,2,106 1,1,1,1,1,1,1,1,1,1,1,1,1,1,1,1,1,1
4083,41,582,1400,9887,561,8033,2,3655,8034,14199,841,4,9888,859,4,14200,852,4,9888,257,2534,51,31,85,43,262,934,257 1,1,1,1,1,1,1,1,1,1,1,1,1,1,1,1,1,1,1,1,1,1,1,1,1,1,1,1,1
