67,53,4,14350,162,54,14351,259,4,14352,373,120,591,138,659,12,2258,5,21,1148,19,774,9,93,118,36,81,733,28,910,3862,426,2298,2248,8 1,1,1,1,1,1,1,1,1,1,1,1,1,1,1,1,1,1,1,1,1,1,1,1,1,1,1,1,1,1,1,1,1,1,1
16,14,65,2436,170,71,24,1589,632,201,437,217,749,1128,27,8066,2,348,93,14353,16,14,495,777,5,219,5,14,52,690,17,273,176,5,264,114 1,1,1,1,1,1,1,1,1,1,1,1,1,1,1,1,1,1,1,1,1,1,1,1,1,1,1,1,1,1,1,1,1,1,1,1
99,774,3862,19,3327 1,1,1,1,1
99,3328,695,99,86,115,125,1116,1650,2935,2,76,4973,12,985,3328 1,1,1,1,1,1,1,1,1,1,1,1,1,1,1,1
964,290,804,27,1531,201,428,184,837,584,19,625,998 1,1,1,1,1,1,1,1,1,1,1,1,1
9940,19,2366,51,11,311,1759,26,561,83 1,1,1,1,1,1,1,1,1,1
695,27,1887,14354,229,626,27,6848,42,13,4093,19,2339,2,793,625,2,1371,536,5,1371,792,780,1088 1,1,1,1,1,1,1,1,1,1,1,1,1,1,1,1,1,1,1,1,1,1,1,1
16,148,209,9941,19,595,387 1,1,1,1,1,1,1
16,14,353,4036 1,1,1,1
544,4,2765,1080 1,1,1,1
677,4,206,2,254,2,72,2,759,440,1587,1944,1689,27,405,2,1148,2342,1123,2,337,5,716 1,1,10,1,22,1,4,1,1,1,1,1,1,1,1,1,1,1,1,1,1,1,1
24,129,41,156,198,505,22,355 1,1,1,1,11,1,1,1
95,2,5471,801,22,355 1,1,1,1,1,1
1010,2,5356,5039,14355,22,355 1,1,20,1,1,1,1
95,2,2953,1853,22,355 1,1,1,1,1,1
95,2,2,878,1661,168,2611,1010,2,260,312,697,355 1,1,1,7,1,1,1,1,1,1,1,1,1
64,9942,58,2,4094,123,22,355 1,1,1,1,1,1,1,1
95,2,241,123,22,355 1,1,12,1,1,1
95,2,3361,488,22,355 1,1,1,1,1,1
1010,2,3048,227,22,355 1,1,9,1,1,1
95,2,636,818,487,22,355 1,1,1,1,1,1,1
1010,2,5,636,1793,1583,304,168,355 1,1,1,1,1,1,1,1,1
1191 1
223,4,1643,1109,4,249,201,547 1,1,1,1,1,1,1,1
6849,993,4,286,17,144,5,206,423,4,5923,5463,763,235,42,1362,474,2,530,935,456,1699,1093,787,1087,365,254,2,159,2,897,2,1307,59,2749,1603,201,230,2954,5,207,580,11,88,141,376,319,1810,323,697,119,138,659,5,1148,19,774,63,13,217,749 1,1,1,1,1,1,1,10,1,1,1,1,1,1,1,1,1,1,1,1,1,1,1,1,1,1,66,1,1,1,1,1,1,1,1,1,1,1,1,1,1,1,1,1,1,1,1,1,1,1,1,1,1,1,1,1,1,1,1,1,1
6,4321,7,24,358,71,1698,121,14,31,520,7,195,188,754 1,1,1,1,1,1,1,1,1,1,1,1,1,1,1
749,3662,14,15,2213,502,12,29,13,1148,19,2342,160,6,1539,83,998,10,14356,338,468,14357,9943 1,1,1,1,1,1,1,1,1,1,1,1,1,1,1,1,1,1,1,1,1,1,1
19,6,175,619,2,272,10,6,524,12,176,1328,12,29,37,39,3353,659,2,40,453,101,1873,17,6,435,624,548,5,9944,2,87,41,388,13,243,2,1142,2,1301,5,652 1,1,1,1,1,1,1,1,1,1,1,1,1,1,1,1,1,1,1,1,1,1,1,1,1,1,1,1,1,1,1,1,1,1,1,1,1,1,1,1,1,1
6,229,626,19,1698,695,563,520,32,61,93,82,1029,7,768,475,2,1499,13,6,335,780,707,2935 1,1,1,1,1,1,1,1,1,1,1,1,1,1,1,1,1,1,1,1,1,1,1,1
81,733,28,87,175,164,244 1,1,1,1,1,1,1
81,733,28,147,6850,445,12,248 1,1,1,1,1,1,1,1
81,733,28,160,219,1019,166,2,442,782,158,12,248,17,273,1642,200,435,774,3862,1123,19,141,258 1,1,1,1,1,1,1,1,1,1,1,1,1,1,1,1,1,1,1,1,1,1,1,1
81,733,28,40,87,260,19,9942,58 1,1,1,1,1,1,1,1,1
81,733,28,40,1465,273,145,10,803,1589,12,248 1,1,1,1,1,1,1,1,1,1,1,1
81,733,28,1689,27,405,81,733,28,1209,1221,136,3514 1,1,1,1,1,1,1,1,1,1,1,1,1
81,733,28,40,147,2766,2,899,4057,2,14358,5,274,5476 1,1,1,1,1,1,1,1,1,1,1,1,1,1
9945,6035,9946,2,228 1,1,1,1,1
