67,53,4,14397,1238,1111,2010,6855,2914,6042,2,228,3068,7,543,9961,41,582,589,4,4353,1040,9962,14398,853,62,6042,4,50,39,6,1070,7,211,17,318,1040,27,9962,14399 1,1,1,1,1,1,1,1,1,1,1,1,1,1,1,1,1,1,1,1,1,1,1,1,1,1,1,1,1,1,1,1,1,1,1,1,1,1,1,1
16,14,15,3665,509,13,206,2,144,2,360,398,2,135,2,5,149,30,7,881,206,2,120,39,15,408,145,37,115,5925,338,12,6,56,1777,5,2898 1,1,1,1,1,1,10,1,4,1,15,15,1,8,1,1,25,25,25,25,10,25,1,1,1,2,2,2,2,2,2,2,2,2,2,2,2
1613,115,15,14400,191,2,15,235,3868,56,1777,1407,2,68,1425,3868,14401,266,2,5,5481,298,266 1,1,1,1,1,1,1,2,2,2,2,2,1,1,1,1,1,1,1,1,1,1,1
6,56,1777,20,14402,5,15,5046,6859,43,14403,261,20,465 1,1,1,1,3,3,3,3,3,3,3,3,3,3
6,554,20,375,13,14404,5,6,2612,20,4275,3670 1,1,1,1,1,1,1,1,1,1,1,1
74,151,11,664 1,1,1,1
16,2110,68,4347,761,97,278,26,664,2,1183,97,524 1,1,1,1,1,1,1,1,1,1,1,1,1
24,1216,20,159,5,250,13,4678,51,11,1644 1,1,1,1,1,1,1,1,1,1,1
131,151,662,13,427,88,10,6,572,28,137,151,196,762 1,1,1,1,1,1,1,1,1,1,1,1,1,1
486,141,156,398,7,3365,2,1408,2907,2,957,2224,5,593,6046,16,20,271,164,19,529,157,28,3634,2,2656,64,28,198,2,1024,34,28,255,2,807,34,28,260,2,2926,34,28,654,2,533,34,28,216,2,485,34,28,241,2,485,34,28,2193,2,1607,34,28,514,2,1500,34,28,336,2,819,64,10,52,1438,19,14405,28,5,2918,838,2,165,48,33 1,1,1,1,1,1,1,1,1,1,1,1,1,1,1,1,1,1,1,1,7,7,1,1,1,1,1,1,11,1,1,1,1,9,1,1,1,1,1,1,1,1,1,19,1,1,1,1,16,1,1,1,1,12,1,1,1,1,26,1,1,1,1,29,1,1,1,1,21,1,1,1,1,1,1,1,1,1,1,28,28,1,1,1,1
16,40,627,198,17,3223,5,514,17,1041,130,28,16,40,31,469,1347,41,2444,954,10,172,426,43,356 1,1,1,11,1,1,1,29,1,1,1,1,1,1,1,1,1,1,1,1,1,1,1,1,1
24,957,14,277,5,146,24,866,7,4972,2,356,197,3869,10,118,6047,26,3671 1,1,1,1,1,1,1,1,1,1,1,1,1,1,1,1,1,1,1
16,40,111,356,12,476,12,6,435,279,109 1,1,1,1,1,1,1,1,1,1,1
1012,356,17,1510,1092,10,3786,12,24,211 1,1,1,1,1,1,1,1,1,1
383,446,124,356,45,743 1,1,1,1,1,1
1028,2,9963,14406,2,228,14407,421,4,2682,14408,2,228,2,14409,8072,1154,2,6039,2,12,14410,4097,4,9964,841,4,9964,859,4,14411 1,1,1,1,1,1,1,1,1,1,1,1,1,1,1,1,1,1,1,1,1,1,1,1,1,1,1,1,1,1,1
