67,53,4,14488,30,5,105,54,431,17,1449,4,1931,86,333,373,13,1148,436,17,974,953,285 1,1,1,1,1,1,1,1,1,1,1,1,1,1,1,1,1,1,1,1,1,1,1
30,7,63,361,4,318,4099,39,15,56,1603,5054,12,1412,2683,5,39,68,6062,554,10,988,6,1970,93 1,1,1,1,1,1,1,1,1,1,1,1,1,1,1,1,1,1,1,1,1,1,1,1,1
38,3357,8091 1,1,1
16,113,865,996,15,75,619,554,5,14,436,17,176,17,15,535 1,1,1,1,1,1,1,1,1,1,1,1,1,1,1,1
82,41,30,4,72,127,206,41,1787,805,1583,22,9,1816,46,47,55,8,25,64,241,9,911,8,123,22,9,533,46,47,35,8,25,314,1204,9,2063,8,235,22,9,722,46,47,35,8,25,34,971,9,2306,8,1283,22,9,1856,601,47,35,8,25,64,243,9,912,577,8,407,22,9,1024,46,47,35,8,25,34,8088,35,293,25,34,783,9,4106,8,122,22,9,425,601,655,47,35,8,25,34,139,4,789,149,30,4,1099,4359,204,30,4,1099,4359,85,7,191,4,69,112,123,191,175,300,54,288 1,1,1,1,4,8,10,1,9,1,1,1,1,1,1,1,1,1,1,1,12,1,1,1,1,1,1,1,1,1,1,1,1,1,26,1,1,1,1,1,1,1,1,1,1,1,1,1,1,1,1,1,1,1,1,1,1,1,1,1,1,1,11,1,1,1,1,1,1,1,1,1,1,1,1,1,1,1,1,1,1,1,1,1,1,1,1,1,1,1,1,1,1,1,1,1,1,1,1,1,1,1,1,1,1,1,1,1,1,1,1,1,1,1,1,1,1,1,1,1,1,1
105,107,4,202,4,933,339,224,4,933,424,4,44,1277,4,933,134,4,933,212,4,933,551,4,933,9997,4,933,188,4,44,276,2,282,2,11,208,2,560,26,506,901 1,1,1,1,1,1,1,1,1,1,1,1,1,1,1,1,1,1,1,1,1,1,1,1,1,1,1,1,1,1,1,1,1,1,1,1,1,1,1,1,1,1
11,2665,2,456,152,4,90,10,1030,5,478,221,4,159,2,897,2,97,2961,2,3874,2,898,1358,26,236,2,2546,2,11,207,1341,4,44,1794,3057,846,4,44,1332,2,97,236,26,250,2,491,14489,9998,367,4,609,2,4107,2,4360,203,2,11,207,131,4,11,181,7,98,9999,6063,731,2,163,6869,535,352,4,2212,5,203,10,15,994,78,489,4,319,4,12,1212,2,318,4099,344,45,15,56,1231,535,465,71,1603,10,6870,1440,154,68,14490 1,1,1,1,1,1,1,1,1,1,1,1,1,1,1,1,1,1,1,1,1,1,1,1,1,1,1,1,1,1,1,1,1,1,1,1,1,1,1,1,1,1,1,1,1,1,1,1,1,1,1,1,1,1,1,1,1,1,1,1,1,1,1,1,1,1,1,1,1,1,1,1,1,1,1,1,1,1,1,1,1,1,1,1,1,1,1,1,1,1,1,1,1,1,1,1,1,1,1,1,1,1,1,1,1,1
102,40,521,38,554,5,16,725,6,307,5,1136,7,6,554,5,3869,10,1680 1,1,1,1,1,1,1,1,1,1,1,1,1,1,1,1,1,1,1
1291,5357,8092,2,228 1,1,1,1,1
