67,53,4,14795,158,659,162,54,53,38,110,4,14796,721,7,1148,4,144,4385,53,7,38,871,659,4,14797,421,4,8160,259,4,1865,1528,646,247,1148,928,144,4385,119,158,1683,9957 1,1,1,1,1,1,1,1,1,1,1,1,1,1,1,1,1,4,4,1,1,1,1,1,1,1,1,1,1,1,1,1,1,1,1,1,1,4,4,1,1,1,1
70 1
20,231,12,226,89,13,620,347,88,10,8161 1,1,1,1,1,1,1,1,1,1,1
18,96,148,620,113,2,5,125,1943,1942,399,627,27,1454,55,2243,10,440 1,1,1,1,1,1,1,1,1,1,1,1,1,1,1,1,1,1
18,148,620,7,23,126,215,6,82,109 1,1,1,1,1,1,1,1,1,1
18,91,4126 1,1,1
11,14798,14799 1,1,1
129,3898,4,3899,1414,34,2,4091,667,34,2,556,94,22,1882,175,244,4,814,715,1816,550,2,260,14800,34,2,14801,533,34,2,6933,9932,22,1882,2,14802,4723,22,64,2,1664,539,2382,168,34,2,514,488,22,34,2,2070,2281,2,878,123,168,549,2,243,505,22,34,2,241,122,22,34,2,3071,488,22,34,2,4127,8162,2782,2,2038,2592,64,2,2175,2473,1024,34 1,1,1,1,1,1,1,1,1,1,1,1,1,1,1,1,1,1,9,9,1,1,1,1,1,1,1,20,1,1,1,1,1,1,1,1,1,1,1,1,1,1,1,1,1,1,1,29,1,1,1,1,7,7,7,7,7,7,7,1,11,1,1,1,1,12,1,1,1,1,26,1,1,1,1,1,1,1,1,1,1,1,1,1,1,1,1
175,41,153,4,1148,928,144,328,50,119,158,1683,2031,395,10121,5,6934,2458 1,1,1,1,1,1,4,4,4,1,1,1,1,1,1,1,1,1
127,283,1271,818,1728,303,14803,477,19,192,14804,36,11,14805,4119,3244,470,14806,43,4345,4386,2010,55,930,206,13,2233,5,261,14807,14808,843,10122,18,21,39,94,14809,212,266,1195,12,6,82,94,86 8,15,1,1,1,1,1,1,1,1,1,1,1,1,1,1,1,1,1,1,1,1,10,10,10,1,3,3,3,3,1,1,1,1,1,1,1,1,1,1,1,1,1,1,1,1
78,4,142,14810,765,2,303,5918,14811,2,14812,2019,2,2974,1859,42,19,670,202,4,3063,2,3209,2,4724,2,143,350 1,1,1,1,1,1,1,1,1,1,1,1,1,1,1,1,1,1,1,1,1,1,1,1,1,1,1,1
234,4,1277,90,2,134,351,2,11,298,2,116,937 1,1,1,1,1,1,1,1,1,1,1,1,1
1879,4,456,2,44,2474,2,4387,2748,27,4578,152,4,6124,14813,1048,2,11,420,2,11,1222,365,4,159,2,414,2,1695,4725,4,414,559,4,14814,103,2222,229,559,88,114,10,8161 1,1,1,1,1,1,1,1,1,1,1,1,1,1,1,1,1,1,1,1,1,1,1,1,1,1,1,1,1,1,1,1,1,1,1,1,1,1,1,1,1,1,1
352,4,15,81,6935,117,2,1491,3516,258,8163,376,89,862,4,599,2404,14,15,1865,1528,646,201,247,1148,928,144,328,50,119,158,1683,2031,395,10121,5,6934,2458 1,1,1,1,1,1,1,1,1,1,1,1,1,1,1,1,1,1,1,1,1,1,1,1,1,1,4,4,4,1,1,1,1,1,1,1,1,1
18,40,52,170,10,6,158,226,1110,262,4726,14815,17,273,176,5,388 1,1,1,1,1,1,1,1,1,1,1,1,1,1,1,1,1
189,10123,2475,158,433,51,358,21,65,219 1,1,1,1,1,1,1,1,1,1
40,1357,359,17,951,548,972,10,1337,2975,754 1,1,1,1,1,1,1,1,1,1,1
190,14816,719 1,1,1
129,346 1,1
40,104,6936,445,5,1226,32,163 1,1,1,1,1,1,1,1
220,10124,8164,2,127,13,185,347,88 1,1,1,1,1,1,1,1,1
11,1760,79 1,1,1
40,265,167,2,508,2,695,471,12,1330 1,1,1,1,1,1,1,1,1,1
281,3890,461,4,40,741,260,1816,242,64,17,2476 1,1,1,1,1,1,1,1,1,1,1,1
40,453,508,380,8165,158,349,501,8163,842,10125,2,3378,2,2976,2,1343,2,4613,2,3899,445,14817 1,1,1,1,1,1,1,1,1,1,1,1,1,1,1,1,1,1,1,1,1,1,1
1291,14818,2610,5531,2,4727,158,226,1301,49,14819,1703,54,4,29,231,43,291,4,331,2,6125,2,862,633 1,1,1,1,1,1,1,1,1,1,1,1,1,1,1,1,1,1,1,1,1,1,1,1,1
14820,10104,2,228,2,158,8166 1,1,1,1,1,1,1
