67,53,4,15141,1388,951,2,3557,6168,146,2,106 1,1,1,1,1,1,1,1,1,1,1,1
15142,3441,1154,10266,10267,2,237,10268,589,4,3545,2,2736,4756,168,49,4,8255,853,62,146,4,50,39,6,1070,7,111,767,29,2,318,3545,2,89,12,476 1,1,1,1,1,1,1,1,1,1,1,1,1,1,1,1,1,1,1,1,1,1,1,1,1,1,1,1,1,1,1,1,1,1,1,1,1
5114,848,19,15143,115,766,1786,6998,13,1020,2854,784,8008,36,15,2140,1949,1125 1,1,1,1,1,1,1,1,1,1,1,1,1,1,1,1,1,1
160,6,848,2,16,21,2337,61,2,51,14,143,297,233,7,183,300,326 1,1,1,1,1,1,1,1,1,1,1,1,1,1,1,1,1,1
17,8261,2,16,54,37,568,114,6,944,1826,10,6,1330,13,2847,16,14,143,233,7,183,5,21,10,416 1,1,1,1,1,1,1,1,1,1,1,1,1,1,1,1,1,1,1,1,1,1,1,1,1,1
6,256,14,437,116,10,5105,2,51,14,1076,458,300,19,63 1,1,1,1,1,1,1,1,1,1,1,1,1,1,1
16,21,11,280,88,2,48,33,2,212,284,2,623,153,2,26,275 1,1,1,1,1,1,1,1,1,1,1,1,1,1,1,1,1
16,21,388,10,1431,289,765 1,1,1,1,1,1,1
43,741,114,2859,2,5,24,401,57,437,458 1,1,1,1,1,1,1,1,1,1,1
5113,1004,14,246,61,187 1,1,1,1,1,1
41,4,950,122,22,1010,2,198,2,15144,2,15145,2,336,2,604,2,241,2,5,10111 1,1,1,1,1,1,1,11,1,96,1,49,1,21,1,9,1,12,1,1,1
19,107,4,16,14,61,205 1,1,1,1,1,1,1
73,100,5093,2,410,169,122,5,2141 1,1,1,1,1,1,1,1,1
1277,14,90 1,1,1
1858,57,90 1,1,1
2691,14,1056,2,11,2831 1,1,1,1,1,1
48,4,44,1030,54,2,2700,5114,1147,28,1115,4297,961,4711,7,6,1875,114,103,13,15146,961,215,6,2131 1,1,1,1,1,1,1,1,1,1,1,1,1,1,1,1,1,1,1,1,1,1,1,1,1
101,4,44,1650,1961,2,44,5565,2,11,208,2,530,600,300,650,648,13,4935,5486 1,1,1,1,1,1,1,1,1,1,1,1,1,1,1,1,1,1,1,1
221,4,254,2,159,2,414,2,11,968,26,236 1,1,22,1,1,1,1,1,1,1,1,1
131,4,11,88,2,1281,753,2,11,711 1,1,1,1,1,1,1,1,1,1
305,4594,4,1097,27,416,1312,42,5,136,2867,15147,1779,42 1,1,1,1,1,1,1,1,1,1,1,1,1,1
334,433,145,89,43,826,85,115,68,4407,5,5115,37,57,341,43,665,123,42,2,493,152,2176,341,43,35,2349,2,5,5566,455,71,122,10,2114,142,14,8262,765 1,1,1,1,1,1,1,1,1,1,1,1,1,1,1,1,1,1,1,1,1,1,1,1,1,1,1,1,1,1,1,1,1,1,1,1,1,1,1
9,2786,2208,8 1,51,51,1
319,4,189,15148,3725,334,2375,36,6,848,1125,14,1044,1949,2,5,50,40,85,38,27,1085,334,1927,109,2947,2,1265,13,68,402,10,1381,37,1267,270,2271,10,2824,784,8008 1,1,1,1,1,1,1,1,1,1,1,1,1,1,1,1,1,1,1,1,1,1,1,1,1,1,1,1,1,1,1,1,1,1,1,1,1,1,1,1,1
50,87,10,629,194,15,422,360,307,2071,17,6,15149,5116,7,556,2,13,68,3898,1381 1,1,1,1,1,1,1,1,1,1,1,1,1,1,1,1,1,1,1,1,1
50,629,16,197,52,15,246,230,2071,17,15150,2,51,2127,31,885,178,1136,71,38 1,1,1,1,1,1,1,1,1,1,1,1,1,1,1,1,1,1,1,1
50,5117,1646,10,16,5,24,547,37,24,80,197,45,584,2,26,563,52,1077,940,43,6,93,48,171,5,620,2197,1004 1,1,1,1,1,1,1,1,1,1,1,1,1,1,1,1,1,1,1,1,1,1,1,1,1,1,1,1,1
124,6,80,20,2,3559,2,584,2,102,240,163,10,1680,13,152,659,1232 1,1,1,1,1,1,1,1,1,1,1,1,1,1,1,1,1,1
6,348,185,5058,129,10,659,14,24,3533,254 1,1,1,1,1,1,1,1,1,1,22
50,2312,13,194,37,16,163,10,45,24,142,455,10,3074,765 1,1,1,1,1,1,1,1,1,1,1,1,1,1,1
10,265,10,15,2786,7,182,2,5,37,43,6,84,7,1103,16,163,10,45,15,2786,7,665,8263,8264,2,16,21,24,264,2148,316,17,194 1,1,1,1,1,1,1,1,1,1,1,1,1,1,1,1,1,1,1,1,1,1,1,1,1,1,1,1,1,1,1,1,1,1
190,254,36,32,288 1,22,1,1,1
220,72 1,4
281,270,188,128,80,36,16,771,252,1115,19,24,3339,101,1232 1,1,1,1,1,1,1,1,1,1,1,1,1,1,1
380,5113,1004,36,32,1987 1,1,1,1,1,1
501,256,36,1104,272,10,5113,1004,2,5,600,1707,2441,71,6,334,2375 1,1,1,1,1,1,1,1,1,1,1,1,1,1,1,1,1
390,4,189,1422,1914,123,22,1191 1,1,1,1,1,1,1,1
190,87,950,155,22,1191 1,1,1,1,1,1
36,32,122,22,1191 1,1,1,1,1
252,31,741,295,187,13,6,7002,1718 1,1,1,1,1,1,1,1,1
220,102,40,85,1745 1,1,1,1,1
281,476,110,13,295,334,433,145,12,178,130 1,1,1,1,1,1,1,1,1,1,1
380,50,1646,4408,194,10,87,15,3659,2,51,584,142,302,1658,36,50,3025,37,24,3223,40,1123,751,92 1,1,1,1,1,1,1,1,1,1,1,1,1,1,1,1,1,1,1,1,1,1,1,1,1
92,21,65,15,1070,10,1834,12,24,211 1,1,1,1,1,1,1,1,1,1
383,199,777,10,446,13,98,1427,26,743 1,1,1,1,1,1,1,1,1,1
1028,2,2875,2408,8260,2,106 1,1,1,1,1,1,1
10273 1
