67,53,4,15498,880,278,4777,30,7,63,361,318,3544,14,61,363,10,291 1,1,1,1,1,1,1,1,1,1,1,1,1,1,1,1,1,1
16,21,15,177,1026,898,5,177,4344,4086,928,579,345,17,696,364 1,1,1,1,1,1,1,1,1,1,1,1,1,1,1,1
16,21,65,1123,19,15,3500,2027,17,898,1344,2,306,2,136,6,82,55,3500,2027,83,2,16,21,396,4777 1,1,1,1,1,1,1,1,1,1,1,1,1,1,1,1,1,1,1,1,1,1,1,1,1,1
16,132,63,467,12,4777,136,24,348,93,3500,2027,83 1,1,1,1,1,1,1,1,1,1,1,1,1
16,96,642,7,103,15499,33,76,14,406,24,3608,10,324,97,15,2620 1,1,1,1,1,1,1,1,1,1,1,1,1,1,1,1,1
38,14,15,1076,83,215,6,82,117,130 1,1,1,1,1,1,1,1,1,1
85,7,191,11,142,302,11,524,13,2811,873,26,2013,873,2,11,183,153,2,420,2,26,233,7,183,11,73,2210,26,2521,2836,82,41,30,696,357,36,119,10373,5,2073,785,4,21,2556,33,179,324,76,523,179,469 1,1,1,1,1,1,1,1,1,1,1,1,1,1,1,1,1,1,1,1,1,1,1,1,1,1,1,1,1,1,1,1,1,1,1,1,1,1,1,1,1,1,1,1,1,1,1,1,1,1,1,1
16,21,341,137,12,24,4107,103,5,21,15,247,232,5,72 1,1,1,1,1,1,1,1,1,1,1,6,6,1,4
72,369,328,55,503,188,128,80,41,198,9,912,577,8,505,22,9,942,46,47,35,8,25,34,654,94,22,9,566,46,47,35,8,25,322,216,155,22,9,485,46,47,35,8,25,34,112,182,58,971,9,2306,8,1283,22,9,1856,601,47,35,8,25,322,775,9,1145,8,123,22,9,533,46,47,35,8,25,34,1280,123,4424,22,9,1836,123,4425,407,22,8,15500,46,47,991,25,1744,165,33,814,715,9,604,2292,929,1009,8,227,22,9,667,2696,2931,47,35,8,25,34,2,383,482,10,15501,35,130,5,45,138,169,5,15502,15503,147,139,789,105,78,339,224,4,5935,202,205,4,61,396,2,61,2123,410,4,44,169,2,183,15504 4,4,4,4,1,10,10,10,1,11,1,1,1,1,1,1,1,1,1,1,1,1,1,1,19,1,1,1,1,1,1,1,1,1,1,16,1,1,1,1,1,1,1,1,1,1,1,1,1,1,1,1,1,1,1,1,1,1,1,1,1,1,1,20,1,1,1,1,1,1,1,1,1,1,1,1,1,1,1,1,1,1,1,1,1,1,1,1,1,1,1,1,1,1,1,1,9,9,1,1,1,1,1,1,1,1,1,1,1,1,1,1,1,1,1,1,1,1,1,1,1,1,1,1,1,1,1,1,1,1,1,1,1,1,1,1,1,1,1,1,1,1,1,1,1,1,1,1,1,1,1,1,1
10396,4,11,835,250,26,236,294,78,4,159,2,897,2,15505,12,465,254,2,11,1131,2,11,236,1216,36,11,824,617,1747,3569,78,4,11,1559,1276,310,4,452,5,661 1,1,1,1,1,1,1,1,1,1,1,1,1,1,1,1,1,1,1,1,1,1,1,1,1,1,1,1,1,1,1,1,1,1,1,1,1,1,1,1,1
2428 1
44,709 1,1
1665,4,1325,958,2,990,15506 1,1,1,1,1,1,1
44,15507 1,1
212,4,44,3410,2,11,2137,846,78,4,44,1332,2,11,236,1341,464,11,4162,266,7054,44,145,44,3401,2,11,236,4344,5102,44,5057,2,44,286,7055,97,212,266,696,1761,489,512,833,36,1523,2878,393,17,3544,2,2982,6205,359,15508,10397,953,49,10398,393,4,2455,4,10398,1747,10399,15509,370,10399,10397,864,934,4,920,2,1890,11,7056,2455,1927,4,359,2455,328,4,359,359,717,36,608,148,4,15510,15511,6150,9,381,15512,8312,8,8313,3730,1581,1050,1036,2206,60,60,60,60,60,60,60,60,60,60,60,60,60,60,60,60,60,60,60,60,60,60,60,7028,1346,8314,1346,3565,2459,6193,1346,6194,1346,2770,1346,3097,1346,4156,1346,3566,2459,2016,1346,3407,1346,10400,5597,4747,2459,3716,2459,4666,3210,383,3616,958 1,1,1,1,1,1,1,1,1,1,1,1,1,1,1,1,1,1,1,1,1,1,1,1,1,1,1,1,1,1,1,1,1,1,1,1,1,1,1,1,1,1,1,1,1,1,1,1,1,1,1,1,1,1,1,1,1,1,1,1,1,1,1,1,1,1,1,1,1,1,1,1,1,1,1,1,1,1,1,1,1,1,1,1,1,1,1,1,1,1,1,1,1,1,1,1,1,1,1,1,1,1,1,1,1,1,1,1,1,1,1,1,1,1,1,1,1,1,1,1,1,1,1,1,1,1,1,1,1,1,1,1,1,1,1,1,1,1,1,1,1,1,1,1,1,1,1,1,1,1,1,1,1,1,1,1,1,1,1,1,1,1
210,189,4777,36,394,32,356,57,13,2016 1,1,1,1,1,1,1,1,1,1
190,103,657,33,36,146,3935,1640,7,38,620,153,2,50,240,640,15,237,522,7,6,229,10320,10,1337,98,10401,617,1747,37,102,344,31,901,19,423 1,1,1,1,1,1,1,1,1,1,1,1,1,1,1,1,1,1,1,1,1,1,1,1,1,1,1,1,1,1,1,1,1,1,1,1
220,927,2011,108,36,50,45,214,13,318,3544,37,102,57,161,424,3496,163,15,586,704,8342,13,68,3406,3051 1,1,1,1,1,1,1,1,1,1,1,1,1,1,1,1,1,1,1,1,1,1,1,1,1,1
16,1434,38,5,14,450,442,38 1,1,1,1,1,1,1,1
102,40,87,38,214,12,1275,104,114 1,1,1,1,1,1,1,1,1
574,3702,2113,4420 1,1,1,1
