67,53,4,15572,304,317,397,7062,6218,121,431,17,110,104,114,136,93,121 1,1,1,1,1,1,1,1,1,1,1,1,1,1,1,1,1,1
30,7,63,361,20,170,10,8352,136,68,287,7,823 1,1,1,1,1,1,1,1,1,1,1,1,1
39,15,1894,287,854,16,39,718,36,6720,104,43,10420,10,3044,5,1894,3729 1,1,1,1,1,1,1,1,1,1,1,1,1,1,1,1,1,1
11,693,308 1,1,1
2026,27,8352,7063,36,3018,2,695,2,809,5,1303,522,97,470 1,1,1,1,1,1,1,1,1,1,1,1,1,1,1
50,39,2096,1374,725,200,6,218,207,5,6,258,7,4644 1,1,1,1,1,1,1,1,1,1,1,1,1,1
11,656,2,199,382,61 1,1,1,1,1,1
685,1144,241,10,24,8073 1,1,12,1,1,1
83,12,345,5,1968,198,407,22,25,34,1892,1684,118,4,10421,241,425,25,34,1892,1684,118,4,15573,105,107,137,1156,73,100,10422,395,313,202,205,61,396,2,61,2123,2,11,195,350 1,1,1,1,1,55,1,1,1,1,1,1,1,1,1,12,1,1,1,1,1,1,1,1,1,1,1,1,1,1,1,1,1,1,1,1,1,1,1,1,1,1,1,1
234,1566,2,764,2,613,2,3835,90,97,769,26,1443 1,1,1,1,1,1,1,1,1,1,1,1,1
134,530,935,28,218,207,32,329,2,11,2831 1,1,1,1,1,1,1,1,1,1,1
48,787,612,967,7947 1,1,1,1,1
11,2508,10,8353,2,11,6072 1,1,1,1,1,1,1
724,1415,27,1915,4392,2,6131 1,1,1,1,1,1,1
456,354,276,2,282,97,1060 1,1,1,1,1,1,1
221,2832,2,11,1006 1,1,1,1,1
44,308,320,309 1,1,1,1
210,5,108,2702,1313,87,129,244 1,1,1,1,1,1,1,1
16,14,272,10,52,231,43,352,27,8352,36,11,163,10,519,10,352,436 1,1,1,1,1,1,1,1,1,1,1,1,1,1,1,1,1,1
446,291,124,2785,2,2717,161,15574,26,272,10,133,244 1,1,1,1,1,1,1,1,1,1,1,1,1
3446,1313,36,135,36,1422,705,2,147,141,12,279,109 1,1,1,8,1,63,63,1,1,1,1,1,1
144,36,87,989 4,1,1,21
1022,435,110 1,1,1
994,36,10,2390,435,110 1,1,1,1,1,1
1368,1630,146 1,1,1
1461,85,13,62,8354 1,1,1,1,1
11,244,83,17,132 1,1,1,1,1
70,79,547,40,1031,360,10423,10424,12,23,1139,15575 1,1,1,1,1,1,1,1,1,1,1,1
70,40,324,1572,7,15576,17,10425,1572 1,1,1,1,1,1,1,1,1
1502,112,35,109,17,8355,147 1,1,1,1,1,1,1
70,1340,10,15577,15,8355,2216,17,164,15578 1,1,1,1,1,1,1,1,1,1
40,147,141,27,435,110 1,1,1,1,1,1
683,111,291,12,542,130 1,1,1,1,1,1
224,825,43,3908,7064,580,228,19,2702,624,2,2484 1,1,1,1,1,1,1,1,1,1,1,1
