67,53,4,15698,8366,6224,7078,49,15699,41,1243,35,293,5152,483,1067,4782,22,5152,243,505,22,5152,60,60,60,381,710,255,274,22,1191 1,1,1,1,1,1,1,1,1,1,1,1,1,1,1,1,1,1,1,11,1,1,1,1,1,1,1,1,9,1,1,1
216,94,22,5152,1127,122,22,5152,60,60,60,381,122,22,1191 16,1,1,1,1,1,1,1,1,1,1,1,1,1,1
241,122,22,5152,153,337,283,127,371,1086,2197,1004,80,247,2886,745,4,56,3939,424,28,5148,28,2032,2,1934,247,1421,2449,8368,4,8369,28,218,1247,13,4436 12,1,1,1,1,1,15,8,1,1,1,1,1,1,1,1,1,1,1,1,1,1,1,1,1,1,1,1,1,1,1,1,1,1,1,1,1
504,42,2451,269,1580,843,1755,4,7,1750,28,8370,1606,229,368,459,4,7078,162,10455,4,161,4336,459 1,1,1,1,1,1,1,1,1,1,1,1,1,1,1,1,1,1,1,1,1,1,1,1
7079,375 1,1
163,384,7079,12,289,2074 1,1,1,1,1,1
879,1260,4,3268,2160 1,1,1,1,1
1375,4,372,457,211,3107,4,2266,12,4164,922 1,1,1,1,1,1,1,1,1,1,1
747,4131,6224,14,457,211,3107,5,21,3221,7,10456 1,1,1,1,1,1,1,1,1,1,1,1
744,166,4,295,744,2,51,240,31,996,87,7,8253,1363,124,432,74,14,11,431,3025,7,2677,71,105,2461 1,1,1,1,1,1,1,1,1,1,1,1,1,1,1,1,1,1,1,1,1,1,1,1,1,1
379,249,40,5,10457,12,23,4164,922 1,1,1,1,1,1,1,1,1
29,14,436,17,476 1,1,1,1,1
189,206 1,10
29,170,10,6,121,12,2873,7,1412,136,18,63,13,334,88 1,1,1,1,1,1,1,1,1,1,1,1,1,1,1
836,12,17,68,409,5,902,101,594,115,542,930,80,5,18,591,542,930,602 3,3,3,3,3,1,1,2,2,2,2,2,2,1,1,1,3,3,3
1851,434,422,2854,643,18,39,65,1851,3573,5,39,15,48,2027,76,20,343,163,1824 1,1,1,1,1,1,1,1,1,1,1,1,1,1,1,1,1,1,1,1
29,252,353,61,5,20,271,10,23,540,79,164,665,35,109,136,23,171 1,1,1,1,1,1,1,1,1,1,1,1,1,1,1,1,1,1
186,10,23,171,74,20,15,1894,287,854,29,20,1197,5,20,45,1902,1514,2,15,352,285,20,446,2,15,835,20,836,316,5,92,205,29,197,45,39,83,621,10,41 1,1,1,1,1,1,1,1,1,1,1,1,1,1,1,1,1,1,1,1,1,1,1,1,1,1,1,1,1,1,1,1,1,1,1,1,1,1,1,1,1
21,31,39,98,273,656,7,513,126 1,1,1,1,1,1,1,1,1
160,23,271,29,21,65,172,353,61,2,11,278,7,98,48,33,2,265,15,1126,2190,233,7,183,136,387,2518,17,15,471,51,38,14,621,10,2007,7,614,5,482,19,1840,5,258,3096,32,18,416 1,1,1,1,1,1,1,1,1,1,1,1,1,1,1,1,1,1,1,1,1,1,1,1,1,1,1,1,1,1,1,1,1,1,1,1,1,1,1,1,1,1,1,1,1,1,1,1
21,297,2273,2,39,326,794,17,15,324,7,15,4438,18,597,374,5,132,113,31,199,6,163,17,38 1,1,1,1,1,1,1,1,1,1,1,1,1,1,1,1,1,1,1,1,1,1,1,1,1
96,39,39,125,229,131,88,5,38,21,132,523 1,1,1,1,1,1,1,1,1,1,1,1
148,2389,13,23,311,41,346,13,11,10474,882 1,1,1,1,1,1,1,1,1,1,1
18,20,271,10,164,97,198 1,1,1,1,1,1,55
29,104,43,62,10475,5,21,15,476,1005,13,194,1132,7,1094,2,96,21,476,1005,13,15700,171 1,1,1,1,1,1,1,1,1,1,1,1,1,1,1,1,1,1,1,1,1,1,1
190,1532,391 1,1,1
29,39,15,1532,391,99,1133,2,848,97,98,181,7,1536,5,11,181,7,2113,2412 1,1,1,1,1,1,1,1,1,1,1,1,1,1,1,1,1,1,1,1
468,93,121,39,15,476,2386,76,115,11,181,7,87,80 1,1,1,1,1,1,1,1,1,1,1,1,1,1
29,113,148,37,17,6,82,279,405,18,21,10476,114,468,6,405,13,125,2929,449 1,1,1,1,1,1,1,1,1,1,1,1,1,1,1,1,1,1,1,1
38,738,10,45,65,1190,38,486,43,950 1,1,1,1,1,1,1,1,1,1
31,154,98,2913 1,1,1,1
204,30,4,249,13,23,540,17,6,5473,12,15701,7082,51,1282,10,1224,192,10,23,2109,3733,12,15702 1,1,1,1,1,1,1,1,1,1,1,1,1,1,1,1,1,1,1,1,1,1,1,1
105,78,29,14,12,11,771,350 1,1,1,1,1,1,1,1
142,4,3365,647,73,100,4,15703,134,4,351,97,8376,2,11,817 1,1,1,1,1,1,1,1,1,1,1,1,1,1,1,1
97,937 1,1
152,4,90 1,1,1
724 1
276,2,282,97,560,2,506,26,208 1,1,1,1,1,1,1,1,1
221,4,976,2,97,1131 1,1,1,1,1,1
131,4,97,88 1,1,1,1
210,5,108,189,206 1,1,1,1,10
172,353,61,2,87,129,346 1,1,1,1,1,1,1
29,10,446,124,98,311,278,26,153,2,656,7,48,33 1,1,1,1,1,1,1,1,1,1,1,1,1,1
40,1514,13,62,10475,607,1095,18,494,1438,198,5152,2,782,29,124,390,14,10,1438 1,1,1,1,1,1,1,1,1,1,55,1,1,1,1,1,1,1,1,1
190,1532,391 1,1,1
93,453,2386,13,11,181,7,656,80 1,1,1,1,1,1,1,1,1
132,13,125,656,7,2087,33 1,1,1,1,1,1,1
17,6,5473,18,40,116,1127,10,122,22,1191 1,1,1,1,1,1,1,1,1,1,1
5,47,124,38,113,17,177,109,5,268,568,192,10,326,225 1,1,1,1,1,1,1,1,1,1,1,1,1,1,1
124,87,10,45,2087,33,26,163,2220,225,7,1127,40,163,273,6068 1,1,1,1,1,1,1,1,1,1,1,1,1,1,1,1
50,40,111,23,17,476,12,279,130 1,1,1,1,1,1,1,1,1
15704,7083,2,106 1,1,1,1
383,6030,98,2762,1748,2,328,13,2119,5461,5608 1,1,1,1,1,1,1,1,1,1,1
