67,53,4,15773,1513,3153,170,54,29,400,4,15774,6221,528,4,15775,53,7,162,4,15776,543,4,5613,1513,262,4,4167,9662,2,106 1,1,1,1,1,1,1,1,1,1,1,1,1,1,1,1,1,1,1,1,1,1,1,1,1,1,1,1,1,1,1
30,7,63,361,4,38,14,15,1473,2112,333,373,13,101,307,679,7,127,2,328,638,144,2,5406,2,277,957,2,5,254,120,20,12,24,2900,585,939,486,179,16,396,5105,33,2383,24,625,48,471,27,416,37,16,746,32,1466,12,3718,13,579,908,395,1233,5,849,10,24,192 1,1,1,1,1,1,1,1,1,1,1,1,1,1,1,1,1,16,1,6,6,34,1,5,1,1,1,1,1,20,1,1,1,1,1,1,1,1,1,1,23,23,23,23,23,23,23,1,1,1,1,1,1,1,31,31,31,31,31,31,31,31,1,1,1,1,1
6,33,5553,97,1083,136,200,182,462 1,1,1,1,1,1,1,1,1
16,511,33,777,585,38,486,179,1021,15777,248,2,16,467,1446,38,1466,498,12,6,1151,2028 1,1,1,1,1,1,1,1,1,1,1,1,1,1,1,1,1,1,1,1,1,1
16,96,597,3466,5,4397 1,1,1,1,1,1
19,6,1875,10,6,121,2,6,33,5553 1,1,1,1,1,1,1,1,1,1
16,20,33,777,751,63,10,6,1089,2,51,396,48,33,1824,471,12,4790,37,39,467,6239,43,6,84,16,20,176,12,1309 1,1,1,1,1,1,1,1,1,1,1,1,1,1,1,1,1,1,1,1,1,1,1,1,1,1,1,1,1,1
16,91,98,299,2,275,2,507,2,26,256 1,1,1,1,1,1,1,1,1,1,1
74,20,11,286,2496,10,24,33,3900,563,16,1930,98,1190,26,1120,679 1,1,1,1,1,1,1,1,1,1,1,1,1,1,1,1,1
121,434,4,19,63,10,6,1089,2,6,29,79,133,20,15778,534,1860,618,122,15779,689,904,389,42 1,1,1,1,1,1,1,1,1,1,1,1,13,13,34,1,1,1,1,1,1,1,1,1
16,20,243,1024,25,112,35,2,545,566,242,112,117,225,2,242,1913,2,15,652,2308,7,3369,5,118,19,15,1590,27,4782,8391 1,1,47,1,1,1,1,1,36,1,1,1,1,1,1,1,31,1,1,1,1,1,1,1,1,1,1,1,1,1,1
16,20,1015,10,6,443,141 1,1,1,1,1,1,1
443,512,4,649,4,2488,2898,13,312,42,525,1407,5542,4,2488,298,4,1189,42,269,136,432,8392,379,1925,1741,56,1866,4,2488,13,781,15780,3047,4,2488,4995,504,2233,7,298,5,261,465,13,432,1494,379,258 1,1,1,1,1,1,1,1,1,1,1,1,1,1,1,25,25,25,25,25,1,1,1,1,1,1,1,1,1,1,1,1,1,1,1,1,1,1,18,18,18,18,8,18,1,1,1,1,1
677,4,189,328,638,15781,2602,3920,12,10493,190,2975,500,2405,9,12,441,7,3311,8,220,254,281,127,380,8386,8387,4,119,4415,27,447,610,9,1693,15782,8,501,2287,28,21,65,1577,1689,51,31,129,154,676,2589,28,103,372,869,1426,1043,247,3944,1066,119,811,4,7088 1,1,1,1,1,1,4,4,23,23,1,1,1,1,1,1,1,1,1,1,1,20,1,16,1,1,1,1,1,1,1,1,1,1,1,1,1,1,1,1,1,1,1,1,1,1,1,1,1,1,1,1,1,1,1,1,1,1,1,1,1,1,1
1509,628,1522,28,184,381,59,621,10,333,1149,28,139,4,15783,164,41,4,1552,1518,1611,2,35,15784,34,3045,425,2,55,46,25,34,828,485,2,35,46,25,64,8385,4440,2,35,46,34,2285,1856,35,46,34,204,30,4,249,13,24,547,12,15785 1,1,1,1,1,1,1,1,1,1,1,1,1,1,1,1,1,1,66,1,1,1,1,1,1,37,1,1,1,1,1,1,1,1,1,1,1,1,1,1,1,1,1,1,1,1,1,1,1,1,1,1,1,1,1,1,1,1,1
113,31,129,232,28,204,463,154 31,31,31,31,1,1,1,1
170,10,82,30,7,15786,366,154 1,1,1,1,1,1,1,1
170,10,82,2658,154,5,1983,7090,2,5,432,15787,154,379 1,1,1,1,1,1,1,1,1,1,1,1,1,1
99,154,7,2658,20,991,860,173,28,91,93,154 1,1,1,1,1,1,1,1,1,1,1,1
16,91,82,15788,154 1,1,1,1,1
16,14,936,5,326,2653,68,15789,10494 1,1,1,1,1,1,1,1,1
993,4,651,13,409,27,447,1865,5,516,12,24,404,79 1,1,18,18,18,18,18,18,1,1,1,1,1,1
5158,13,409,27,920,447 1,1,1,1,1,1
544,4,202,4,91,275,2,653,83,2,26,405,960,234,4,11,573,2,728,153,26,1820,666,4,111,259,410,4,11,1819,26,1294,1263,365,4,11,472,2,631,26,1420,352,4,11,3512,26,693,1132,4,11,15790,26,1489,1086,931,4,11,1844,26,2920,2107,4,11,3893,26,10495,459 1,1,1,1,1,1,1,1,1,1,1,1,1,1,1,1,1,1,1,1,1,1,1,1,1,1,1,1,1,1,1,1,1,1,1,1,1,1,1,1,1,1,1,1,1,1,1,1,1,1,1,1,1,1,1,1,1,1,1,1,1,1,1,1,1,1,1
105,78,4,339,224,4,133,10496,534,15791,3072,904,1084,42,19,1362,1163,1189,202,4,1659,254,802,12,474,234,4,2255,28,613,28,1277,1140,13,15792,159,1219 1,1,1,1,1,1,1,1,1,1,1,1,1,1,1,1,1,1,1,1,1,16,1,1,1,1,1,1,1,1,1,1,1,1,1,1,1
530,1160,10,210,272,10,1672,2341 1,1,1,1,1,1,1,1
218,1647,196,97,207 1,1,1,1,1
48,4,1366,51,1699,138,4,1699,1257,221,4,254,1353,2832,28,2700,56,567,1147,71,4415,131,4,196,979,2,3050,2,5,1311,137 1,1,1,1,1,1,1,1,1,1,1,16,1,1,1,1,1,1,1,1,1,1,1,1,1,1,1,1,1,1,1
209,628,1522,83,13,427,88,10,6,372 1,1,1,1,1,1,1,1,1,1
1644,12,6,56,6870,5965,71,2612,1195 1,1,1,1,1,1,1,1,1
498,203,12,2749,5,619 1,1,1,1,1,1
310,4,966,1673 1,1,1,1
931,1038,12,103,451,5,229,131 1,1,1,1,1,1,1,1
3109,2512,103,15793,4,429,9,552,141,8,1817,15794,9,552,141,8,1946,790,9,552,141,8,2659,727,9,552,141,8,7091,415,9,552,141,8,274,358,9,552,141,8,1523,371,9,552,141,8,5103,483,3085,1490,2477,1046,2447,493,972,6002,1343,1946,1841,2005,454,1117,1475,493,1117,2283,2280,1618,2279,6033,2171,2215,2225,1203,330,3633,296,8393,484,15795,578,1854,701,3529,1390,70,3623,2923,1059,1390,1049,1523,1390,2042,5097,2730,1059,538,4,15796,1408,1314,398,2594,360,1675,10091,1495,277,1675,3240,1625,101,307,1437,3647,101,809,4,49,35,49,55,49,117,1639,312,981,1310,174,3232,2145,174,496,1770,15797,101,1527,2955,1261,714,74,14,11,181,7,1261,269 1,1,1,1,1,1,1,1,1,1,1,1,1,1,1,1,1,1,1,1,1,1,1,1,1,1,1,1,1,1,1,1,1,1,1,1,1,1,1,1,1,1,1,1,1,1,1,1,1,1,1,1,1,1,1,1,1,1,1,1,1,1,1,1,1,1,1,1,1,1,1,1,1,1,1,1,1,1,1,1,1,1,1,1,1,1,1,1,1,1,1,1,1,1,1,1,1,1,1,1,1,1,1,1,1,1,1,1,1,1,1,1,1,1,1,1,1,1,1,1,1,1,1,1,1,1,1,1,1,1,1,1,1,1,1,1,1,1,1,1,1,1,1,1,1,1,1,1
74,14,11,181,7,1261,714,3652 1,1,1,1,1,1,1,1
74,14,11,181,7,1261,1922,43,1711,26,2870,1247 1,1,1,1,1,1,1,1,1,1,1,1
56,2957,6,56,2957,14,988 1,1,1,1,1,1,1
590,714,2,1413,2,4716,74,14,11,181,7,3488,590,269 1,1,1,1,1,1,1,1,1,1,1,1,1,1
6,590,714,14,2223 1,1,1,1,1
74,14,11,181,7,590,797,43,1711,26,2870,1247 1,1,1,1,1,1,1,1,1,1,1,1
6,590,2839,205,988 1,1,1,1,1
6,590,2943,27,6,15798,3266,14,2603,713 1,1,1,1,1,1,1,1,1,1
56,1783,6,56,760,1002,5,672,433,57,702,44,406 1,1,1,1,1,1,1,1,1,1,1,1,1
74,14,641,56,760,1480 1,1,1,1,1,1
74,57,11,1621,1088,780,730,510 1,1,1,1,1,1,1,1
6,1709,893,1166,14,1306,42 1,1,1,1,1,1,1
2223,714,36,4073,2,2971,6,2223,714,205,44 1,1,1,1,1,1,1,1,1,1,1
334,714,2,7092,2,7093 1,1,1,1,1,1
6,334,714,205,44 1,1,1,1,1
75,1783,6,75,1783,14,31,988 1,1,1,1,1,1,1,1
6,75,760,672,433,14,702,44,406 1,1,1,1,1,1,1,1,1
167,4,2257,4,804,1314,13,569,866,1231,861 1,1,1,1,1,1,1,1,1,1,1
2338,10497,555,837,4642 1,1,1,1,1
2307,12,10498 1,1,1
561,1088,15799,12,50,5,1947,2774,2307,12,638,2,1091,2,1843,2623,13,2774,1956 1,1,1,1,1,1,1,1,1,1,1,1,1,1,1,1,1,1,1
1513,170,4,804,1810,13,569,866,1231,861 1,1,1,1,1,1,1,1,1,1
2338,732,10497,555,837,5557 1,1,1,1,1,1
2307,10209 1,1
4050,2564,508,4,319,4,90,152 1,1,1,1,1,1,1,1
6,1413,14,10499 1,1,1,1
393,7,6,152,14,3535,10,1672,2341,7,6,29 1,1,1,1,1,1,1,1,1,1,1,1
15800,5,108,4,38,14,15,1473,2112,333,373,13,101,307,679,7,127,2,144,2,5406,2,277,957,2,5,254,120,63,13,625,2509,37,20,1725,394,13,2844,10,6,298,338,4,527,243,1024,25,34,514,2714,268,1500,25,34,87,4789,425,25,34,444,545,27,3033,25,322,5,1405,32,133,5,137,562,9,479,2338,76,20,4657,19,170,8,241,425,25,34,7964,17,624,548,242,1913,165,133,187,585,832,346,219,15801,679,4021,147,3110,445,3413,812,538,1712,40,163,1020,307,679,15802,156,653,302,2,72,187,2,5,305,1658,245,4,1054,15803,479,2740,571,5,22,165,1727,4,99,363,626,1306,42,13,11,129,224,7,377,4160,1916,104,443,40,710,699,19,260,9,47,38,27,164,17,580,88,8,471,1916,133,187,13,4789,2,545,2,1913,165,2287,4,2462,27,164,13,1689,272,10,2988,2806,40,794,410,345,10,444,10500,5,460,10,502,1196,2806,87,2270,19,1549,7,2389,13,1689,144,147,2602,3875,17,132 1,1,1,1,1,1,1,1,1,1,1,1,1,1,1,1,16,1,34,1,5,1,1,1,1,1,20,1,1,1,1,1,1,1,1,1,1,1,1,1,1,1,1,1,47,1,1,1,4,1,1,1,1,1,1,77,1,1,1,5,36,1,1,1,1,1,1,1,1,1,1,1,1,1,1,1,1,1,1,1,1,22,1,1,1,1,1,1,1,1,31,1,1,1,1,1,1,1,1,1,1,1,1,1,1,1,1,1,1,1,1,1,1,1,1,1,1,1,1,1,1,1,1,1,1,1,1,1,1,1,1,1,1,1,1,1,1,1,1,1,1,1,1,1,1,1,1,1,1,1,1,1,1,1,1,1,1,1,1,1,1,1,1,1,1,1,1,1,1,1,77,1,36,1,31,1,1,1,1,1,1,1,1,1,1,1,1,1,1,1,1,1,1,1,1,1,1,1,1,1,1,1,1,1,1,1,1,1,34,1,1,1,1,1
40,10501,512,17,991,58 1,1,1,1,1,1
40,161,163,1275,527 1,1,1,1,1
444,832,244,27,271,40,163,72,2270,1211,4,652,3078,2038,2592,25,64,5065,15804,15805,2,106 1,1,1,1,1,1,1,1,1,1,1,1,1,1,1,1,1,1,1,1,1,1
742,15806 1,1
