67,53,4,16024,1716,162,54,32,140,62,9740,81,49,914,28,66,54,2,393,963,2,318,3951,14,15,1306,2214,373,13,3944 1,1,1,1,1,1,1,1,1,1,1,1,1,1,1,1,1,1,1,1,1,1,1,1,1,1,1,1,1,1
16,591,3568,2,1605,7040,2,103,8423,16025,2,56,16026,2,2188,5099,2,1814,3801,2,261,2,5,898,848,19,16027 1,1,1,1,1,1,1,1,1,1,1,1,1,1,1,1,1,1,1,1,1,1,1,1,1,1,1
2122,16,1446,704,3215,5,15,1751,20,465,97,524 1,1,1,1,1,1,1,1,1,1,1,1
16,20,1159,16,563,3106,403,164,2,51,16,20,4177,5,24,547,2812,350,215,909,136,6,1751 1,1,1,1,1,1,1,1,1,1,1,1,1,1,1,1,1,1,1,1,1,1,1
16,20,1198,170 1,1,1,1
30,7,63,361,4,1306,323,373,54,10,45,15,16028,525,56,8424,1814,468,68,176,17,3220,1174 1,1,1,1,1,1,1,1,1,1,1,1,1,1,1,1,1,1,1,1,1,1,1
11,30,7,704,1848,477,5,326,1814 1,1,1,1,1,1,1,1,1
82,41,30,4,206,36,101,261,112,117,2,1426,2,135,2,283,2,716,2,75,1011,171,41,4,255,227,22,2,3071,1856,2,514,488,22,2,243,407,22,2,1127,122,22,2,2355,2124,22,2,675,122,22,139,4,789,204,30,4,941,13,55,687,113,31,232,11,541,154,4565,12,8416,726,149,30,4,11,30,7,1814,518,36,611,7,333,447,651,36,611,7,1303,2232,11,2618,13,357,85,7,191,4,11,233,7,16029,11,565,11,728,83,11,411,292,385,11,5120,139,11,706,11,1270,11,811,11,409,11,8193,26,138,714,153,11,4178,391,80,11,2197,1004,11,503,11,459,956,11,72,11,663,153,11,516,26,310,153,3577,85,7,191,292,871,1814,11,704,1848,477,105,107,4,339,224,4,61,2123,2,2577,202,107,4,134,351,152,1366,603,78,456,10396,78,4,11,4985,3333,250,221,4,159,2,897,131,4,11,1354,250,26,88,310,4,324,97,1199,212,4,44,3410,1341,4,1751,12,465,13,4133,16030,1711,359 1,1,1,1,10,1,3,3,3,3,1,1,1,8,1,15,1,1,1,1,1,1,1,1,9,1,1,1,26,1,1,29,1,1,1,11,1,1,1,1,1,1,1,1,1,1,1,12,1,1,1,1,1,1,1,1,1,1,1,1,14,14,14,1,1,1,1,1,1,1,1,1,1,1,1,1,1,1,1,1,1,1,1,1,1,1,1,1,1,1,1,1,1,1,1,1,1,1,1,1,1,1,1,1,1,1,1,1,1,1,1,1,1,1,1,1,1,1,1,1,1,1,1,1,1,1,1,1,1,1,1,1,1,1,1,1,1,1,1,1,1,1,1,1,1,1,1,1,1,1,1,1,1,1,1,1,1,1,1,1,1,1,1,1,1,1,1,1,1,1,1,1,1,1,1,1,1,1,1,1,1,1,1,1,1,1,1,1,1,1,1,1,1,1,1,1,1,1,1,1,1,1,1,1,1,1,1,1,1,1,1,1,1,1,1,1,1,1
16031,145,1641,258,1781,1377 1,1,1,1,1,1
500,168,1355,1427,812,386,429,3315,9,1284,8,325,386,673,3449,77,9,1249,8,325,386,790,2659,9,1285,8,325,386,1067,1623,7122,9,1383,8,325,386,1424,2453,910,9,3855,8,325,483,3879,9,1436,8,193,386,1782,1967,1400,9,1286,8,193,386,358,10575,9,3705,8,193,1529,1811,3245,510,124,81,903,28,312,3245 1,1,1,1,1,1,1,1,1,1,1,1,1,1,1,1,1,1,1,1,1,1,1,1,1,1,1,1,1,1,1,1,1,1,1,1,1,1,1,1,1,1,1,1,1,1,1,1,1,1,1,1,1,1,1,1,1,1,1,1,1,1,1,1,1,1,1,1,1,1,1,1,1,1
124,29,14,7123,2,5631,6,258,43,8425,386,371,2594,77,9,1333,8,193,16032,1200,10576,16033,81,1178,28,16034,81,1178,28,16035,16036,148,4,3880,4,237,7,6,221,5,2443,13,5,97,2967,1585 1,1,1,1,1,1,1,1,1,1,1,1,1,1,1,1,1,1,1,1,1,1,1,1,1,1,1,1,1,1,1,1,1,1,1,1,1,1,1,1,1,1,1,1,1,1
522,151,87,908,6,2443,10,176,6,4449 1,1,1,1,1,1,1,1,1,1
2467,4,237,48,53,16037,2,237,522,53,8426,502,4,229,4113,4,74,14,15,213,713,6170,581,756,6,536,1088,75,2873,1444,9,3581,213,2,674,117,8,2,219 1,1,1,1,1,1,1,1,1,1,1,1,1,1,1,1,1,1,1,1,1,1,1,1,1,1,1,1,1,1,1,1,1,1,1,1,1,1,1
74,14,15,16038,581,756,6,16039,7,6,56,229,1444,9,3581,213,2,674,1400,8,2,219 1,1,1,1,1,1,1,1,1,1,1,1,1,1,1,1,1,1,1,1,1,1
74,14,15,7124,6170,581,756,6,795,1580,1088,75,229,1444,9,3581,213,5,674,2540,8,2,311,71,6,186,263,2,51,76,197,1327,10577,83 1,1,1,1,1,1,1,1,1,1,1,1,1,1,1,1,1,1,1,1,1,1,1,1,1,1,1,1,1,1,1,1,1,1
143,2054,1123,83 1,1,1,1
3802,4,6,916,707,143,16040,5555 1,1,1,1,1,1,1,1
11,915,1271,266 1,1,1,1
11,4450,4451,988 1,1,1,1
2880,4,143,3874,27,4042,648 1,1,1,1,1,1,1
3844,4,11,915,236,26,4451,988 1,1,1,1,1,1,1,1
2557,4,11,2557,581 1,1,1,1,1
16041,4,11,4179 1,1,1,1
74,14,15,5371,5481,10578,5167,756,6,229,4800,7,6,56,871 1,1,1,1,1,1,1,1,1,1,1,1,1,1,1
74,14,15,123,112,94,713,16042,1830,12,6,1440,7,6,56,525,4449,27,6,10579,3266,2,219,160,8426,2,5,515,13,15,5481,525,2627,5167 1,1,1,1,1,1,1,1,1,1,1,1,1,1,1,1,1,1,1,1,1,1,1,1,1,1,1,1,1,1,1,1,1,1
74,14,15,289,713,4979,756,6,16043,1440,7,6,56,871,76,14,1392,378,3295 1,1,1,1,1,1,1,1,1,1,1,1,1,1,1,1,1,1,1
74,14,15,16044,10580,3219,756,6,229,4800,6,75,871,7,771,9,3581,55,2,674,1800,8,2,219,5,270,1327,15,16045,2445 1,1,1,1,1,1,1,1,1,1,1,1,1,1,1,1,1,1,1,1,1,1,1,1,1,1,1,1,1,1
74,14,6018,1147,756,6,451,4800,7,56,871,5,229,4800,75,871 1,1,1,1,1,1,1,1,1,1,1,1,1,1,1,1
2147,16046,4,6,696,2836,14,1007 1,1,1,1,1,1,1,1
10581,1069,6261,4,11,777,698,26,617 1,1,1,1,1,1,1,1,1
551,681,4,11,817 1,1,1,1,1
930,4,74,14,143,2689,1830,756,6,1413,5,92,1741 1,1,1,1,1,1,1,1,1,1,1,1,1
368,1848,4,11,1358,26,780,1397 1,1,1,1,1,1,1,1
2760,2529,8005,97,181,7,2296 1,1,1,1,1,1,1
948,5,159,1219,4,74,57,1656,83,756,6,728,946 1,1,1,1,1,1,1,1,1,1,1,1,1
74,57,11,2177,5988,26,8427,266 1,1,1,1,1,1,1,1
319,4,5481,123,713,525,56,2627,5167,27,6,10579,3266,2,888,160,8426 1,1,1,1,1,1,1,1,1,1,1,1,1,1,1,1,1
5371,5481,10578,5167,756,6,229,4800,6,56,871 1,1,1,1,1,1,1,1,1,1,1
103,334,581,1363,114,10,517,713,2,156,15,289,713,75,229,1444,581,311,71,6,186,263,2,51,76,197,1327,10577,83 1,1,1,1,1,1,1,1,1,1,1,1,1,1,1,1,1,1,1,1,1,1,1,1,1,1,1,1,1
15,476,237,522,48,14,390,12,117,130 1,1,1,1,1,1,1,1,1,1
319,4,1306,323,373,119,3568,2,2188,5099,2,1814,1195,2,5,261,13,2122,704,3215 1,1,1,1,1,1,1,1,1,1,1,1,1,1,1,1,1,1,1,1
36,87,2538,36,2084,36,876,164,16047,16048,228,2,8428,742,16049 1,1,1,1,1,1,1,1,1,1,1,1,1,1,1
