67,53,4,16121,10613,202,121,1018,582,2603,10614,10615,3292,2400,2,2934,8448,2,7139,10616,7140,10617,16122,189,3274,79 1,1,1,1,1,1,1,1,1,1,1,1,1,1,1,1,1,1,1,1,1,1,1,1,1,1
190,72 1,4
129,41,4,157,2,2942,2,2580 1,1,1,7,1,1,1,1
259,4,14,54,15,703,256 1,1,1,1,1,1,1
21,54,92,215,6,99,1411,7,130 1,1,1,1,1,1,1,1,1
92,21,65,829 1,1,1,1
11,275 1,1
154,7141,2580 1,1,1
31,154,7142 1,1,1
72,2,18,148,2,1110,1494,187 4,1,1,1,1,1,1,1
306,2,14,1869,10,1431,142 1,1,1,1,1,1,1
11,10618,126,132 1,1,1,1
105,107,4,142,16123,832,3087,703 1,1,1,1,1,1,1,1
134,4,351,97,1276 1,1,1,1,1
152,4,90 1,1,1
101,78,4,11,208 1,1,1,1,1
221,4,159,2,414,2,97,2880,3169 1,1,1,1,1,1,1,1,1
623,4,11,308,4746 1,1,1,1,1
694,784,634,44 1,1,1,1
210,4,189,803,3274,79,2,219 1,1,1,1,1,1,1,1
190,72 1,4
108,4,189,2580,5,7142 1,1,1,1,1,1
190,2275,1259,1141 1,1,1,1
220,948,1675,532,18,14,27,307,17,1606 1,1,1,1,1,1,1,1,1,1
281,483,5,2942 1,1,1,1
380,124,256,896,2,111,803,327,17,48,788 1,1,1,1,1,1,1,1,1,1,1
501,476,289,130,2,51,18,40,446,291,136,948,1675,10,85,258 1,1,1,1,1,1,1,1,1,1,1,1,1,1,1,1
574,2885,1843,5644,2,106 1,1,1,1,1,1
16124,4,16125,16126,16127,16128,257,31,85,43,262,327,257 1,1,1,1,1,1,1,1,1,1,1,1,1
