67,53,4,16225,1308,182,2,3571,16226,867,10655,2,228,3686,567,121,1909,171,1855,6275,1154,5654,2,2059,16227,589,4,3701,3276,553,49,10656,853,62,10655,4,50,39,6,1070,7,111,767,29,318,4110,3276,12,285 1,1,1,1,1,1,1,1,1,1,1,1,1,1,1,1,1,1,1,1,1,1,1,1,1,1,1,1,1,1,1,1,1,1,1,1,1,1,1,1,1,1,1,1,1,1,1,1,1
32,356,725,16,14,15,3177,802,13,15,30,7,72,2,360,73,100,5,254 1,1,1,1,1,1,1,1,1,1,1,1,4,1,8,8,8,1,22
93,2,16,591,176,186,10,8477,734,171,12,76,16,591,3328,408,5655 1,1,1,1,1,1,1,1,1,1,1,1,1,1,1,1,1
6,1146,290,1031,56,760,1026,13,893,1166,7,1214,10,155,3868 1,1,1,1,1,1,1,1,1,1,1,1,1,1,1
74,20,11,181,7,338 1,1,1,1,1,1
16,902,591,188,594 1,1,1,1,1
50,172,31,45,3116,258,2,51,16,5579,37,16,20,954,37,16,39,11,128,8478 1,1,1,1,1,1,1,1,1,1,1,1,1,1,1,1,1,1,1,1
1635,2,16,14,185,233,7,183,13,750,387 1,1,1,1,1,1,1,1,1,1,1
16,21,1596,38,10,24,142 1,1,1,1,1,1,1
16,20,118,19,68,1051,1526,5,2025,2,643,16,21,31,65,47,1347,7,513,41 1,1,1,1,1,69,69,1,1,1,1,1,1,1,1,1,1,1,1,1
186,10,24,594,15,48,788,290,15,949,648,581,12,6,56,451,1444,7,6,152,37,20,31,63,12,4293,38,20,633,902,19,237,522,2,520,37,38,20,348,161,15,803,152,1536 1,1,1,1,1,1,1,1,1,1,1,1,1,1,1,1,1,1,1,1,1,1,1,1,1,1,1,1,1,1,1,1,1,1,1,1,1,1,1,1,1,1,1,1
16,14,1198,521,17,7005,13,356 1,1,1,1,1,1,1,1
24,82,41,30,14,2236,17,72,2,127,2,277,192,33,2,5,254 1,1,1,1,1,1,1,4,1,8,1,1,1,1,1,1,22
129,41,156,989,856,22,25,680,2,4190,404,22,25,680,2,1417,123,22,25,680,2,971 1,1,1,21,1,1,1,1,1,1,1,1,1,1,1,1,1,1,1,1,1,1
11,366,139,149,30,14,2236,17,138,80,12,24,651 1,1,1,1,1,1,1,1,1,1,1,1,1
204,30,4,16,264,32,15,285,12,6,5654,570 1,1,1,1,1,1,1,1,1,1,1,1
16,232,17,155,86,51,353,665,542,86,173 1,6,6,6,6,6,6,6,6,6,6
16,668,1143,2,643,6276,5656,12,6,82 1,1,1,1,1,1,1,1,1,1
589,4,3701,3276,553,49,10656,3065,1308,182,2,3571,85,7,191,14,2236,17,233,7,183 1,1,1,1,1,1,1,1,1,1,1,1,1,1,1,1,1,1,1,1,1
16,91,1690,278 1,1,1,1
19,105,78,16,14,254,51,61,205,13,15,73,100,7,6256,5,15,137,7,404,5,150 1,1,1,1,1,66,1,1,1,1,1,72,72,72,72,1,1,1,1,1,1,1
234,14,526,2,134,351,97,870,2,11,1081,628,1358,2,218,295,97,207,2,48,90,10,478,5,16228,78,4,150,169,5,245,2,1415,2265,2,44,138,309,2,11,208,26,506 1,1,1,1,1,1,1,1,1,1,1,1,1,1,1,1,1,1,1,1,1,1,1,1,1,1,1,1,1,1,1,1,1,1,1,1,1,1,1,1,1,1,1
221,645,414,97,968,26,835,250 1,1,1,1,1,1,1,1
11,753,711,26,88 1,1,1,1,1
137,295 1,1
319,4,318,3276,21,181,7,341,56,760,433,43,1146 1,1,1,1,1,1,1,1,1,1,1,1,1
43,148,16,21,11,181,7,188,128,80,2,643,50,45,31,231,38,148,2535 1,1,1,1,1,1,1,1,1,1,1,1,1,1,1,1,1,1,1
124,3559,92,14,6901,37,16,21,11,188,128,80,2,268,826,10657,14,37,38,1327,15,803,2527,26,2527,621,10,24,72,26,761,24,30,7,541,1230 1,1,1,1,1,1,1,1,1,1,1,1,1,1,1,1,1,1,1,1,1,1,1,1,1,1,1,1,4,1,1,1,1,1,1,1
12,98,1461,2,38,1462,1374,27,116,307,17,68,1496,2,643,1017,600,426,300,124,16,39,185,188,80 1,1,1,1,1,1,1,1,1,1,1,1,1,1,1,1,1,1,1,1,1,1,1,1,1
50,111,11,431,3385,356,494,31,1680,13,6,848,37,14,108,1505 1,1,1,1,1,1,1,1,1,1,1,1,1,1,1,1
186,10,24,1496,2,16,494,52,465,19,1051,1526,5,2025 1,1,1,1,1,1,1,1,1,1,69,69,1,1
50,2857,52,2757,10,87,10,111,194,494,16,211,10,690,24,211,10,3686,567,121 1,1,1,1,1,1,1,1,1,1,1,1,1,1,1,1,1,1,1,1
1028,767,2,4090,3954,8479,2,106 1,1,1,1,1,1,1,1
2573,8479,2,4090,841,4,10658,859,4,16229,852,4,10658,257,31,85,43,262,327,257 1,1,1,1,1,1,1,1,1,1,1,1,1,1,1,1,1,1,1,1
