67,53,4,16371,304,317,162,54,29,4,5672,528,4,16372,170,53,4,16373,262,4,4617,170,304,4,10717,744,166,4,295,421,4,299,259,4,1521,323,697,201,82,41,30,7,1261,714,3652,2,541,2,5,232,63,201,55,109,584,233,7,183,19,387,2,740,2,229,131,88,2,5,692 1,1,1,1,1,1,1,1,1,1,1,1,1,1,1,1,1,1,1,1,1,1,1,1,1,1,1,1,1,1,1,1,1,1,1,1,1,1,1,1,1,1,1,1,1,1,1,1,1,17,1,1,1,1,1,1,1,1,1,1,1,1,1,1,1,1,1,1,1
215,6,82,279,109,2,16,344,11,1666,324,297,300,15,861,2,8516,12,6,82,16,563,324,81,733,28,235,3736,9,5,140,24,540,2,32,2298,32,16,996,8 1,1,1,1,1,1,1,1,1,1,1,1,1,1,1,1,1,1,1,1,1,1,1,1,1,1,1,1,1,1,1,1,1,1,1,1,1,1,1,1
16,267,37,27,405,16,3069,114,233,7,183,5,21,10,16374,24,786,699,6,567,7,6,891,2,179,16,1045,685,151,353,2521 1,1,1,1,1,1,1,1,1,1,1,1,1,1,1,1,1,1,1,1,1,1,1,1,1,1,1,1,1,1,1
466,2,16,21,1902,1442,19,24,192,2,5,21,10,1347,7181,19,24,567,26,16375,2128,114,2,76,14,311 1,1,1,1,1,1,1,1,1,1,1,1,1,1,1,1,1,1,1,1,1,1,1,1,1,1
16,113,31,148,98,48,33,2,26,30,7,409 1,1,1,1,1,1,1,1,1,1,1,1
16,21,39,15,256,112,991,109,32,61 1,1,1,1,1,1,1,1,1,1
12,6,222,24,16376,339,151,2029,16377,4459,610,1084,42,670,5,16,370,1157,2,925,2,2829,2,15,178,2349,2308,2,5,828,122,242,112,55,2,1853,22,242,8266,2,5,24,1737,403,27,16378,16,39,15,508,115,16379,5,334,88 1,1,1,1,1,1,1,1,1,1,1,1,1,1,1,1,1,1,1,1,1,1,1,1,1,1,1,1,1,1,1,1,1,1,1,1,1,1,1,1,1,1,1,1,1,1,1,1,1,1,1,1,1,1,1
544,4,16380,280,112,2204,58 1,1,1,1,1,1,1
41,19,162,4,180,41,30,4,16381,714,3652,112,1214,86,695,3747,2017,115,988,1116,2,3208,10,177,553,2,5,626,1213,42,463,1230 1,1,1,1,1,1,1,1,1,1,1,1,1,1,1,1,1,1,1,1,1,1,1,1,1,1,1,1,1,1,1,1
127 8
899,1545,503 1,1,1
663,581 1,1
334,581 1,1
586,30,4,1508,2637,5,304,10109,7,6,525,10064,5,75,868,10718,623,745,139,4,789,149,30,4,3698,204,30,4,232,178,1772,2,16382,6800,140,109,2,99,668,94,58,173,105,78,4,339,4,1084,42,235,16383,1312,42,1362,799,81,49,914,28,59,4,474,2,7182,234,4,1457,2,11,2501,1945,134,4,351,2,11,298 1,1,1,1,1,1,1,1,1,1,1,1,1,1,1,1,1,1,1,1,1,1,1,1,1,1,1,1,17,17,17,1,1,1,1,1,1,1,1,1,1,1,1,1,1,1,1,1,1,1,5,1,1,1,1,1,1,1,1,1,1,1,1,1,1,1,1,1,1,1,1,1,1,1,1,1,1
530,624,648,201,5474,1004,11,218,207,138,4,456,2,44,276,2,282,2,8517,672,208,579,10,6,2131,152,4,961,81,49,3550,28,1875,114,2,4460,420,365,4,159,2,976,2,2047,2,2546 1,1,1,1,1,1,1,1,1,1,1,1,1,1,1,1,1,1,1,1,1,1,1,1,1,1,1,1,1,1,1,1,1,1,1,1,1,1,1,1,1,1,1,1,1,1
11,1006 1,1
11,236,2,1540 1,1,1,1
559,4,3089,2,11,88,352,4,4717,112,117,28,966,1673,995,203,28,770,4,1038,612,5647,28,498,995,203,10,718,1008,2,16384,203,2,81,49,2948,28,1355,4,145,1641,258,1781,1377 1,1,1,1,1,1,1,1,1,1,1,1,1,1,1,1,1,1,1,1,1,1,1,1,1,1,1,1,1,1,1,1,1,1,1,1,1,1,1,1,1,1,1,1
500,168,386,429,2594,59,9,1284,8,325,386,673,1997,9,1249,8,325,386,790,1189,59,9,1285,8,325,386,1067,1623,10719,9,1383,8,325,386,1424,2453,875,9,3855,8,325,483,2583,9,1436,8,193,1490,1926,9,1662,8,193,1046,2318,77,9,1624,8,1384,386,1782,1967,1238,9,1286,8,193,386,358,16385,9,3705,8,193,1529,81,733,28,312,3245,510,124,81,903,28,312,3245 1,1,1,1,1,1,1,1,1,1,1,1,1,1,1,1,1,1,1,1,1,1,1,1,1,1,1,1,1,1,1,1,1,1,1,1,1,1,1,1,1,1,1,1,1,1,1,1,1,1,1,1,1,1,1,1,1,1,1,1,1,1,1,1,1,1,1,1,1,1,1,1,1,1,1,1,1,1,1,1,1,1,1,1,1,1,1,1
124,29,14,7123,2,5631,6,258,43,8425,386,371,16386,77,9,1333,8,193,81,49,2948,28,101,809,4,145,400,3747,3747,3747,3747,3747,5188,5188,5188,5188,5188,10720,16387,10567,16388,10721,4628,16389,9,2321,8,886,6695,8518,1310,3042,2741,9,77,8,111,393,69,3641,798,2121,2237,69,69,2742,81,903,28,1770,81,903,28,1770,81,49,2948,28,1152,4,145,1641,258,1781,1377 1,1,1,1,1,1,1,1,1,1,1,1,1,1,1,1,1,1,1,1,1,1,1,1,1,1,1,1,1,1,1,1,1,1,1,1,1,1,1,1,1,1,1,1,1,1,1,1,1,1,1,1,1,1,1,1,1,1,1,1,1,1,1,1,1,1,1,1,1,1,1,1,1,1,1,1,1,1,1,1,1,1,1,1,1
500,168,330,2442,9,1250,8,430,296,8519,9,1868,8,42,499,4703,9,2080,8,1367,660,10459,9,2189,8,1700,484,4340,9,3901,8,1287,578,1854,9,1321,8,1153,700,8520,9,1409,8,1516,737,3942,9,1410,8,598,701,5008,9,1356,8,42,1100,1101,370,1292,1050,1193,1391,1625,77,9,1637,8,42,551,123,59,9,1701,8,42,772,55,59,9,1638,8,42,773,35,9,1769,8,42,796,558,9,1732,8,42,588,1124,16390,9,2043,8,430,588,551,16391,59,9,2044,8,430,588,772,6025,59,9,6001,8,8521,588,773,3226,59,9,2045,8,430,588,796,3261,9,2091,8,430,1467,180,9,180,8,1416,427,77,9,180,8,2254,180,9,180,8,1953,180,9,180,8,81,49,2948,28,2519,4,145,400,3747,3747,7183,7183,7183,7183,5188,5188,16392,16393,16394,16395,5189,10721,10722,16396,16397,10723,70,6190,9,77,8,1340,9,303,8,3352,4042,9,251,8,3346,9,251,8,5008,1049,949,1340,9,303,8,1459,1256,1523,9,251,8,1256,1072,6750,5519,9,49,8,8025,9,251,8,10724,9,251,8,6697,81,49,2948,28,1663,4,69,81,49,2948,28,1348,4,508,4,319,4,143,1786,334,88 1,1,1,1,1,1,1,1,1,1,1,1,1,1,1,1,1,1,1,1,1,1,1,1,1,1,1,1,1,1,1,1,1,1,1,1,1,1,1,1,1,1,1,1,1,1,1,1,1,1,1,1,1,1,1,1,1,1,1,1,1,1,1,1,1,1,1,1,1,1,1,1,1,1,1,1,1,1,1,1,1,1,1,1,1,1,1,1,1,1,1,1,1,1,1,1,1,1,1,1,1,1,1,1,1,1,1,1,1,1,1,1,1,1,1,1,1,1,1,1,1,1,1,1,1,1,1,1,1,1,1,1,1,1,1,1,1,1,1,1,1,1,1,1,1,1,1,1,1,1,1,1,1,1,1,1,1,1,1,1,1,1,1,1,1,1,1,1,1,1,1,1,1,1,1,1,1,1,1,1,1,1,1,1,1,1,1,1,1,1,1,1,1,1,1,1,1,1,1,1,1,1,1,1,1,1,1,1,1,1,1,1,1,1,1,1,1,1,1,1,1,1,1,1,1,1,1,1,1,1,1,1,1,1,1,1,1,1,1,1,1,1,1,1,1,1,1,1
3307 1
81,49,2948,28,167,4,150,169,2,385,245,2,5419,2052,75,1003 1,1,1,1,1,1,1,1,1,1,1,1,1,1,1,1
1065,7184,2,625,555,837,2,1990,4348,210,81,1178,28,108,4,1361,323,697,201,161,311,735,461 1,1,1,1,1,1,1,1,1,1,1,1,1,1,1,1,1,1,1,1,1,1,1
146,24,78,2,50,240,4030,672,138,377,81,733,28,1569,138,377,2,643,16,21,2330,568,17,395 1,1,1,1,1,1,1,1,1,1,1,1,1,1,1,1,1,1,1,1,1,1,1,1
2330,568,17,672,57,24,2666,2394,1415,5,6,1649,37,16,39,15,143,988,1116,19,68,695,12,7185,50,629,16,348,161,21,988,2527,928,1261,1922,2,76,20,595,10,177,12,7185,24,208,14,353,319 1,1,1,1,1,1,1,1,1,1,1,1,1,1,1,1,1,1,1,1,1,1,1,1,1,1,1,1,1,1,1,1,1,1,1,1,1,1,1,1,1,1,1,1,1,1,1,1
987,270,14,541,2527 1,1,1,1,1
338,14,31,316,7,6,743,146,24,447,5,307,679 1,1,1,1,1,1,1,1,1,1,1,1,1
16,14,96,15,1047 1,1,17,17,17
987,270,14,1569,377,146,24,127,5,161,72 1,1,1,1,1,1,1,8,1,60,60
189,461,81,49,448,28,450,353,1019,1874,19,78 1,1,1,1,1,1,1,1,1,1,1,1
40,741,987,225,7,260,155,242,2860 1,1,1,1,1,1,1,1,1
118,2036,4185,4278,10,96,187,133 50,16,1,1,1,1,1,1
453,695,12,6,248 1,1,1,1,1
3260,4461,2,617,1812,2,277,2248,2,277,2100,349 1,1,1,1,1,1,1,1,1,1,1,1
124,626,14,337,2,40,118,1938,1891,2,442,5190 1,1,1,1,1,1,1,1,1,1,1,1
190,2136,1230,81,49,448,28,40,640,2884,1000,285,17,541,5,1667 1,1,1,1,1,1,1,1,1,1,1,1,1,1,1,1
220,135,81,49,448,28,428,187,2,2036,281,217,73,401,81,49,448,28,40,640,812,16398,5,75,17,1165,919,157 1,8,1,1,1,1,1,1,1,16,1,1,1,1,1,1,1,1,1,1,1,1,1,1,1,1,1,1
40,640,1106,380,283,81,49,448,28,593,3184,12,4624,40,118,1142,5,147,812,538,1078,12,248 1,1,1,1,15,1,1,1,1,1,1,1,1,1,1,1,1,1,1,1,1,1,1
501,4267,280,754,81,49,448,28,161,928,899,1545,503 1,1,1,1,1,1,1,1,1,1,1,1,1
40,2740,3748,3170,81,733,28,227,329,394,676,899,1545,503,81,49,448,28,40,118,899,1326,2,822,3170 1,1,1,1,1,1,1,1,1,1,1,1,1,1,1,1,1,1,1,1,1,1,1,1,1
5648,4,277,2100,2,277,10725,349,1211,4,368,4,180,900,4,2367,320,4,10726,744,4,295,8522,6293,10717,228,3252,742,49,16399 1,1,1,1,1,1,1,1,1,1,1,1,1,1,1,1,1,1,1,1,1,1,1,1,1,1,1,1,1,1
