67,53,4,16631,29,400,4,10820,2,7214,2809,28,528,4,10821,606,27,4,16632,43,6251,3121,8560,2,228,104,114,54,537,4,158,843,1755,2,1784,1861,10,4385 1,1,1,1,1,1,1,1,1,1,1,1,1,1,1,1,1,1,1,1,1,1,1,1,1,1,1,1,1,1,1,1,1,1,1,1,1,1
732,160,16633,579,345,10,9719,4385,10,15,225,7,16634,6314,4,542,130 1,1,1,1,1,1,1,1,1,1,1,1,1,1,1,1,1
2232,166,4,31,1386 1,1,1,1,1
44,1219,166,4,11,524 1,1,1,1,1,1
732,30,4,318,10820,14,202,172,61,13,11,3922,5,125,253,12,24,4567 1,1,1,1,1,1,1,1,1,1,1,1,1,1,1,1,1,1
16,132,21,630,1749,12,24,786,5,619,2,76,14,270,1052,10,329,26,600,426 1,1,1,1,1,1,1,1,1,1,1,1,1,1,1,1,1,1,1,1
16,96,21,125,795,134,1749,2,1017,422,10,125,286,26,308,5,13,2665,142 1,1,1,1,1,1,1,1,1,1,1,1,1,1,1,1,1,1,1
16,21,11,374,12,98,131 1,1,1,1,1,1,1
24,1557,21,341,71,542,10,178 1,1,1,1,1,1,1,1
24,619,199,15,1126,432,16635 1,1,1,1,1,1,1
379,6,16636,2,76,16,21,39,17,125,84,57,270,458,26,6,1151,2,450,15,1126,940,19,6,56,619,300,6,75 1,1,1,1,1,1,1,1,1,1,1,1,1,1,1,1,1,1,1,1,1,1,1,1,1,1,1,1,1
105,107,4,19,105,107,16,909,61 1,1,1,1,1,1,1,1,1
24,142,14,114,10,4418,647 1,1,1,1,1,1,1
16,21,11,1030,3661,250,762 1,1,1,1,1,1,1
24,221,14,2058,69,2,426,14,24,1923 1,1,1,1,1,1,1,1,1,1
319,4,226,270,437,253,2,1555,11,181,7,584 1,1,1,1,1,1,1,1,1,1,1,1
108,4,50,40,640,15,453,48,5,1909,946,237,2,32,61,32,15,948,522 1,1,1,1,1,1,1,1,1,1,1,1,1,1,1,1,1,1,1
3815,37,513,57,31,955,7,273,584,2,50,108,10,111,194,12,1054,104,114,12,944,10,1041,130 1,1,1,1,1,1,1,1,1,1,1,1,1,1,1,1,1,1,1,1,1,1,1,1
62,3423,240,161,125,73,145,2350,19,194,2,76,50,40,2757,10,1780,179,50,827,4287,1138,685,57 1,1,1,1,1,1,1,1,1,1,1,1,1,1,1,1,1,1,1,1,1,1,1,1
62,2859,14,450,111,194,1065,5,741,194,775,5,255,17,24,73,100 1,1,1,1,1,1,1,1,1,1,20,1,9,1,1,1,1
2573,6251,3121,8560,2,228,421,4,16637,2859,2,228,16638,16639,2,228,3957,8561,2,228,5205,8562,2,106 1,1,1,1,1,1,1,1,1,1,1,1,1,1,1,1,1,1,1,1,1,1,1,1
4819,3423,2,228,16640,16641,16642,16643 1,1,1,1,1,1,1,1
