67,53,4,16644,317,4322,170,54,9,10822,10823,8,400,7214,10824,553,49,16645,53,7,162,4,1094,1775,2,2858,1589,4,16646,3424,480,4,4819,10825,421,4,1810,323,373,1387,1047,2,283,13,116,1248,7,48,33,215,6,82,2810,58 1,1,1,1,1,1,1,1,1,1,1,1,1,1,1,1,1,1,1,1,1,1,1,1,1,1,1,1,1,1,1,1,1,1,1,1,1,1,1,6,6,1,15,1,1,1,1,18,18,18,18,18,18,18
259,4,1810,323,373,9,3966,4,1387,1047,2,135,2,254,8,63,13,2810,58,7,116,48,33 1,1,1,1,1,1,1,1,6,6,1,8,1,22,1,1,1,18,18,18,18,18,18
29,148,37,16,1220,45,33,27,6,184,1445,1880,2,11,579,2810,58,173 1,1,1,1,1,1,1,1,1,1,1,1,1,1,1,1,1,1
29,6121,179,33,444,1220 1,1,1,1,1,1
29,746,16647,33,2,1828,33,37,597,161,2597,33 1,1,1,1,1,1,1,1,1,1,1,1
444,99,17,462 1,1,1,1
33,1441,5,1014,97,98,3395,13,308 1,1,1,1,1,1,1,1,1
287,116,12,1248,5,2023,215,6,58 1,1,1,1,1,1,1,1,1
305,252,31,620,24,33,5,20,418,10,2644,1898,2617,7,1826,97,1120,7,126 1,1,1,1,1,1,1,1,1,1,1,1,1,1,1,1,1,1,1
33,21,65,116,12,2023,215,6,82,2810,58 1,1,1,1,1,1,1,1,1,1,1
33,1714,10826,5,29,608,63,10,3797 1,1,1,1,1,1,1,1,1
70,252,31,45,98,90,2307,79,2,146,242,2694,2,652,2,5,243 1,1,1,1,1,1,1,1,1,1,36,36,1,1,1,1,52
176,43,3797,1589,5,690,10,6048,1513,17,273,1232 1,1,1,1,1,1,1,1,1,1,1,1
70,39,1052,33,82,3669,5,35,86,173,471,324,114,16648,3751,3506,1068,624,1788,2,16649,7934,2,11,1061,1558,677,4,1861,158,843,357,2,119,59,3122,2,4385,579,75,871,364,2,127,2,11,144,2,277,957,2,119,59,572,2315,171,244,4,775,1611,34,255,3033,34,223,4,789,1109,4,249,19,24,2109,2,154,10,52,4820,16650,2,312,1324,86,30,353,610,86,173,2,936,2,31,941,2,11,366,2,26,463,993,4,518,5,651,611,7,409,79,27,447,1487,5,596,395,2274,569,105,78,4,339,4,303,5543,133,16651,312,534,1810,618,610,904,1189,42,19,670,799,4,474,234,4,1566,2,764,2,3738 1,1,1,1,1,1,1,1,1,1,1,1,1,1,1,1,1,1,1,1,1,1,1,1,1,1,1,1,1,1,1,1,1,1,1,1,1,1,1,1,1,1,1,8,1,1,1,1,1,1,1,1,1,1,1,1,1,1,20,1,1,9,1,1,1,1,1,1,1,1,1,1,1,1,1,1,1,1,1,1,1,1,1,1,1,1,1,1,1,1,1,1,1,1,1,1,1,1,1,1,1,1,1,1,1,1,1,1,1,1,1,1,1,1,1,1,1,1,1,1,1,1,1,1,1,1,1,1,1,1,1,1,1,1,1,1,1,1,1,1,1,1,1,1,1
613 1
11,6306,2,978,201,1457,134,4,351,2,897,2,295,1543,2,530,44,152,4,787,1205,724,4,1654,2,1257,2,11,1060,365,4,159,2,976,2,3891,7215,4,44,846,1332,2,11,491,12,5584,1919,4,11,1458,196,979,79,1205,352,4,4365,2,931,354,1355,4,386,429,2773,9,1284,8,325,386,673,1926,9,1249,8,325,386,790,2432,9,1285,8,325,386,1067,1623,10827,59,9,1383,8,325,483,3062,9,1436,8,193,1490,1946,9,1662,8,193,1046,1568,9,1624,8,1384,386,1782,1967,1214,77,9,1286,8,193,386,358,2744,77,9,1535,8,193,386,371,3345,9,1333,8,193,2279,2333,77,9,3539,8,3540,2171,2380,9,3541,8,3542,1113,1102,3083,16652,77,9,2377,8,1235,1639,1798,1430,7216,77,9,2924,8,42,2145,10828,77,9,2378,8,1235,1113,1102,16653,77,9,3678,8,658,2107,4,330,5619,9,1250,8,430,296,7217,59,9,1868,8,42,499,3828,59,9,2080,8,1367,660,10829,59,9,2189,8,1700,484,3074,9,1460,8,1287,578,1425,9,1321,8,1153,700,5517,9,1409,8,1516,737,6315,9,1410,8,598,701,4399,9,1356,8,42,1390,70,3352,77,9,2923,8,1059,1390,1049,1523,1049,1838,57,5391,343,17,1768,4953,345 1,1,1,1,1,1,1,1,1,1,1,1,1,1,1,1,1,1,1,1,1,1,1,1,1,1,1,1,1,1,1,1,1,1,1,1,1,1,1,1,1,1,1,1,1,1,1,1,1,1,1,1,1,1,1,1,1,1,1,1,1,1,1,1,1,1,1,1,1,1,1,1,1,1,1,1,1,1,1,1,1,1,1,1,1,1,1,1,1,1,1,1,1,1,1,1,1,1,1,1,1,1,1,1,1,1,1,1,1,1,1,1,1,1,1,1,1,1,1,1,1,1,1,1,1,1,1,1,1,1,1,1,1,1,1,1,1,1,1,1,1,1,1,1,1,1,1,1,1,1,1,1,1,1,1,1,1,1,1,1,1,1,1,1,1,1,1,1,1,1,1,1,1,1,1,1,1,1,1,1,1,1,1,1,1,1,1,1,1,1,1,1,1,1,1,1,1,1,1,1,1,1,1,1,1,1,1,1,1,1,1,1,1,1,1,1,1,1,1,1,1,1,1,1,1,1,1,1,1,1,1,1,1,1,1,1,1,1,1,1,1,1,1,1,1,1,1,1,1,1,1,1,1,1,1,1,1,1,1
1390,2042,4696,9,2730,8,1059,508,4,3752,1125,10800,138,1002,2,143,116,367,1076,382,90,3587,167,4,333,167,3275,804,1487,1735,44,1003,2,44,732,2,3452,2,555,12,1091,2,3625,303,837,4308,333,12,5955,2,50,2366,2,3416,167,27,3797,4,16654,16655,804,2,3452,2,44,732,2,4707,1956,12,2516,2323,2,555,79,12,2498,2,2499,19,162,10,1513,4,804,1361,1735,2,3452,2,44,1003,2,44,732,2,555,79,12,2498,2499,2,311,2774,1956,12,50,2,2366,2,638,2,1603,2,3320,28,311,4707,1956,12,2516,2323,28,311,10830,2307,12,2623,2,184,567,998,11,217,12,2499,3320,8224,4,1810,323,373,13,9,3966,4,1387,1047,2,135,8,63,13,1827,13,161,752,80,2,497,146,16656,1640,7,126,108,4,189,338,36,29,33,777,75,132,748,652,2,243,2,1405,10831,2,1142,2,710,1818,146,1439,2,119,2013,2308,7,16657,140,62,3424,867,1244,809,2,360,749,5,886,79,2,749,2452,7,158,377,5,90,101,1029,215,6,82,492,58,1055,147,812,538,2,2602,1694,108,10,568,10,443,141,1696,2,1221,82,3514,190,1727,748,1105,10,265,248,695,329,443,140,62,3424,867,197,45,143,1342,88,19,508,306,2,226,205,3610,97,224,7,377,220,1439,60,119,59,3122,5,184,158,579,345,2,5,579,10,4385,748,3634,2,242,1916,2775,3753,10822,106 1,1,1,1,1,1,1,1,1,1,1,1,1,1,1,1,1,1,1,1,1,1,1,1,1,1,1,1,1,1,1,1,1,1,1,1,1,1,1,1,1,1,1,1,1,1,1,1,1,1,1,1,1,1,1,1,1,1,1,1,1,1,1,1,1,1,1,1,1,1,1,1,1,1,1,1,1,1,1,1,1,1,1,1,1,1,1,1,1,1,1,1,1,1,1,1,1,1,1,1,1,1,1,1,1,1,1,1,1,1,1,1,1,1,1,1,1,1,1,1,1,1,1,1,1,1,1,1,1,1,1,1,1,1,1,1,1,1,1,1,1,1,1,1,1,1,6,6,1,8,1,1,1,31,1,1,1,1,1,1,1,1,1,1,1,1,1,1,1,1,1,1,1,1,1,1,1,1,52,1,1,1,1,1,1,1,1,1,1,1,1,1,1,1,1,1,1,1,1,1,1,1,1,1,1,1,1,1,1,1,1,1,1,1,1,1,1,1,1,1,1,1,1,1,1,1,1,1,1,1,1,1,1,1,1,1,1,1,1,1,1,1,1,1,1,1,1,1,1,1,1,1,1,1,1,1,1,1,1,1,1,1,1,1,1,1,1,1,1,1,1,1,1,1,1,1,1,1,1,1,1,1,1,1,1,1,1,1,1,1,1,1,1,1,1
7218,10823 1,1
