67,53,4,16934,4195,3124,315,1300,110,1839,2,4824,4366 1,1,1,1,1,1,1,1,1,1,1,1,1
5216,110,53,4,16935,63,278,4,233,7,183 1,1,1,1,1,1,1,1,1,1,1
30,7,63,278,4,38,14,15,1602,86,333,576,120,63,10,1092,13,233,7,183,2860 1,1,1,1,1,1,1,1,1,1,1,1,1,1,1,1,1,1,1,1,1
18,21,65,396,233,7,183,132,13,301,5,392,89 1,1,1,1,1,1,1,1,1,1,1,1,1
74,14,11,30,7,275,2,11,507,2,5,11,294,33 1,1,1,1,1,1,1,1,1,1,1,1,1,1
18,113,642,7,125,143,2579,33,51,3022,185 1,1,1,1,1,1,1,1,1,1,1
18,21,39,209,192,33,17,86 1,1,1,1,1,1,1,1
82,41,30,4,6,29,21,15,185,82,41,30 1,1,1,1,1,1,1,1,1,1,1,1
30,14,185,17,127,2,72,2,5,887,138,377 1,1,1,1,8,1,4,1,1,1,1,1
18,14,166,332,493,294,2370,5,103,16936,5,166,332,4826,3125 1,1,1,1,1,1,1,1,1,1,1,1,1,1,1
41,4,6,29,14,19,335,41,156,260,2,216,2,556,2,2433,2,1552 1,1,1,1,1,1,1,1,1,1,1,16,1,1,1,1,1,20
105,107,4,436,6,29,909,143,2988 1,1,1,1,1,1,1,1,1
73,100,20,16937,2,1118,1097,20,1084,3868,2,5,138,169,20,6354,73,100,21,511,219,160,18,21,65,436 5,5,5,5,1,1,1,1,1,1,1,1,1,1,1,1,1,1,1,1,1,1,1,1,1,1
234,107,20,44 1,1,1,1
1206,151,1186,44,103 1,1,1,1,1
1277,20,90 1,1,1
134,20,143,254,13,11,1081,628,1358 1,1,1,1,1,1,1,1,1
74,151,230,218,1647,2,11,207 1,1,1,1,1,1,1,1
152,39,125,961,16938,7,6,1875,114,5,125,1048,27,6,669,2,5696,1875,114 1,1,1,1,1,1,1,1,1,1,1,1,1,1,1,1,1,1,1
101,107,290,276,5,282,2,1044,2626,2,13,15,1730,208 1,1,1,1,1,1,1,1,1,1,1,1,1,1
221,39,335,6074,5,20,159,5,976,2,13,230,320,309 1,1,1,1,1,1,1,1,1,1,1,1,1,1
74,151,230,137,762 1,1,1,1,1
131,151,44 1,1,1
489,176,4,1463,436,151,44 1,1,1,1,1,1,1
73,401,20,44 1,1,1,1
810,821,20,830,2,863,16939,444,886,20,1550,2,749,8619,48,788,115,595,877,5,15,378,56,877 1,1,1,1,1,1,1,1,1,1,1,1,1,1,1,1,1,1,1,1,1,1,1,1
29,79,99,1146,115,68,893,1166,7,312,3868 1,1,1,1,1,1,1,1,1,1,1
38,1146,20,375,12,1379,7,16940,18,96,39,15,868,1146,12,1537,7,2414,76,115,68,893,1166,7,1473,3868,2,13,595,318,167,436,115,561,337,12,2323,5,125,341,303,79,12,2623,5,2366 1,1,1,1,1,1,1,1,1,1,1,1,1,1,1,1,1,1,1,1,1,1,1,1,1,1,1,1,1,1,1,1,1,1,1,1,1,1,1,1,1,1,1,1,1,1
385,245,19,167,169,200,3474,345,1863,12,222,4,12,6,315,481,6,29,20,652 1,1,1,1,1,1,1,1,1,1,1,1,1,1,1,1,1,1,1,1
18,20,465,19,1118,2,146,68,198,2,5,465,19,15,838,1590 1,1,1,1,1,1,1,1,52,1,1,1,1,1,36,1
18,96,370,125,3827,436 1,1,1,1,36,1
18,96,370,15,22,7,1584 1,1,1,1,1,1,1
8612,543,20,1833,7,6,29,79,749,7,2477,2,955,37,18,39,15,768,475,26,563,450,52,5166,15,768,475,436 1,1,1,1,1,1,1,1,1,1,1,1,1,1,1,1,1,31,31,1,1,1,1,1,1,31,31,1
18,370,242,260,312,22,436,5,2152,246,61 1,1,1,1,1,1,1,1,1,1,1
18,20,3341,1803,5,23,233,7,183,205,10,52,615,458,300,179,18,889,436,12,6,315,481 1,1,1,1,1,1,1,1,1,1,1,1,1,1,1,1,1,1,1,1,1,1,1
608,537,4,887,138,377,13,768,475,2,3341,61,5,2152,10,41 1,1,1,1,1,1,1,31,31,1,1,1,1,1,1,1
683,9,156,614,751,271,8,4,6,29,20,170,10,6,1513 1,1,1,1,1,1,1,1,1,1,1,1,1,1,1
8612,14,1833 1,1,1
18,511,12,219,614,436,5,14,568,10,52,690,114,10,1513,12,15,1126,471 1,1,1,1,1,1,1,1,1,1,1,1,1,1,1,1,1,1,1
614,27,38,84,14,2726 1,1,1,1,1,1
1380,16941,6353,2408,2884,2,106 1,1,1,1,1,1,1
7248,16942,16943,606,43,4,6353,2408,2884,2,106 1,1,1,1,1,1,1,1,1,1,1
7248,257,31,85,43,262,327,257 1,1,1,1,1,1,1,1
