67,53,4,16990,175,543,16991,36,304,170,54,16992,712,4,262,4,5357,9,543,8,480,4,16993,9,304,317,8,16994,4,5357,9,543,8,880,278,510,408,16995,7,63,361,10961,697,13,15,30,7,3127,2,127,2,283,2,1148,9,19,774,8,2,247,900,9,286,2034,1626,8,2,1375,20,521,17,2436,657,171,16996 1,1,1,1,1,1,1,1,1,1,1,1,1,1,1,1,1,1,1,1,1,1,1,1,1,1,1,1,1,1,1,1,1,1,1,1,1,1,1,1,1,1,1,1,1,1,1,4,1,8,1,15,1,1,1,1,1,1,1,1,1,1,1,1,1,1,1,1,1,1,1,1,1,1,1
17,24,2156,2026,2,6,29,39,15,408,1720,78,19,16997,37,20,682,17,15,10962,1558,7,595,2023,12,6,793,5,1580,792,5,3915,780,37,20,1920 1,1,1,1,1,1,1,1,1,1,1,1,1,1,1,1,1,1,1,1,1,1,1,1,1,1,1,1,1,1,1,1,1,1,1,1
32,15,258,2,6,29,20,519,10,62,5357,120,739,6,29,12,226,19,5450 1,1,1,1,1,1,1,1,1,1,1,1,1,1,1,1,1,1,1
146,6,29,79,307,679,5,286,408,145,2,6,29,20,521,17,75,5,56,138,594,19,6,58,7,162,13,6,108,10,2300,24,657,171,124,16,627,15,261,5,902,514,345 1,1,1,1,1,1,1,2,2,2,1,1,1,1,1,1,1,1,1,1,1,1,1,1,1,1,1,1,1,1,1,1,1,1,1,1,1,1,1,1,1,29,1
19,6,761,186,10,24,594,2,16,39,974 1,1,1,1,1,1,1,1,1,1,1
6,29,1014,10,6,443,141,854,16,20,557,10,45,68,404,42,266,7,6,16998,426,15,6128,261,20,465 1,1,1,1,1,1,1,1,1,1,1,1,1,1,2,2,2,2,2,2,1,1,1,1,1,1
136,443,2,6,29,20,118,19,243,1024,25,95,5,514,2714,13,2656,25,112,35,268,1500,25,95,3789 1,1,1,1,1,1,1,1,11,1,1,1,1,29,1,1,1,1,1,1,1,1,1,1,1
16,20,96,146,1768,4440,25,112,35,17,68,1053,7,16999,7,191,69,720,32,17000,41,30,189,3127,9,412,3017,2,575,8,190,127,220,283,281,1148,9,19,774,2,119,1603,8,380,247,900,112,55,81,1178,28,423,112,35,9,286,2034,1626,8,501,1375,676,247,898,357,394,43,432,17001,379,869,254,1043,716,1066,119,212,535,71,657,10,362,17,1466,1509,119,2354,7,279,419,19,184,362,17,17002,243,942,25,95,1973,577,1414,25,95,6047,2656,25,64,157,878,7251,438,549,241,1607,25,549,157,2889,17003,1328,2960,4665,25,95,1552,1089,1611,25,95,3370,10963,25,322,1323,485,25,95,17004,10089,25,895,165,3099,2336,722,25,165,2991,533,25,95,814,715,807,25,95,17005,1950,2,7252,2,17006,30,14,2236,17,651,27,505,86,7,447,120,21,39,546,5,696,357,297,300,504,86,173,5,21,209,152,80,129 1,1,1,1,1,1,1,1,1,1,1,1,1,1,1,1,1,1,1,1,1,1,1,4,1,42,42,1,1,1,1,8,1,15,1,1,1,1,1,1,1,1,1,1,1,1,1,1,1,1,1,1,1,1,1,1,1,1,1,1,1,1,1,1,1,1,1,1,1,1,1,22,1,1,1,1,1,1,1,1,1,1,1,1,1,1,1,1,1,1,1,1,1,1,1,11,1,1,1,1,1,1,1,1,64,1,1,1,7,7,7,7,7,12,1,1,1,7,7,7,7,1,1,1,1,20,1,1,1,1,1,1,1,1,1,1,1,1,1,1,1,1,1,1,1,1,1,1,75,1,1,1,9,9,1,1,1,1,1,1,1,1,1,1,1,1,1,1,1,1,1,1,1,1,1,1,1,1,1,1,1,1,1,1,1,1,1,1,1,1,1
24,518,611,27,1615,86,7,447,136,68,1496,1083 1,1,1,1,1,1,1,1,1,1,1,1
279,1114,45,65,10964,43,4038,2,178,43,5645,2,5,178,43,68,920,17007 1,1,1,1,1,1,1,1,1,1,1,1,1,1,1,1,1,1
6,29,148,45,123,687,5,1238,2616,2,542,7,24,687,45,17008,30,936,19,2461,5,326,264,17,7230,7253,1139 1,1,1,1,1,1,1,1,1,1,1,1,1,1,1,1,1,1,1,1,1,1,1,1,1,1,1
16,14,31,941,51,21,65,249,13,24,17009,547,17,2224,17010,1792,4,463,4,1202,4,339,224,303,534,133,618,689,904,17011,78,202,205,474,2,815,2,254,234,1566,2,764,2,613,2,4672,5459,2,978,90,2,17012,351,2,11,298,2,11,937,2,11,207,2,196,218,48,230,4297,2807,2,1366,2,11,8628,3264,456,2,276,282,2,11,1060,2,11,17013,1353,2,5071,2,11,2961,2,11,3874,8629,17014,11,1458,2,196,1311,2,196,979,2,196,17015,15,81,1178,28,983,112,117,9,465,2,1121,2,84,8,2,1406,641,2,2562,990,2,1224,223,131,2,498,995,17016,11,3220,510,8630,11,17017,10965,1053,1568,5450,17018,2,364,2583,2826,1170,2,2927,504,2,952,1651,2,1448,2907,886,5914,17019,81,733,28,7254,81,903,28,17020,1053,17021,145,167,4,804,17022,2,11,2909,83,9,888,71,186,8,408,1720,4,6,29,79,17023,145,258,57,510,5,515,13,15,8001,1002,1440,7,595,8039,3217,17024,1558,12,6,2028,7,68,2874,188,17025,5,108,10961,697,13,15,30,7,254,2,72,2,127,2,283,13,15,286,2156,408,145,132,119,101,594 1,1,1,1,1,1,1,1,1,1,1,1,1,1,1,1,1,1,1,1,1,1,1,1,1,1,1,1,1,1,1,1,1,1,1,1,1,22,1,1,1,1,1,1,1,1,1,1,1,1,1,1,1,1,1,1,1,1,1,1,1,1,1,1,1,1,1,1,1,1,1,1,1,1,1,1,1,1,1,1,1,1,1,1,1,1,1,1,1,1,1,1,1,1,1,1,1,1,1,1,1,1,1,1,1,1,1,1,1,1,1,1,1,1,1,1,1,1,1,1,1,1,1,1,1,1,1,1,1,1,1,1,1,1,1,1,1,1,1,1,1,1,1,1,1,1,1,1,1,1,1,1,1,1,1,1,1,1,1,1,1,1,1,1,1,1,1,1,1,1,1,1,1,1,1,1,1,1,1,1,1,1,1,1,1,1,1,1,1,1,1,1,1,1,1,1,1,1,1,1,1,1,1,1,1,1,1,1,1,1,1,1,1,1,1,1,1,1,1,1,1,1,1,1,1,1,1,22,1,4,1,8,1,15,1,1,1,1,1,1,1,1,1,1
49,666,9,50,8,4,6,29,39,68,510,408,145,5,14,132,119,101,443 2,2,2,2,2,2,2,2,2,2,2,2,2,2,2,2,2,2,2
36,2252,36,538,5,412,12,248,36,243,2,514,2,1142,2,1301,36,442,6,466,7,68,1818,1499,146,30,7,72,49,1148,4,19,6,761,186,10,443,6,29,39,774,5,40,45,774,1696 1,1,1,1,1,1,1,1,1,11,1,29,1,1,1,1,1,1,1,1,1,1,1,1,1,1,1,4,1,1,1,1,1,1,1,1,1,1,1,1,1,1,1,1,1,1
36,158,1833,36,87,3370,2,2960,49,144,4,99,412,20,3017 1,1,1,1,1,1,1,1,1,4,1,60,60,60,60
36,147,412,12,248,36,878,17026,438,549,2,3591,4828,438,1328,2,3591,2281,1328,292,1093,49,127,4,36,87,1552,5,604,49,283,4,36,147,538,12,248,36,87,241,2,2991,2,17027,49,1375,4,2436,171,132,1465,160,29,14,119,261,5,19,1576,514,36,1280,165,36,17028,165,49,247,900,4,129,19,531,51,7129 1,1,1,1,1,1,33,33,33,33,1,33,33,33,33,1,33,33,33,33,33,1,8,1,1,1,20,1,37,1,15,1,1,1,1,1,1,1,1,12,1,75,1,97,1,1,1,1,1,1,1,1,1,1,1,1,1,1,1,29,1,1,1,1,1,1,1,1,1,1,1,1,1,1,1
6,29,370,4440,25,112,35,12,6,443,141 1,1,1,1,1,1,1,1,1,1,1
36,104,1053,95,36,87,164,531,49,1905,4,36,17029,349,49,3167,4,36,17030,7056,17031,10966,9,185,175,8,17032,166,295,744 1,1,1,1,1,1,1,1,1,1,1,1,1,1,1,1,1,1,1,1,1,1,1,1,1,1,1,1,1,1
