67,53,4,16979,5697,457,481,5697,304,317,397,1800,10951,561,5698,2,5001,10952,2,237,10953,7250,10954,10955,259,4,6,29,14,15,2242,86,333,509,13,335,41,153,120,63,17,1054,104,114 1,1,1,1,1,1,1,1,1,1,1,1,1,1,1,1,1,1,1,1,1,1,1,1,1,1,1,1,1,1,1,1,1,1,1,1,1,1,1,1,1,1,1,1
129,470,4,189,1910,735,72,369 1,1,1,1,57,57,57,4
6,29,39,15,691,412,665,15,130,5,15,1917,173,2,76,20,16980,102,214,38,12,6,632,89,2,13,6,202,10956,37,3304,120,14,47,542,1037,7,157,15,58,494,45,615,16981,187 1,1,1,1,1,1,1,1,1,1,1,1,1,1,1,1,1,1,1,1,1,1,1,1,1,1,1,1,1,1,1,1,1,1,1,1,1,22,1,1,1,1,1,1,1
16,267,16,21,65,104,24,1033,2489,2,684,170,37,630,4457,10,172,38 1,1,1,1,1,1,1,1,1,1,1,1,1,1,1,1,1,1
24,129,346,14,1214,168,7,529,12,6,486,13,122,168,7,150 1,1,1,1,1,1,1,4,1,1,1,1,1,1,1,1
27,1234,2,16,14,47,1214,168,7,529,5,289,168,7,150,27,10957 1,1,1,1,1,1,1,1,1,4,1,1,1,1,1,1,1
16,91,98,126,7,1370 1,1,1,1,1,1
190,831 1,38
7,54,2,6,29,93,1446,15,284,10,24,675 1,1,1,1,1,1,1,1,1,1,1,13
38,523,19,6,1298,7,6,675 1,1,1,1,1,1,1,13
7,54,2,24,348,93,398,20,10958,12,1094,2,4293,16,21,1788,13,6,4827,10,214,6,3744,7,15,10959,349,2,5,267,37,16,460,10,1512,2248 1,1,1,1,13,13,13,13,4,1,1,1,1,1,1,1,1,1,1,1,1,1,1,1,1,1,1,1,1,1,1,1,1,1,1,1
220,628,797,621,10,1671,628,1715 1,1,1,1,1,1,1,1
6,29,267,16,14,172,458,160,6,3744,7,15,7930,3826 1,1,1,1,1,1,1,1,1,1,1,1,1,1
16,450,54,185,88,179,16,113,865,1944,38,2,51,54,68,253,12,1183,179,16,14,2325,13,6,3826 1,1,1,1,1,1,1,1,1,1,1,1,1,1,1,1,1,1,1,1,1,1,1,1,1
105,107,4,73,100,4,8055 1,1,1,1,1,1,1
138,169,4,4715,410,169,4,624,5,2141 1,1,1,1,1,1,1,1,1,1
101,78,4,150,169,5,245,2,44,276,5,282,2,11,208 1,1,1,1,1,1,1,1,1,1,1,1,1,1,1
152,57,90,10,478 1,1,1,1,1
221,4,159,2,976,2,254,2,13,308,320,309 1,1,1,1,1,1,7,1,1,1,1,1
131,115,11,753,26,711 1,1,1,1,1,1
74,14,427,917,88,7,6,75,229,131,2,76,14,1634,13,15,7930,3826 1,1,1,1,1,1,1,1,1,1,1,1,1,1,1,1,1,1
362,211,511,1494 1,1,1,1
319,4,189,1910,735,72,369 1,1,1,57,57,57,4
102,40,116,6,29,79,486,529,225,10,155,168 1,1,1,1,1,1,1,4,1,1,1,1
16,40,635,467,460,10,1517,297,2325,13,24,349 1,1,1,1,1,1,1,1,1,1,1,1
16,40,52,521,17,15,104,114,3038,107 1,1,1,1,1,1,1,1,1,1
190,831 1,38
102,40,710,699,8625,345,146,24,93,284,10,16982 1,1,1,1,1,1,1,1,1,1,1,15
102,40,3413,15,812,538,1712,32,61,32,15,441,7,3166,79 1,1,1,1,1,1,1,1,1,1,1,1,1,1,1
5697,457,481,5697,304,317,397,5013,10951,561,5698,2,5001,10952,2,237,10953,7250,10954,10955,1288,55,220,202,457,945 1,1,1,1,1,1,1,1,1,1,1,1,1,1,1,1,1,1,1,1,1,1,1,1,1,1
102,40,635,467,521,15,104,114,107,13,6,4827,32,61,32,6,3531 1,1,1,1,1,1,1,1,1,1,1,1,1,1,1,1,1
16,40,1209,15,2705,7,24,401,5,104,114,13,291,12,6,226,12,665,178,10,279,130 1,1,1,1,1,1,1,1,1,1,1,1,1,1,1,1,1,1,1,1,1,1
2879,1857,4140,2,106 1,1,1,1,1
16983,4,16984,16985,16986,16987,60,60,60,60,60,60,60,60,60,60,60,60,60,60,60,60,60,60,60,60,60,60,60,60,60,60,60,60,60,60,60,60,60,60,60,60,60,60,3058,8626,2,6356,10960,2,106 1,1,1,1,1,1,1,1,1,1,1,1,1,1,1,1,1,1,1,1,1,1,1,1,1,1,1,1,1,1,1,1,1,1,1,1,1,1,1,1,1,1,1,1,1,1,1,1,1,1,1
54,4,70,231,13,62,4140 1,1,1,1,1,1,1
284,523,699,675 1,1,1,13
73,401,5,133,16988,187 1,1,1,1,1,1
755,13,108,10,116,133,244,5,16989,8627,297,984 1,1,1,1,1,1,1,1,1,1,1,1
812,538,1712,186,10,1438,1142 1,1,1,1,1,1,1
6356,8626,2,228,257,2534,43,262,8626,2,6356,10960,2,106 1,1,1,1,1,1,1,1,1,1,1,1,1,1
257 1
