67,53,4,17115,1121,512,5,1173,457,1931,86,333,373,521,17,171,19,1379,17116 1,1,1,1,1,1,1,1,1,1,1,1,1,1,1,1,1,1,1
880,278,6,29,14,521,17,56,493,657,943 1,1,1,1,1,1,1,1,1,1,1
30,7,63,361,6,29,642,7,33,7,56,657,621,10,1375 1,1,1,1,1,1,1,1,1,1,1,1,1,1,1
82,586,30,186,171,156,4,180,149,30,74,12,11,149,30,7,3009,1108,10,202,2301 1,1,1,1,1,1,1,1,1,1,1,1,1,1,1,1,1,1,1,1,1
82,41,30,129,41,153,156,4,254,204,30,232,4,11,541,154,4,17117,2136,1230,4,180,7269,1520,702,117,130,9,17118,8,4,180,85,7,191,41,4,2085,2,10991,139,4,1451,721,417,5,524,183,603,4,11,30,7,127,2,11,409,28,91,495,2,113,2,823,2,572,88,410,4,11,30,7,1270,26,209,152,80,28,91,1949,233,7,183,310,4,11,30,7,310,153,1690,4,11,30,7,3168,28,91,1004,3802,4,11,30,7,916,80,28,91,2137,26,1271,5377,4,11,30,7,158,377,28,91,1174,2,845,2,759,5378,1039,4,33,7,56,657,5908,4,11,30,7,72,2,11,8169,4590,4,11,30,7,459,2,73,80,28,11,30,7,1536,2,2037,2,26,579,345,1665,4,11,185,1665,153,78,10992,17119,379,17120,17121,17122,5909,81,303,4,230,500,7,730,2,11,236,2,134,731,935,2,11,207,2138,4,4939,2912,638,2647,4,12,230,892,152,4,90,103,138,4,150,245,2,11,208,2,4940,2,11,560,221,4,31,107,131,4,31,107,210,243,105,166,4,638,61,2648,17,171,28,11,1949,497,422,10,41,153 1,1,1,1,1,1,1,1,22,1,1,14,14,14,1,1,1,1,1,1,1,1,1,1,1,1,1,1,1,1,1,1,1,1,1,1,1,1,1,1,1,1,1,1,1,1,1,1,1,1,1,1,1,1,1,1,1,1,1,1,1,1,1,1,1,1,1,1,1,1,1,1,1,1,1,1,1,1,1,1,1,1,1,1,1,1,1,1,1,1,1,1,1,1,1,1,1,1,1,1,1,1,1,1,1,1,1,1,1,1,1,1,1,1,1,1,1,1,1,1,1,1,1,1,1,1,1,1,1,1,1,1,1,1,1,1,1,1,1,1,1,1,1,1,1,1,1,1,1,1,1,1,1,1,1,1,1,1,1,1,1,1,1,1,1,1,1,1,1,1,1,1,5,1,1,1,1,1,1,1,1,1,1,1,1,1,1,1,1,1,1,1,1,1,1,1,1,1,1,1,1,1,1,1,1,1,1,1,1,1,1,1,1,1,1,1,1,1,1,1,1,1,1,1,1,1,1,1,1,1,1,1,1,1,1,1,1,1,1,1,1,1,1,1
108,4033,3803,4,1079,26,202,2301,479,4,3019,33,388,4,5910,4941,73,4,180,4591,4,180,766,41,4,47,19,58,7,171,41,10,52,2192,19,58,7,171,4,180,72,41,4,31,1736,2913,4,1512,17,117,58,329,171,198,4,1512,17,517,58,329,171,1221,4,136,2139,1794,141,31,1386,262,5911,2649,54,50,45,85,38,5379,210,5,2371,13,6,210,5,390,108,13,6,104,720,4,574,6361,2,10993,2,106 1,1,1,1,1,1,1,1,1,1,1,1,1,1,1,1,1,1,1,1,1,1,1,1,1,1,1,1,1,1,1,1,1,1,1,1,1,1,1,1,1,1,1,1,1,1,1,1,1,1,1,1,1,1,1,1,1,1,1,1,1,1,1,1,1,1,1,1,1,1,1,1,1,1,1,1,1,1,1,1,1,1,1,1,1,1,1,1,1,1,1,1,1,1,1,1,1,1
