67,53,4,17274,304,317,397,5716,202,121,431,17,110,2118,30,7,63,361,70,21,2118,13,256,17,177,109 1,1,1,1,1,1,1,1,1,1,1,1,1,1,1,1,1,1,1,1,1,1,1,1,1,1
6,840,7,38,274,462,110,20,2110,12,1629,200,17275,668 1,1,1,1,1,1,1,1,1,1,1,1,1,1
840,153,72,369,9,1910,735,8,11,884 1,1,4,4,4,4,4,4,1,1
6376,412,20,230,99,130 1,1,1,1,1,1
283,21,118,241,97,153,200,15,130,173 15,1,1,12,1,1,1,1,1,1
31,812,89 1,1,1
175,153,256,70,39,2118,200,15,130,173 1,1,1,1,1,1,1,1,1,1
16,21,87,10,45,3145,256,136,195,126,523 1,1,1,1,1,1,1,1,1,1,1
16,746,256,940,12,1489,698,2,118,136,16,265,908,6,7299 1,1,1,1,1,1,1,1,1,1,1,1,1,1,1
11,17276 1,1
11,30,7,1270 1,1,1,1
11,3147,884 1,1,1
78,174 1,1
2550,11091,1034,5,1471,10,154,17277,17,1017,1223,7,1489,3217,1270 1,1,1,1,1,1,1,1,1,1,1,1,1,1,1
337,2713,1441,114,589,794,200,668,9,1433,422,10,256,8 1,1,1,1,1,1,1,1,1,1,1,1,1,1
16,6276,5656,136,17278,9,1567,820,8,5,39,337,27,37,84 1,1,1,1,1,1,1,1,1,1,1,1,1,1,1
16,39,3310,200,610,130,173 1,1,1,1,1,1,1
132,111,17279,9,1482,8,5,4484,17280,9,1683,8,68,14,19,279,366,2680,5,987 1,1,1,1,1,1,1,1,1,1,1,1,1,1,1,1,1,1,1,1
267,685,6257,721,194,10,392,124,16,668 1,1,1,1,1,1,1,1,1,1
267,668,279,8685,5,349,4211,15,405 1,1,1,1,1,1,1,1,1
629,16,494,469,28,214,28,163,10,1631,38,114,13,24,1683 1,1,1,1,1,1,1,1,1,1,1,1,1,1,1
31,3310,132,2,267,1491,219 1,1,1,1,1,1,1
83,12,345,5,1968,6377,279,1359,1034,895,5230,11092,1684,118,4,17281,165,1171,541,154,166,4,840,105,107,137,596,73,100,3917,142,3799,5369,647,202,205,61,396,2,61,2123,2,12,11,195,350,212,90,234,402,2,3738 1,1,1,1,1,1,1,1,1,1,1,1,1,1,1,1,1,1,1,1,1,1,1,1,1,1,1,5,5,5,1,1,1,1,1,1,1,1,1,1,1,1,1,1,1,1,1,1,1,1,1,1
1750,90 1,1
2278,44 1,1
1011,44,134,11,236,48,152,57,90,724,150,245 1,1,1,1,1,1,1,1,1,1,1,1
276,5,282,44 1,1,1,1
11,208,2,1096,2,26,982,890,6173,683,403,12,279,130,28,640,812,538,329,268 1,1,1,1,1,1,1,1,1,1,1,1,1,1,1,1,1,1,1,1
224,825,43,17282,2,3978,184,19,2553,1775,2,3275 1,1,1,1,1,1,1,1,1,1,1,1
