67,53,4,17529,41,4,950,122,36,55,255,227,1204,227,241,123,4492,55,36,1921,17530,1359,64,11091,165,153,49,35,4,716,11,138,1466,19,950 1,1,1,1,1,1,1,1,1,1,24,1,5,1,9,1,1,1,1,1,1,1,1,1,1,1,1,1,1,1,1,1,1,1,1
16,113,54,1469,7,2281,48,33,579,10,59,313,1190,43,4492,5,17531,5,1596,43,3954,5240,10,1004,9,3831,671,8 1,1,1,1,1,1,1,1,1,1,1,1,1,1,1,1,1,1,1,1,1,1,1,1,1,1,1,1
11,387,3548,10,513 1,1,1,1,1
153,49,55,4,206,11,387,48,33,2,565,2531,26,287,7,565 1,1,1,1,15,1,1,1,1,1,1,1,1,1,1,1
6328,408,99,86,10,1788,1170,115,44,964,51,15,378,2339,4279,7,338,13,11182 2,2,2,2,2,2,2,2,2,2,2,2,2,2,2,2,2,2,2
21,31,2250,6335,12,3183,1658,32,390,43,3238,5240,153,49,117,17532,133,79,3505,500,27,164,153,49,213,283,99,17533,3495,5042,957,1214,593,1796,9,8698,8,153,49,94,1270,11183,5120,9,132,8,187,13,1034,153,49,289,656,385,16,746,8571,7,385,2,27,84,21,65,394,43,24,2688,327,13,3024 1,1,1,1,1,1,1,1,1,1,1,1,1,1,1,1,24,24,8,1,1,1,1,1,1,12,1,1,1,1,1,1,1,1,1,1,1,1,1,1,1,1,1,1,1,1,1,1,1,1,1,1,1,1,1,1,1,1,1,1,1,1,1,1,1,1,1,1,1,1,1
197,163,1344,171,204,30,888,544,234,4,11,827,26,728,153 1,1,1,1,1,1,1,1,1,1,1,1,1,1,1
2078,4,111,288,666,4,111,288,365,4,11,301,2,392,2,33,2,320,3145,2,3039,2,1420,1341,4,11,845,2,1174,2,2579,33 1,1,1,1,1,1,1,1,1,1,1,1,1,1,1,1,1,1,1,1,1,1,1,1,1,1,1,1,1,1,1,1
4843,4,11,1107,2,709,2,634,1122 1,1,1,1,1,1,1,1,1
11,823,2,693 1,1,1,1
17534,4,11,1554,2,1852,2,2446,26,1489,1086 1,1,1,1,1,1,1,1,1,1,1
17535,4,11,1844,2,2920 1,1,1,1,1,1
175,4,11,653,302,2,275,2,644,2,440,524 1,1,1,1,1,1,1,1,1,1,1,1
105,107,133,10659,9,3020,8,321,1811,17536,234,3761 1,1,63,63,1,1,1,1,1,1,1,1
2278,645,134,4,351 1,1,1,1,1
663,31,1007 1,1,1
11,218,207,3120,79,4,11,817,152,4,90,10,1030,5,478,138,4,31,1007 1,1,1,1,1,1,1,1,1,1,1,1,1,1,1,1,1,1,1
11,208,221,4,159 1,1,1,1,1
11,1131,2,236 1,1,1,1
250 1
846,4,696,5599,1007,2,10331,2,11,236,131,4,295,1543 1,1,1,1,1,1,1,1,1,1,1,1,1,1
11,88 1,1
917,137,203,310,4,995,44,319,5,108,4,716,36,1151,1658,206,36,453,538,28,726,999,10,111,3238,5240,2321,1422,3326,35,34,10,1658,283,36,442,2013,241,36,32,140,11184,5240,11185,462,2110,13,29,12,17537,5,2218,211 1,1,1,1,1,1,1,1,1,1,1,1,1,1,1,15,1,1,1,1,1,1,1,1,1,1,26,24,10,1,1,1,1,12,1,1,1,9,1,1,1,1,1,1,1,1,1,1,1,1,1,1,1
574,2982,8722 1,1,1
