67,53,4,17815,543,7355,3148,226,431,17,110,4,48,33,732,30,4,1679,323,373,13,135,2,283,2,144,2,11265,1561,2017,76,20,2031,3006,535,377,7,6,1994,10,298,63,13,116,1248,7,56,1233,33,5,48,33,17,6,82,213,3582 1,1,1,1,1,1,1,1,1,1,1,1,1,1,1,1,1,1,1,1,1,11,6,20,1,28,1,1,1,1,1,1,1,1,1,1,1,1,1,1,1,1,1,1,1,1,1,1,1,1,1,1,1,1,1,1,1
136,24,602,2,16,591,3443,7,161,752,80,2,6418,298,12,17816,272,10,656,757 1,1,3,1,1,1,3,3,3,3,3,3,3,3,3,3,1,1,3,3
16,268,591,197,1779,5,443,707,177,3340,80,13,15,7227,266,76,20,394,13,11266,261 1,1,1,2,2,2,2,2,2,2,2,2,2,2,2,1,1,3,3,9,9
16,39,1635,1766,585,7367,179,16,1220,10,2129,387,449,5,399,76,21,132,584,10,126,27,416,1172,68,1548,41,346 1,1,1,1,1,1,1,1,1,1,1,1,1,1,1,1,1,1,1,1,1,1,1,1,1,1,1,1
16,268,591,453,443,12,4496,76,290,12,261,4603,7,186,298,261,5,20,261,13,15,4752,112,1170,713,2472,261 1,1,1,2,2,2,2,2,2,2,2,2,2,2,2,3,3,3,3,3,3,3,3,3,3,3,3
16,148,464,1635,1766,136,24,261,12,4496,5,16,20,48,33,777,585,200,15,130,173,179,16,54,3522,48,33,5,56,1233,33,37,20,1052,10,24,101,48,33,12,6,82 1,1,1,1,1,1,1,1,1,1,1,1,1,1,1,1,1,1,1,1,1,1,1,1,1,1,1,1,1,1,1,1,1,1,1,1,1,1,1,1,1,1
6,33,20,395,387,5,7076 1,1,1,1,1,1,1
16,96,54,1840,620,387,399,32,61,2,684,16,21,348,65,4036 1,1,1,1,1,1,1,1,1,1,1,1,1,1,1,1
16,91,98,692,2,740,2,280,88,26,411 1,1,1,1,1,1,1,1,1,1,1
16,21,65,2325,13,223,41,2,156,243,5,514 1,1,1,1,1,1,1,1,1,64,1,10
16,14,129,48,33,777 1,1,1,1,1,1
82,41,30,4,144,135,283,206,8753,112,117,1561,2017,6417,9,2207,10,3882,2,1994,10,649,2,1994,10,298,8,119,2844,2565,298,2553,2374,2,119,5046,261,10,298,7366,2,119,2472,261,10,793,298,4496,101,443,4496,4,752,117,930,206 1,1,1,1,28,11,20,5,1,1,1,1,1,1,1,1,1,1,1,1,1,1,1,1,1,1,1,1,3,3,3,1,1,1,1,3,3,3,3,1,1,1,3,3,3,3,3,1,2,2,2,2,2,2,2,5
883,2207,10,2940,2,883,1994,10,649 2,2,2,2,2,2,2,2,2
1570,1994,10,298,32,326 2,2,2,2,2,2
312,42,4142,4603,7,793,298 2,2,2,2,2,2,2
716,119,77,2412,7357,177,86,173,56,2163,2216,1149,119,602,926,806,892,41,4,925,1034,2994,1210,32,454,6898,198,9,198,6898,8,407,22,9,407,22,46,47,35,8,25,34,49,46,9,66,8,3648,155,22,9,155,22,46,47,35,8,25,34,49,46,9,66,8,4218,2,17817,9,17818,2520,8,639,22,9,639,22,601,47,35,8,25,34,2,47,13,1139 1,1,1,1,1,1,1,1,1,1,1,1,1,3,1,1,1,1,1,1,1,1,1,1,1,1,28,1,28,1,1,1,1,1,1,1,1,1,1,1,1,1,1,1,1,1,1,1,1,1,1,1,1,1,1,1,1,1,1,1,1,1,1,1,12,1,1,1,1,1,1,1,1,1,1,1,1,1,1,1,1,1,1,1,1,1
49,601,9,66,8,828,122,22,9,122,22,46,47,35,8,25,34,49,46,9,66,8,1847,3507,9,1518,8,312,22,9,312,22,2696,2931,47,35,8,25,34,49,2696,17819,9,2450,1266,1009,293,8,25,49,46,9,66,8,241,9,911,8,155,22,9,155,22,46,47,35,8,25,314,49,46,9,66,8,604,1455,3186,22,9,274,22,46,47,949,8,25,64,49,46,9,66,8,775,9,1145,8,123,22,9,123,22,46,47,35,8,25,34,49,46,9,66,8,3133,155,22,9,155,22,46,655,47,35,8,25,34,49,46,9,66,8,514,9,1738,8,488,22,9,488,22,46,47,35,8,25,34,49,46,9,66,8,6419,9,6426,1089,8,25,64,49,2696,8766,11267,9,17820,11267,8,55,1359,1210,64,83,10,139,1051,1526,36,1108,4,256,238,85,239,336,36,1108,4,368,1086,238,85,239,6425,36,1108,4,1844,238,85,239,675,36,1108,4,1844,238,85,239,4470,36,1108,4,644,238,85,239,149,30,4,651,292,206,204,30,4,249,13,547,12,7358,2,7359 1,1,1,1,1,1,1,1,1,1,1,1,1,1,1,1,1,1,1,1,1,1,18,18,1,1,1,1,1,1,1,1,1,1,1,1,1,1,1,1,1,1,1,1,1,1,1,1,1,1,1,1,1,1,4,1,1,1,1,1,1,1,1,1,1,1,1,1,1,1,1,1,1,1,29,18,1,1,1,1,1,1,1,1,1,1,1,1,1,1,1,1,8,1,1,1,1,1,1,1,1,1,1,1,1,1,1,1,1,1,1,1,1,1,1,1,1,1,1,1,1,1,1,1,1,1,1,1,1,1,10,1,1,1,1,1,1,1,1,1,1,1,1,1,1,1,1,1,1,1,8,1,1,1,1,1,1,1,1,1,1,1,1,1,1,1,1,1,1,1,1,1,1,1,1,1,1,1,1,1,1,1,1,1,1,1,1,1,1,1,11,1,1,1,1,1,1,1,9,1,1,1,1,1,1,1,1,1,1,1,1,1,1,1,1,1,1,1,1,5,1,1,1,1,1,1,1,1,1,1
936 1
1387,1492,8754,112,182,860 6,5,5,6,6,6
1143,463 1,1
85,7,191,4,69,12,393,175,300,1987,12,259,105,107,4,1608,4,1180,1996 1,1,1,1,1,1,1,1,1,1,1,1,1,1,1,1,1,1,1
169,4,610,1084,42,670,1579,4,11,711,2,753,26,88 1,1,1,1,1,1,1,1,1,1,1,1,1,1
196,609,137,97,207 1,1,1,1,1
196,917,137 1,1,1
1610,4,44,320,309,2,159,5,414,2,13,11,968,26,236,901 1,1,1,1,1,1,1,1,1,1,1,1,1,1,1,1
1472,4,56,760,2435,1578,5,2265 1,1,1,1,1,1,1,1
150,169,5,245,2,44,276,5,282,2,13,11,1096,26,982 1,1,1,1,1,1,1,1,1,1,1,1,1,1,1
74,151,11,208,2,2151,26,506 1,1,1,1,1,1,1,1
1609,4,90,10,478,625,1682,4,196,218,137,13,44,1647,2,11,207,2,530,3579,648,1881,4,1184,2,855,2157,4,11,284,2,855 1,1,1,1,1,1,1,1,1,1,1,1,1,1,1,1,1,1,1,1,1,1,1,1,1,1,1,1,1,1,1,1
1681,4,11,195,350 1,1,1,1,1
1547,4,17821,2524,4,15,81,1178,28,983,1098,2,966,2930,995,203 3,3,3,1,1,1,1,1,1,1,1,1,1,1,1,1
167,4,804,27,17822,2,298,2,2837,2,11,195,7249,837,83 1,1,1,1,1,1,1,1,1,1,1,1,1,1,1
11,83,1188,10,186,964,263 1,1,1,1,1,1,1
1605,93,141,4,1677,53 1,1,1,1,1,1
