67,53,4,17968,3547,2,4497,17969,17970,6227,6429,2,106 1,1,1,1,1,1,1,1,1,1,1,1,1
8787,2697,121,2,304,317,1312,11315,1278,2,3687,10788,8666,11316,2,7371,17971,853,6227,2,50,39,6,1070,7,111,38,29,12,6,543,226,27,6,8787,2697,121 1,1,1,1,1,1,1,1,1,1,1,1,1,1,1,1,1,1,1,1,1,1,1,1,1,1,1,1,1,1,1,1,1,1,1,1,1
160,50,99,739,599,3547,2,18,591,15,6331,188,128,734,171,2,304,8052,10,6,56,625,3401,128,2,777,75,1311,535,10,6,4346,1907,1741,7,6,56,1777,2,5,1920,2267,731,535,10,6,795,3401,1741,7,6,75,188,128 1,1,1,1,1,1,1,1,1,1,3,3,3,3,3,1,1,1,1,1,1,1,1,1,1,1,1,1,1,1,1,1,1,1,1,1,1,1,1,1,1,1,1,1,1,1,1,1,1,1,1,1,1,1
18,562,6,171,353,61,5,39,15,233,1000,1218 1,1,1,1,1,1,1,1,1,1,1,1
129,2,18,14,172,125,324,2,51,14,450,199,353,2641,5,15,2190,4592 1,1,1,1,1,1,1,1,1,1,1,1,1,1,1,1,1,1
306,2,23,183,113,199,458,300,186,10,6,171 1,1,1,1,1,1,1,1,1,1,1,1
18,21,125,2154,1445,1025,33,2,51,92,21,253,160,23,271 1,1,1,1,1,1,1,1,1,1,1,1,1,1,1
129,41,4,189,198,407,22,95 1,1,1,1,11,1,1,1
190,11317 1,1
220,2585,1283,22,355 1,20,1,1,1
2638 1
281,828,155,22,355 1,1,1,1,1
95 1
380,3330,122,1918,355 1,1,1,1,1
95 1
501,4849,798,22,95 1,1,1,1,1
676,814,235,22,355 1,9,1,1,1
1191 1
869,1643,122,22,355 1,12,1,1,1
95 1
1043,828,155,22,355 1,1,1,1,1
95 1
1066,907,2,2175,1326,2,1801,2,1969 1,1,1,1,1,1,1,1,1
3009,41,1108,4,189,2699 1,1,1,1,1,1
190,1051,1526,2,256 1,1,1,1,1
220,7381,2,8244 1,1,1,1
19,105,107,2,138,169,505,2,73,100,17972,2,5,142,7,10884,12,202,2,18,14,61,205,2,12,11,771,350 1,1,1,1,1,1,1,1,1,1,1,1,1,1,1,1,1,1,1,1,1,1,1,1,1,1,1,1
1081,628,100,14,289,648,7,1563 1,1,1,1,1,1,1,1
218,57,196,2,11,207 1,1,1,1,1,1
6,48,14,90,10,478,5,1030,2,15,2700,5744,4290,2,150,169,5,245 1,1,1,1,1,1,1,1,1,1,1,1,1,1,1,1,1,1
11,185,208,2,560,2,26,506 1,1,1,1,1,1,1,1
221,4,159,2,414,2,1695,2,11,236,2,207,2,1131 1,1,1,1,1,1,1,1,1,1,1,1,1,1
131,4,4633,88 1,1,1,1
85,7,141,53,17973,2,673,1997,2,358,1708,2,2826,763,2,2927,763,2,493,398,1853,2,1408,2333,2,957,2135,2,5,593,7878,12,1212,2,6,29,14,15,7231,439,166,332,602,2,172,61 1,1,1,1,1,1,1,1,1,1,1,1,1,1,1,1,1,1,1,1,1,1,1,1,1,1,1,1,1,1,1,1,1,1,1,1,1,1,1,1,3,3,3,3,1,1
18,113,205,10,52,143,1019,1874,89,2,1198,50,40,726,6,104,41,1226 1,1,1,1,1,1,1,1,1,1,1,1,1,1,1,1,1,1
32,2298,32,23,101,244,2,685,40,83,10,198,505,22,95,2,673,122,1918,95,2,260,155,22,355 1,1,1,1,1,1,1,1,1,1,1,11,1,1,1,1,1,1,1,1,1,1,1,1,1
1010,2,604,2292,235,22,355 1,1,9,9,1,1,1
95,2,5,1643,122,22,355 1,1,1,12,1,1,1
95 1
50,40,1405,23,260,19,68,1275,1888,10,45,23,1431,17974,647,10,253,23,233,7,183,32,61,32,23,88 1,1,1,1,1,1,1,1,1,1,1,1,1,1,1,1,1,1,1,1,1,1,1,1,1,1
102,40,794,3427,10,3504,141,32,61 1,1,1,1,1,1,1,1,1
50,40,111,23,467,12,55,109,1319,84 1,1,1,1,1,1,1,1,1,1
383,199,777,10,782,291,13,98,743 1,1,1,1,1,1,1,1,1
17975,607,2,574,4499,4219,2,106 1,1,1,1,1,1,1,1
847,17976,3644 1,1,1
