67,53,4,18033,304,317,397,8800,41,226,431,17,110,384,840,153,127,19,18034,34 1,1,1,1,1,1,1,1,1,1,1,1,1,1,1,1,13,1,4,1
252,31,562,2865 1,1,1,1
172,61,72,369,104,27,11335,226,17,144 1,1,8,3,1,1,1,1,1,4
19,529,2224,248,2,624,874,5,150,123,18035,5,18036 1,11,1,1,1,1,1,1,12,1,1,1,1
99,18037,2951,71,11336,31,19,1051,272,10,256 1,7,7,1,1,1,1,1,1,1,1
252,31,562,2865 1,1,1,1
5252,78,8801 1,1,1
87,129,346,17,132,5,973,13,11335,17,157,1226,1375,103,473,33 1,1,1,1,1,1,1,1,1,1,1,1,1,1,1,1
231,43,3216 1,1,1
615,458,136,5366,1037,19,75 1,1,1,1,1,1,1
40,384,13,1374 1,1,1,1
473,33,615,253,136,264,13,105,345 1,1,1,1,1,1,1,1,1
831,19,1886,425,5,562,61 38,1,7,1,1,1,1
99,1419,2594,2322,5149,2,957,2099,2,593,18038,240,161,10,118,3858,51,70,31,2008,27,38,84 1,1,1,1,1,1,1,1,1,1,1,1,1,1,1,1,1,1,1,1,1,1,1
21,460,241,5,1254,51,396,18039,5,784,33 1,1,8,1,68,1,1,1,1,1,1
87,1886,17,132 1,7,1,1
188,128,80,119,602,112,220,19,18040 13,13,13,1,1,1,1,1,1
12,11337,582,99,109,17,495,9,11,83,71,326,8,471,305,27,101,1000 1,1,1,1,1,1,1,1,1,1,1,1,1,1,1,1,1,1
21,39,177,408,145,136,171,37,45,65,69 1,1,1,1,1,1,1,1,1,1,1
70,622,118,1743,32,454 1,1,1,11,1,1
40,460,38 1,1,1
197,52,422,10,1402,3099,26,1039,340,862,4,495,4,906,1042 1,1,1,1,1,1,1,1,1,1,1,1,1,1,1
40,460,1743,182,34 68,68,11,68,68
40,96,583,13,135 1,1,1,1,11
887,138,377,172,61 1,1,1,1,1
653,219,11,299 1,1,1,1
829,18041,160,171 1,1,1,1
19,260,425,34 1,1,1,1
87,17,132 1,1,1
785,148,246,2641,280,5,1354,33,13,387,160,118,1000 1,1,1,1,1,1,1,1,1,1,1,1,1
1767,1489,419 1,1,1
11,83,12,1711 1,1,1,1
1767,839,103 1,1,1
111,423,862,4,340,785 1,1,1,1,1,1
40,147,6995,2962,5,305,3588,569 1,1,1,1,1,1,1,1
19,243 1,4
139,198,139,368,459,366,139,18042,18043,1451,139,308,41,529,157,1214,168,438,550,624,168,549,150,157,123,969,550,2,123,969,549,971,235,22,25,55,293,322,11338,35,42,1975,34,1974,1293,34,1746,1651,22,1168,555,94,1572,1098,165,48,33,255,667,25,34,198,505,22,25,34,673,790,123,1918,25,34,6432,5,8802,18044,9,18045,18046,8,6186,1974,35,165,64,1886,425,25,34,2662,227,22,25,555,289,77,165,260,122,22,25,34,783,155,22,25,34,1743,182,22,25,34,157,2663,5725,8803,8804,49,235,11339,1112,178,1008,1957,6800,15,58,49,639,201,35,86,1112,82,41,30,32,288,56,2163,2216,2580,119,2690,18047,173,85,7,191,32,288,2,382,174,105,107,137,1213,73,100,2722,410,169,610,202,205,61,396,2,61,2123,2,11,195,350 1,13,1,1,1,1,1,1,1,1,1,1,1,11,3,1,1,1,1,1,1,1,12,3,1,1,1,1,1,1,1,1,1,1,1,1,1,1,1,1,1,1,1,1,1,1,9,1,1,1,1,1,1,1,1,1,1,7,1,1,1,13,1,1,1,1,1,1,1,1,1,1,1,1,1,1,1,1,1,1,1,1,1,1,1,7,1,1,1,1,1,1,1,1,1,1,1,1,1,1,1,1,1,1,1,1,1,11,1,1,1,1,1,1,1,1,1,1,1,1,1,1,1,1,1,1,1,1,1,1,1,1,1,1,1,1,1,1,1,1,1,1,1,1,1,1,1,1,1,1,1,1,1,1,1,1,1,1,1,1,1,1,1,1,1,1,1,1,1,1,1,1,1,1,1
48,787,612,967,7947 1,1,1,1,1
724,456,354,276,2,282,97,1060 1,1,1,1,1,1,1,1
131,11,753,2,711 1,1,1,1,1
18048,612 1,1
18049,229,6125,867,352,15,81,983,1098,2,966,2930,995,203 1,1,1,1,1,1,1,1,1,1,1,1,1,1
210,5,108,32,288,683,384,12,492,130,224,825,43,4735,5443,228,19,2553,1203,2,18050 1,1,1,1,1,1,1,1,1,1,1,1,1,1,1,1,1,1,1,1,1
