67,53,4,11350,197,5013,2,1934,4851,5750,2,106 1,1,1,1,1,1,1,1,1,1,1,1
11351,4501,5748,121,5530,18098,62,6434,2,1153,6435,589,4,4502,3262,553,49,8807,853,4851,4,50,39,6,1070,7,111,178,7,767,226,29,2,599,3262,2,12,826,603,226,17,476,17,411,2,127,2,5,166,332,188,128,734,171 1,1,1,1,1,1,1,1,1,1,1,1,1,1,1,1,1,1,1,1,1,1,1,1,1,1,1,1,1,1,1,1,1,1,1,1,1,1,1,1,1,1,1,1,1,8,1,1,3,3,3,3,3,3
32,356,725,2,18,21,65,642,7,280,1806,348,27,405 1,1,1,1,1,1,1,1,1,1,1,1,1,1
18,21,65,47,2693,17,38,2,306,396,411,18099,18,47,6,2693 1,1,1,1,1,1,1,1,1,1,1,1,1,1,1,1
18,21,31,65,47,38,160,6,444,279,225 1,1,1,1,1,1,1,1,1,1,1
50,1385,37,23,280,1806,57,1017,621,10,829,2327,18100 1,1,1,1,1,1,1,1,1,1,1,1,1
50,45,954,23,10,637,15,7306,468,6,761,5,270,38,240,1512,280,1806,12,6,761 1,1,1,1,1,1,1,1,1,1,1,1,1,1,1,1,1,1,1,1,1
12,6,2897,2,23,167,115,385,2090,27,15,169,7,227,140,462 1,1,1,1,1,1,1,1,1,1,1,1,1,1,1,1
74,14,1281,569,866,1231,861,5,3555,475,43,167,76,14,888,71,326,564 1,1,1,1,1,1,1,1,1,1,1,1,1,1,1,1,1,1
102,40,87,23,19,4789,123,22,64,32,61,32,545,1236,22,64 1,1,1,1,1,16,1,1,1,1,1,1,9,1,1,1
18,40,111,291,12,476,12,542,130,1319,84 1,1,1,1,1,1,1,1,1,1,1
467,2,1012,356,17,519,38,29,10,826,603,226 1,1,1,1,1,1,1,1,1,1,1,1
13,662,607 1,1,1
1028,2,7103,1588,6436,2,106 1,1,1,1,1,1,1
841,4,11352,859,4,18101,852,4,11352,257,2534,51,31,85,43,262,934,257 1,1,1,1,1,1,1,1,1,1,1,1,1,1,1,1,1,1
