67,53,4,18148,543,4227,4228,121,431,17,110,4,48,33,732,30,4,1589,4,2996,318,8816,14,15,1860,1528,509,13,247,206,119,298,261,9,5046,2812,18149,8,12,18150 1,1,1,1,1,1,1,1,1,1,1,1,10,10,1,1,1,1,1,1,1,1,1,1,1,1,1,1,5,18,3,6,6,3,3,3,3,3,3,3
223,175,930,39,343,750,1372 1,1,1,1,1,1,1
160,37,84,2,16,21,39,343,143,48,449,76,14,2199,1190,13,838 1,1,1,1,1,1,1,1,51,51,51,1,1,1,1,1,9
38,486,2,16,39,15,297,177,287,7,48,33,1984,43,299,5,980,37,118,179,324,10,6,18151,136,118,24,8670 1,1,1,1,1,1,1,1,1,1,10,10,1,1,1,1,1,1,1,1,1,1,1,1,1,1,1,1
6,33,20,2179,12,24,192,2,1052,10,24,757,186,10,261 1,1,1,1,1,1,1,1,1,1,1,1,1,1,1
6,33,99,17,665,182,1572,1172,1168,1746,2,643,252,568,2331,3357 1,1,1,1,1,1,1,1,28,15,1,1,1,1,1,1
16,39,980,2,299,2,5,3157,873,397,13,6,33 1,1,1,1,1,1,1,1,1,1,1,1,1
16,20,1575,10,6,222,43,24,149 1,1,1,1,1,1,1,1,1
19,889,2,16,20,33,777 1,1,1,1,1,1,1
321,312,133,3708 1,1,1,1
16,20,394,13,243,5,545 1,1,1,1,29,1,11
167,20,526 1,1,1
279,441,7,1873,151,69 1,1,1,1,1,1
16,14,170,10,464,836,316,409,5,273,1320,145 1,1,1,1,1,1,1,1,1,1,1,1
16,129,91,33,5,199,192,10,24,490 1,1,1,1,1,1,1,1,1,1
16,91,692,2,740,2,580,417,2,292,630,411,2,11,18152,823 1,1,1,1,1,1,1,1,1,1,1,1,1,1,1,1
82,41,30,4,206,32,393,288,706,36,104,43,62,18153,2,93,394,17,77,1452,1316,135,283,1378,41,9,633,8,4,4194,8817,1210,895,3728,722,25,64,112,830,58,2198,1024,25,95,828,425,25,95,1847,3507,182,22,1518,25,64,571,11364,4712,25,95,216,425,25,95,838,1289,22,1168,885,94,462,165,48,33,514,1500,25,95,3067,566,25,95,675,1607,25,549,3766,533,25,95,2493,123,22,25,64,814,715,274,22,25,95,139,4,11,363,366,139,149,30,4,18154,204,30,4,941,2,94,687,2,1387,1047,36,353,12,4161,2,630,463,85,7,191,4,292,209,256,2,292,1378,884,2,382,69,12,393,2444,1987,12,259,105,107,4,2872,4,4965,254,2,360,307,1608,4,312,1996 1,1,1,1,18,1,1,1,1,1,1,1,1,1,1,1,1,1,1,1,1,28,11,1,1,1,1,1,1,1,1,1,1,1,1,1,1,1,1,1,10,1,1,1,1,1,1,1,9,9,28,28,28,28,28,1,1,1,1,1,9,1,1,1,9,1,1,1,1,1,1,1,10,10,12,1,1,1,1,1,1,1,3,1,1,1,1,1,1,1,1,1,1,1,1,22,5,1,1,1,1,1,1,1,1,1,1,1,1,1,1,1,1,1,1,1,1,1,1,18,18,6,6,6,6,1,1,1,1,1,1,1,1,1,1,1,1,1,1,1,1,1,1,1,1,1,1,1,1,1,1,22,22,22,8,6,6,6,1,1,1,1
169,4,610,1859,42,19,670,3092,4,1228,12 1,1,1,1,1,1,1,1,1,1,1
2329,4,639,765 1,1,1,1
1681,4,11,195,350 1,1,1,1,1
1881,4,526,1682,4,218,196,97,207 1,1,1,1,1,1,1,1,1
530,11,1081,628,1358 1,1,1,1,1
1609,4,492,1132,3397,420 1,1,1,1,1,1
382,2,787,103,1472,4,982,13,15,44,276,5,282,2,51,11,1096,26,208 1,1,1,1,1,1,1,1,1,1,1,1,1,1,1,1,1,1,1
11,937 1,1
218,1647,14,3324,103 1,1,1,1,1
1610,4,2546,2,254,2,159,2,897 1,1,1,1,8,1,1,1,1
1579,4,11,88,2,55,979,5,70,137,2,196,609,137,97,207 1,1,1,1,1,1,1,1,1,1,1,1,1,1,1,1
1547,4,18155,5222,4,4595,167,4,804,2,18156 51,51,51,1,1,1,1,1,1,1,1
888,1188,10,186 1,1,1,1
1605,93,141,4,1677,53,686,571,857,727,415,844,813,364,1177,22,7396,2613,1997,2907,8818,951,1256,3538,3062,2121,949,101,809,53,1310,2237,7396,69,69,1152,53,296,330,484,7396,4965,3679,4339,2652,53,70,1049,1072,7396,5173,1708,6691,175,512,4,508,4,90,152 1,1,1,1,1,1,1,1,1,1,1,1,1,1,1,1,1,1,1,1,1,1,1,1,1,1,1,1,1,1,1,1,1,1,1,1,1,1,1,1,1,1,1,1,1,1,1,1,1,1,1,1,1,1,1,1,1,1,1,1
210,5,108,4,318,8816,63,13,15,1562,287,7,48,33,2,1052,10,51,297,177,300,24,766,757 1,1,1,1,1,1,1,1,1,1,1,1,10,10,1,1,1,1,1,1,1,1,1,1
24,167,14,888,2,5,24,101,1873,57,69 1,1,1,1,1,1,1,1,1,1,1
108,4,189,18157,36,87,10,836,316,13,2526,441,7,1873,28,87,243,2,514,2,6986,2,1142 1,1,1,1,1,1,1,1,1,1,1,1,1,1,1,1,29,1,12,1,1,1,1
2252 1
1221,136,2139,17,270,408,145,12,248 1,1,1,1,1,1,1,1,1
190,503,36,1071,491,2,503,141,2,1357,73,5465,2588 1,1,1,1,1,1,1,1,1,1,1,1,1
220,135,36,272,17,874,216,225 1,28,1,1,1,1,9,1
87,164,244,281,706,36,205,27,490 1,1,1,1,1,1,1,1,1
87,164,244,273,108,12,248,140,62,2996 1,1,1,1,1,1,1,1,1,1
11367,867,11368,2,228,742,49,18158,224,825,43,11367,867,11368,2,228,587,166,4,608 1,1,1,1,1,1,1,1,1,1,1,1,1,1,1,1,1,1,1,1
