67,53,4,18276,18277,41,582,11430,149,226,18278,11431,2523,8841,2,4846,8842,6450,2,8843,8844,18279,38,29,14,231,436,12,476,7,6,104,41,153,4,153,4,189,188,128,80,166,332,188,128,734,9,2267,731,8,12,3571 1,1,1,1,1,1,1,1,1,1,1,1,1,1,1,1,1,1,1,1,1,1,1,1,1,1,1,1,1,1,1,1,1,1,1,1,1,1,10,10,10,3,3,3,3,3,3,3,3,3,3,3
190,334,3492,2604 1,1,1,1
220,3725,127 1,8,8
2713,4,16,14,2058,1394 1,1,1,1,1,1
16,21,11,278 1,1,1,1
85,7,191,4,69 1,1,1,1,1
74,14,11,48,33,2,233,7,183,2,256,2,347,88,2,692,26,740 1,1,1,1,1,1,1,1,1,1,1,1,1,1,1,1,1,1
223,6,175,85,7,191,14,69,32,61 1,1,1,1,1,1,1,1,1,1
41,4,16,87,19,216,123,22,680,2,1016,274,22,680,2,255,227,22,680,2,5,514,488,22,1001 1,1,1,1,1,16,1,1,1,1,27,1,1,1,1,9,1,1,1,1,1,29,1,1,1
2454,4,19,107,89,2,6,29,205,61 1,1,1,1,1,1,1,1,1,1
16,14,8845,5,18280 1,1,1,1,1
73,100,6990,12,6,56,313,2,997 1,1,1,1,1,1,1,1,1
142,3380,647 1,1,1
1371,137,169,4165,101,245,14,150,97,208,2,560,2,506,26,2151 1,1,1,1,1,1,1,1,1,1,1,1,1,1,1,1
183,309,57,90,10,1030,5,478 1,1,1,1,1,1,1,1
11,1081,628,3656 1,1,1,1
11,347,88 1,1,1
210,4,189,311,4227,138,397,433,18281,18282,2,166,332,602 1,1,1,1,1,1,1,1,1,1,1,1,1,1
190,5250,127 1,1,8
108,4,189,129,346 1,1,1,1,1
190,383,54,37,241,20,1144,10,24,346,27,24,99,110,17,831 1,1,1,1,12,12,12,12,12,12,1,1,1,1,1,15
453,398,9,76,39,65,8125,8,14,132,10668,16,40,87,6,241,32,61 57,57,57,57,57,57,57,57,1,1,1,1,1,1,1,12,1,1
220,16,14,10,403,186,10,24,108,5662,18283,12,6,168,8846,12,1308 1,1,1,1,1,1,1,1,1,1,1,1,1,1,1,1,1
4110,6451,2,106 1,1,1,1
19,4,18284,28,18285,28,18286,28,18287,28,18288 1,1,1,1,1,1,1,1,1,1,1
