67,53,4,18312,18313,3246,121,8848,145,570,30,81,105,107,5,2301,210,7408,18314,2,4506 1,1,1,1,1,1,1,1,1,1,1,1,1,1,1,1,1,1,1,1,1
11438,3804,2,4506 1,1,1,1
18315,3276,2,4506 1,1,1,1
6101,1588,8849,2,106 1,1,1,1,1
41,8850,1094,1618,2,3253,41,67,1264,4,18316,18317,2,6454,554,4,6,29,14,15,3854,11439,576,521,17,5258,1546 1,1,1,1,1,1,1,1,1,1,1,1,1,1,1,1,1,1,1,1,1,1,1,1,1,1,1
171,14,521,19,1094,1495,2,3253,43,62,1648,11440,2756,18318 1,1,1,1,1,1,1,1,1,1,1,1,1,1
880,278,81,63,361,4,29,1824,176,19,11441,32,1582,7,3339,176,17,15,5258,1546,268,521,17,11442 1,1,1,1,1,1,1,1,1,1,1,1,1,1,1,1,1,1,1,1,1,1,1,1
215,6,82,86,29,21,39,524,13,75,451,1895,33,32,61,32,2087,33 1,1,1,1,1,1,1,1,1,1,1,1,1,1,1,1,1,1
513,287,4566,10,2261,297,1065,136,18,21,39,15,8421,851 1,1,1,1,1,1,1,1,1,1,1,1,1,1
175,126,37,923,156,301,5,392 1,1,1,1,1,1,1,1
29,91,2137 1,1,1
89,2,29,267,37,18,450,21,125,294,250,18319,27,6,75,6409,1907,5,579,908,75,2579 1,1,1,1,1,1,1,1,1,1,1,1,1,1,1,1,1,1,1,1,1,1
27,6,84,7,176,19,11441,29,39,126,7,2118,5,8851 1,1,1,1,1,1,1,1,1,1,1,1,1,1
18,148,18320,1294,2,143,233,7,183,5,116,154,7,23,3837,79,1034 1,1,1,1,1,1,1,1,1,1,1,1,1,1,1,1,1
136,285,13,62,8849,92,20,1791,37,29,494,52,176,43,23,803,211,934,17,273,527,7,23,410,1848,477,5,268,476,13,3095,10,4338,23,171 1,1,1,1,1,1,1,1,1,1,1,1,1,1,1,1,1,1,1,1,1,1,1,1,1,1,1,1,1,1,1,1,1,1,1
29,148,37,18,1014,10,18321,121,5,74,685,394,23,13,1036,5,1034 1,1,1,1,1,1,1,1,1,1,1,1,1,1,1,1,1
2127,29,14,816,10,1706,6,400,7,6,1036,26,6,1034 1,1,1,1,1,1,1,1,1,1,1,1,1,1
129,18,91,98,126,7,1294,1263,2,256,2,233,7,183,2,26,420 1,1,1,1,1,1,1,1,1,1,1,1,1,1,1,1,1
96,91,275,2,507,2,301,2,392,2,5,472 1,1,1,1,1,1,1,1,1,1,1,1
29,113,45,15,30,7,188,128,80 1,1,1,1,10,10,14,14,14
18,14,166,332,68,409,9892 1,1,3,3,3,11,3
29,39,101,594,27,1887,18322,37,148,115,15,2505,793,75,266,5,15,143,56,1104,5,56,625,3401,266 1,1,1,1,1,1,1,1,1,1,1,1,1,1,1,1,1,1,1,1,1,1,1,1,1
18323,29,591,101,594,27,5758,5,15,2233,20,375 1,1,1,1,1,1,1,1,1,8,18,18
29,252,61,585,8038,179,18,20,170,10,5758,13,126,7,48,250,2,56,313,33,2,1246,2,411,2,980,2,703,1364,2,233,7,183,2,565,2,5,7923,7,3767 1,1,1,1,1,1,1,1,1,1,1,1,1,1,10,10,5,18,18,18,18,18,18,18,18,18,18,18,18,18,18,18,18,18,18,18,18,18,18,18
29,252,836,316,17,409,43,2391,809,5,74,57,11,83,231,19,23,964 1,1,1,1,1,11,1,1,1,1,1,1,1,1,1,1,1,1
29,91,98,524,13,48,33,26,56,313,33,160,37,84 1,1,1,1,1,1,1,1,1,1,1,1,1,1
18,21,39,287,7,233,7,183,13,387,306,2,513,738,297,422,10,23,410,166,2140,300,23,101,80 1,1,1,1,1,1,1,1,1,1,1,1,1,1,1,1,1,1,1,1,1,1,1,1,1
408,145,375,8852,115,15,44,305,2176,9,18324,8,2,964,5259,17,338,5,6,1061,674,151,520,7,625,338,643,1672,2341,406,6,2206 1,1,1,1,1,1,1,1,1,1,1,1,1,1,1,1,1,1,1,1,1,1,1,1,1,1,1,1,1,1,1,1
82,41,30,4,185,41,153,156,4,189,127,190,206,2,166,332,409,3176,2,166,332,2233,3176,220,1270,9,11,121,26,1959,8,281,1018,380,191,2034,10926,9,13,226,3150,7,2920,2,6455,5,15,360,359,18325,8,501,209,277,192,33,2,30,7,3467,1594,676,337,82,586,30,4,186,171,156,4,189,166,332,101,594,5,2233,2,11443,190,166,332,539,81,818,621,10,1990,6809,459,220,166,332,6456,5260,281,166,332,303,81,15,149,30,4,74,14,11,149,30,7,3009,1108,10,202,2301 1,1,1,1,1,1,1,1,1,1,10,1,3,1,3,3,11,1,1,1,1,8,1,1,1,1,1,1,1,1,1,1,1,1,1,1,1,1,1,1,1,1,1,1,1,1,1,1,1,1,1,1,1,1,1,1,1,1,1,1,1,1,1,1,1,1,1,1,1,1,1,1,1,1,1,1,1,8,1,1,1,1,1,1,1,1,1,1,1,1,1,1,1,1,1,1,1,1,1,1,1,1,1,1,1,1,1,1,1,1,1,1,1,1,1,1
1114,4,3126,2,206,1114,4,3126,2,871,80,55,1114,4,395,3126,2,72,992,4,2497,447,2208,2,546,364,41,4,2680,122,22,1001 1,1,1,1,3,1,1,1,1,1,1,1,1,1,1,1,1,1,1,1,1,1,1,1,1,1,1,1,1,1,1,1
255,274,22,1001 20,1,1,1
556,123,22,1001 1,1,1,1
4507,1001 1,1
1552,4508,312,22,1001 3,18,1,1,1
1847,123,22,2638 20,1,1,1
1270,1034,9,29,816,10,1706,400,8,198,139,4,1525,91,1139,5,8853,139,204,30,4,232,4,91,541,154,4,91,2136,1230,4,91,7269,1520,9,73,18326,8,4,180,12,99,117,130,305,4,568,114,5,455,1826,766,2,233,7,183,2,5537,1009,179,18,416,27,6,975,7,6,1826,5,668,1563,28,418,10,172,718,10807,2939,4,5550,4199,166,4,3056,2,944,687,85,7,191,4,202,4,69,234,4,129,2,8851,126,45,523,5,29,199,615,458,603,4,111,259,410,4,29,148,15,537,7,1270,306,23,803,211,934,9,62,18327,18328,8,120,21,231,29,17,279,86,113,31,1706,29,45,98,537,7,1270,310,4,6414,29,170,10,5758,13,3508,10619 1,1,1,1,1,1,1,1,1,28,1,1,1,1,1,1,1,1,1,1,1,3,3,3,1,1,1,1,1,1,1,1,1,1,1,1,1,1,1,1,1,1,1,1,1,1,1,1,1,1,1,1,1,1,1,1,1,1,1,1,1,1,1,1,1,1,1,1,1,1,1,1,1,1,1,1,1,1,1,1,1,1,1,1,1,1,1,1,1,1,1,1,1,1,1,1,1,1,1,1,1,1,1,1,1,1,1,1,1,1,1,1,1,1,1,1,1,1,1,1,1,1,1,1,1,1,1,1,1,1,1,1,1,1,1,1,1,1,1,1,1,1,1,1,1,1,1,1,1,1,1,1,1,1,1
2104,15,2734,2571,13,475 1,1,1,1,1,1
126,27,6,84,7,162,151,177,573,2,1185,839,2,5,1185,2368,32,61,32,18329 1,1,1,1,1,1,1,1,1,1,1,1,1,1,1,1,1,1,1,1
29,591,386,8399,154,5,1714,195,4152,5,1393,627,315,1959 1,1,1,1,1,1,1,1,1,1,1,1,1,1
20,597,37,29,79,126,26,621,10,15,1645,1108 1,1,1,1,1,1,1,1,1,1,1,1
11,2154,126 1,1,1
1690,4,69,3802,4,69,5377,4,69,1039,4,1018,1325,619,2,5,657,2,372,2,572,2,5,2046,347,367,4,69,5908,4,30,7,4625,4590,4,69,1665,4,69,212,4,69,339,224,4,133,4,18330,713,4201,321,4,1810,1735,2507,4,776,42,1163,4,2578,866,646,2078,4,763,18331,2321,4,1228,2787,653,4,18332,647,78,4,202,4,61,396,2,61,2123,576,5909,81,303,4,6348,6349,2,1040,500,7,730,2,11,236,2,134,731,935,2,11,207,2138,4,4939,2912,50,2647,4,12,230,892,152,4,90,10,478,138,4,150,245,2,11,208,2,4940,2,11,560,221,4,752,294,250,13,116,250,10,1073,27,6409,1907,75,451,1895,5,579,908,2579,2,159,2,31,1972,2,44,320,309,2,11,1131,26,824,236,8854,4,11,835,250,3569,4,11,817,347,367,4,218,4,196,103,11,207,1311,4,196,103,310,4,1432,1150,4,1673,995,203,131,4,11,88,2,229,131,212,4,11,391,26,284,1633,210,4,243,105,166,638,3854,576,13,15,30,7,206,2,4625,2,127,2,1018,2,1270,5,209,277,192,33,63,17,5258,1546 1,1,1,1,1,1,1,1,1,1,1,1,1,1,1,1,1,1,1,1,1,1,1,1,1,1,1,1,1,1,1,1,1,1,1,1,1,1,1,1,1,1,1,1,1,5,5,5,5,5,1,1,1,1,1,1,1,1,1,1,1,1,1,1,1,1,1,1,1,1,1,1,1,1,1,1,1,1,1,1,1,1,1,1,1,1,1,1,1,1,1,1,1,1,1,1,1,1,1,1,1,1,1,1,1,1,1,1,1,1,1,1,1,1,1,1,1,1,1,1,1,1,1,1,1,1,1,1,1,1,1,1,1,1,1,1,1,1,1,1,1,1,1,1,1,1,1,1,1,1,1,1,1,1,1,1,1,1,1,1,1,1,1,1,1,1,1,1,1,1,1,1,1,1,1,1,1,1,1,1,1,1,1,1,1,1,1,1,1,1,1,1,1,1,1,1,1,1,1,1,1,1,1,1,1,1,1,1,1,1,1,1,1,1,1,1,1,1,1,1,1,1,1,1,3,1,1,1,10,1,1,1,1,1,1,1,1,1,1,1,1,1
29,1162,521,17,171,19,11442,306,532,7,8851,171,20,18333 1,1,1,1,1,1,1,1,1,1,1,1,1,1
29,615,253,2,152,90,2,11,420,2,11,233,7,183 1,1,1,1,1,1,1,1,1,1,1,1,1,1
92,21,343,65,18334,160,23,477,5,1198,116,2138,1186,197,52,68,470 1,1,1,1,1,1,1,1,1,1,1,1,1,1,1,1,1
62,3814,1753,38,10,29 1,1,1,1,1,1
62,3814,96,85,13,29,41,10,47,186,10,171,18335 1,1,1,1,1,1,1,1,1,1,1,1,1
129,2,29,91,98,126,7,101,338 1,1,1,1,1,1,1,1,1
113,45,209,48,18336,76,14,6069,43,1073 1,1,1,1,1,1,1,1,1,1
29,267,37,38,14,31,23,432,101,33,379 1,1,1,1,1,1,1,1,1,1,1
108,4,4033,3803,4,202,479,4,3019,33,388,4,832,4941,73,4,180,4591,4,408,1176,225,766,41,4,2680,2,255,2,556,2,4507,2,1552,2,3311,2,1847,2,1270,1034,2,198,41,10,52,2192,19,58,7,171,4,4507,2,3311,2,198,72,41,4,31,1736,2913,4,40,469,32,7,11444,198,4,40,469,32,7,11444,1221,4,136,2139,6,761,329,171,7409,263,4,376,11445,11438,1588,3804,2,6181,2,2260,2,11446,11447,41,8850,54,4,50,45,85,38,5379,210,5,2371,13,6,210,5,390,108,13,6,104,720,4,224,4,18337,262,3095,2649,54,4,50,45,85,6,288,30,5,105,78,5,755,13,6,502 1,1,1,1,1,1,1,1,1,1,1,1,1,1,1,1,1,1,1,1,1,1,1,1,1,1,1,20,1,1,1,1,1,3,1,1,1,20,1,1,1,1,28,1,1,1,1,1,1,1,1,1,1,1,1,1,28,1,1,1,1,1,1,1,1,1,1,1,1,28,1,1,1,1,1,1,1,1,1,1,1,1,1,1,1,1,1,1,1,1,1,1,1,1,1,1,1,1,1,1,1,1,1,1,1,1,1,1,1,1,1,1,1,1,1,1,1,1,1,1,1,1,1,1,1,1,1,1,1,1,1,1,1,1,1,1,1,1,1,1,1,1,1,1
466,1427,4,224,4,18338 1,1,1,1,1,1
