67,53,4,18415,2884,1428,164,315,481,67,29,4,7417,2,7418,528,4,7419,2185,4,7420,3393,4,697,4206,342,4,18416,18417,248,934,4,2682,4857,84,29,231,18418,880,278,280,33,259,11480,247,363,206,2,93,162,17,495,2,247,135,2,4927,2,144,2,1488,280,33,5,96,1290,495,2,387,160,939 1,1,1,1,1,1,1,1,1,1,1,1,1,1,1,1,1,1,1,1,1,1,1,1,1,1,1,1,1,1,1,1,1,1,1,1,1,1,1,1,1,1,1,1,18,18,18,1,1,1,1,21,1,1,10,1,10,1,12,1,1,1,1,1,1,1,21,1,1,1,1
11,18419 1,1
252,31,1290,495,27,4790,26,10,820 1,1,1,21,1,1,1,1,1
11,18420,33 1,1,1
247,8410,1230,2,170,10,463,89 1,1,1,1,1,1,1,1
1504,206,144,135,4927,2041,7257,91,244,255,227,22,25,34,336,487,5580,64,911,123,5580,314,3734,4598,22,25,64,1280,5264,289,18421,18422,340,404,22,95,139,789,149,331,1669,204,331,463,2,2658,2,232,18423,860,2,18424,13,422,544,1756,11,840,142,302,26,894,2,644,2,275,2,507 1,18,12,10,10,1,1,1,1,4,1,1,1,1,22,1,1,1,8,1,1,1,1,1,1,1,1,1,1,1,1,1,1,1,1,1,1,1,1,1,1,1,1,1,1,1,1,1,1,1,1,1,1,1,1,1,1,1,1,1,1,1,1,1,1,1,1,1
3129,11,728,83,2,266,2,573,4829,11,827,302,2,2369,2,1728,2,3224,2,2393,2,524,1478,2,832,266,2,2231,2630,111,259,603,111,259,4858,11,33,2,301,2,392,2,472,2,1420,2,459,2,2219,7258,111,259,212,11,284,2,2469,352,11,302,7,1833,2,693,2,3512,2,8632,2,11,823,2,2245,1331,11,337,2,926,2,1949,408,105,78,1756,29,14,15,61,396,2,254,2,452,373,2,11,195,350,2,11,1621,449,339,18425,18426,18427,11481,18428,3129,1566,2,1206,57,924,2,1534,5,5019,44,10,718,2,3537,79,57,295,2,11,6097,271,2,1858,44,2688,74,14,11,872,271 1,1,1,1,1,1,1,1,1,1,1,1,1,1,1,1,1,1,1,1,1,1,1,1,1,1,1,1,1,1,1,1,1,1,1,1,1,1,1,1,1,1,1,1,1,1,1,1,1,1,1,1,1,1,1,1,1,1,1,1,1,1,1,1,1,1,1,1,1,1,1,1,1,1,1,1,1,1,1,1,1,1,1,1,1,1,1,1,1,1,9,1,1,1,1,1,1,1,1,1,1,1,1,1,1,15,1,1,1,1,1,1,1,1,1,1,1,1,1,1,1,1,1,1,1,1,1,1,1,1,1,1,1,1,1,1,1,1,1
2615,79,90,2,6334,2877,97,266,2,11,11482,266,2,230,3229,2,4270,1056,2,11483,5,2278,97,2515,26,1443,134,295,500,7,730,2,11,2231,26,250,2,663,44,1002,97,3032 1,1,1,1,1,1,1,1,1,1,1,1,1,1,1,1,1,1,1,1,1,1,1,1,1,1,1,1,1,1,1,1,1,1,1,1,1,1,1,1,1,1
218,137,57,203,103,97,207,2,11,817,2,11,236,2,11,134,731,1358,2630,90,10,478,5,1030,2,11,961,2,420,26,1222,603,150,169,5,245,2,44,276,81,282,2,11,208,2,560,26,506,3973,254,2,159,2,44,320,309,2,414,2,11,8866,236,26,968,1039,11,711,2,753,2,88,2,26,623,417,212,11,284,2,11,266,7,185,310,764,2,613,2,1432,1150,203,2,959,166,2,990,5,947,44,2,634,2,498,2,1057,5,709,44,1665,11,728,26,6334,4342,2,31,2495,2,31,11484,167,333,59,18429,2,11,970,83,2,888,71,186,3280,11480,120,63,1065,2,771,316,7,244,2,495,27,490,5,11,964,83,2,6940,174,2,113,31,163,1337 1,1,1,1,1,1,1,1,1,1,1,1,1,1,1,1,1,1,1,1,1,1,1,1,1,1,1,1,1,1,1,1,1,1,1,1,1,1,1,1,1,1,1,1,1,1,1,1,1,9,1,1,1,1,1,1,1,1,1,1,1,1,1,1,1,1,1,1,1,1,1,1,1,1,1,1,1,1,1,1,1,1,1,1,1,1,1,1,1,1,1,1,1,1,1,1,1,1,1,1,1,1,1,1,1,1,1,1,1,1,1,1,1,1,1,1,1,1,1,1,1,1,1,1,1,1,1,1,1,1,1,1,1,1,1,1,1,1,1,1,1,1,1,21,1,1,1,1,1,1,1,1,1,1,1,1,1,1
41,90,5,10,52,231,43,3228,17,2136,470,5,1665,1785 1,1,1,1,1,1,1,1,1,1,1,1,1,1
876,164,26,10,3228,17,273,1785 1,1,1,1,1,1,1,1
222,262,327,54,41,67,85,2221,259,155,86,333,373,63,13,48,5,280,33 1,1,1,1,1,1,1,1,1,1,1,1,1,1,1,1,1,1,1
513,45,65,209,153,17,194 1,1,1,1,1,1,1
16,21,15,30,7,463,154 1,1,1,1,1,1,1
31,47,98,7,24,41,27,38,84 1,1,1,1,1,1,1,1,1
11,275,2,507,2,392 1,1,1,1,1,1
33,14,3271,2,58 1,1,1,1,1
1099,579 1,1
544,223,191,85,5,69,720,32,288,339,111,820,54,423,799,4,18430,2,1027,2,3585,424,4,1566,134,4,351,295,1543,152,4,787,1205,666,4,456,11,1060,365,4,159,897,1307,559,4,11,2168,352,4,1224,223,131,41,1642,726,222,434,85,7,67,36,326,110,17,1151 1,1,1,1,1,1,1,1,1,1,1,1,1,1,1,1,1,1,1,1,1,1,1,1,1,1,1,1,1,1,1,1,1,1,1,1,1,1,1,1,1,1,1,1,1,1,1,1,1,1,1,1,1,1,1,1,1,1,1,1,1,1,1,1,1
16,21,93,1158,37,14,69,5,93,170,17,101,836,316 1,1,1,1,1,1,1,1,1,1,1,1,1,1
436,2,964,14,888,71,333,36,11,273,101,1232,163,12,6,222,27,38,84 1,1,1,1,1,1,1,1,1,1,1,1,1,1,1,1,1,1,1
842,2,5510,2,5,1304,57,645,2,32,14,3165,994 1,1,1,1,1,1,1,1,1,1,1,1,1
108,48,788,2,2899,285 1,1,1,1,1,1
16,14,41,90,17,683,32,140,2899 1,1,1,1,1,1,1,1,1
614,19,271,219,791,48,33,85,1427,50,45,1121,231,5,107,6,29,5,633,6,413,79,107,2,85,5,755,13,6,413,79,587,7,30,2,5,214,6,176,2,108,7,211,5,683,7,6,29,13,6,413 1,1,1,1,1,1,1,1,1,1,1,1,1,1,1,1,1,1,1,1,1,1,1,1,1,1,1,1,1,1,1,1,1,1,1,1,1,1,1,1,1,1,1,1,1,1,1,1,1,1,1
38,54,21,65,825,224,43,2682,4857,2,228,18431,18432,248,226,1703,587,12,6,222,54,156,4,5220,3108,9,66,8,2682,4857,2,228,175,934,4173,6462,2,228 1,1,1,1,1,1,1,1,1,1,1,1,1,1,1,1,1,1,1,1,1,1,1,1,1,1,1,1,1,1,1,1,1,1,1,1,1,1
