67,53,4,18538,1513,170,54,29,4,3992,2,1857,528,4,11513,53,4,2092,763,2,3055,262,4,62,5082,480,4,62,7430,1130,4,29,2,5,4860,67,421,4,299,259,4,318,3992,14,68,8888,373,13,15,82,30,185,17,135,2,144,2,1439,2,706,2,5,1378 1,1,1,1,1,1,1,1,1,1,1,1,1,1,1,1,1,1,1,1,1,1,1,1,1,1,1,1,1,1,1,1,1,1,1,1,1,1,1,1,1,1,1,1,1,1,1,1,1,1,1,1,1,47,1,3,1,1,1,1,1,1,1
16,93,591,15,279,930,602,12,1537,5995,27,37,84,16,39,63,10,4860,12,461,5,201,68,1827 1,1,1,1,3,3,2,1,1,1,1,1,1,1,1,1,1,1,1,1,1,1,3,8
101,594,290,177,80,12,6,298,5,2130,1998,5,595,80,12,6,649 6,6,2,2,2,2,2,2,2,2,2,2,2,2,2,2,2
16,591,602,19,18539,2,11530,2,201,15,2207,10,6,298,535,5,68,1994,10,6,1777,2874 1,3,2,3,3,3,3,3,3,3,3,1,1,1,1,1,1,1,1,1,1,1
24,2122,434,20,5576 1,1,1,1,1
16,63,10,5764,19,18540,201,299,2,557,10,52,12,461,9,1737,18541,8 1,1,1,1,1,1,1,1,1,1,1,1,1,1,1,1,1,1
16,91,98,48,33,5,27,5764,16,39,11,970,167,83,51,20,557,10,45,286,101,3202,201,68,444,7437,7,2124,2203,10,6471,5945 1,1,1,1,1,1,1,1,1,1,1,1,1,1,1,1,1,1,1,1,1,1,1,1,1,1,1,1,1,1,1,1
24,3202,87,10,2203,5,19,690,151,886,7995,5,1310,7,11533,13,15,1166,7,3986,42 1,1,1,1,1,1,1,1,1,1,1,1,1,1,1,1,1,1,1,1,1
16,20,690,10,4860,854,16,591,101,594,37,707,87,177,80,12,24,3340,930,32,61,32,185,269,7,24,2207,27,92,18542,5,464,1407,7,24,1994 1,1,1,1,1,1,1,1,6,6,1,1,1,1,1,1,1,1,1,1,1,1,1,1,1,1,1,1,1,1,1,1,1,1,1,1
15,1776,1418,5,68,3841,151,465,5,6,29,20,690,10,6,1513,17,273,388 1,1,1,1,1,1,1,1,1,1,1,1,1,1,1,1,1,1,1
677,1069,2348,4,206,119,11534,602,699,1727,12,11535,8882,626,2208,42,2,143,553,2,752,5014,1116,201,1371,1262,2,2946,11536,2,451,1088,2725,1480,967,181,7,759,19,1194,19,8883,135,283,3792,6468,490,5765,14,1329,7431,41,4,514,488,22,34,198,407,22,34,241,404,22,34,216,798,22,34,255,274,22,34,2125,123,22,34,139,4,789,2387,4,318,3992,66,651,611,27,1960,2,5,24,518,27,1306,2,4688,71,101,721 1,1,1,1,4,1,1,2,1,1,1,1,1,1,1,1,1,1,1,1,1,1,1,1,1,1,1,1,1,1,1,1,1,1,1,2,2,2,2,2,2,2,47,11,11,1,1,1,1,1,1,1,1,10,1,1,1,3,1,1,1,4,1,1,1,9,1,1,1,3,1,1,1,1,1,1,1,1,1,1,1,1,1,1,1,1,1,1,1,1,1,1,1,1,1,1,1,1,1,1
16,21,55,992,2,5,35,1114 1,1,1,1,1,1,1,1
16,21,11,363,149,30,7,206,2,1807,101,2640,2,461 1,1,1,1,1,1,1,4,1,1,1,1,1,1
2754,4,29,353,708,182,86,173,2,232,55,1772,112,2224,860 1,1,6,3,3,3,3,3,6,6,6,6,6,6,6
91,8884 1,1
936,11520,4562,2,249,12,11521,13,547 1,1,1,1,1,1,1,1,1
544,4,383,111,2609,286,5,69,12,259,202,4,199,61,2,11,653,83,26,1756,884 1,1,1,1,1,1,1,1,1,1,1,1,1,1,1,1,1,1,1,1,1
603,4,11,495,32,288,410,4,299,32,288,2,11,11537 1,1,1,1,1,1,1,1,1,1,1,1,1,1
310,4,11,7438,1690,4,11,716,2,365,33,2,18543 1,1,1,1,1,1,1,1,1,1,1,1,1
18544,4,11,845,2,3962,2,2373,2,1119 1,1,1,1,1,1,1,1,1,1
1039,4,11,18545,33,212,4,11,18546,266 1,1,1,1,1,1,1,1,1,1
423,4,339,4,1163,4,4019,4374,11538,4,4434,3329,4,1679,534,4,312,618,4,122,2974,4,776,42,2945,202,4,61,205,2,1878,802,12,474,2,958,234,4,1184,2,1135,2,1140,1597,1373,2,530,27,4691,5943,134,4,11,298,2,11,870,2,218,196,612,101,4,150,169,5,245,2,276,5,282,44,2,11,208,334,4,787,612,2,230,698,736,103,2,11,961,221,4,159,2,976,2,2047,2,230,320,309,1341,4,184,1216,1295,201,3841,5,1776,1418,8889,2,11,1644 1,1,1,1,1,1,1,1,1,1,1,1,1,1,1,1,1,1,1,1,1,1,1,1,1,1,1,1,1,1,1,1,1,1,1,1,1,1,1,1,1,1,1,1,1,1,1,1,1,1,1,1,1,1,1,1,1,1,1,1,1,1,1,1,1,1,1,1,1,1,1,1,1,1,1,1,1,1,1,1,1,1,1,1,1,1,1,1,1,1,1,1,1,1,1,1,1,1,1,1,1,1,1,1,1,1,1,1,1,1,1,1
559,4,11,711,2,753,2,51,427,88,612,2,196,5,924,525,137,352,4,764,2,613,612,2,1406,641,5,1646,201,203,498 1,1,1,1,1,1,1,1,1,1,1,1,1,1,1,1,1,1,1,1,1,1,1,1,1,1,1,1,1,1,1
4233,5,5665,1038 1,1,1,1
451,131,1038,5,580,66,1038,762 1,1,1,1,1,1,1,1
498,995,203 1,1,1
1057,196,867,709,203 1,1,1,1,1
212,4,11,497,284,26,266,2,230,212,3410,141,4,5764,11539,18547,953,49,18548,4,18549,145,1641,258,1781,1377 1,1,1,1,1,1,1,1,1,1,1,1,1,1,1,1,1,1,1,1,1,1,1,1,1,1
500,168,429,2862,9,8397,8,325,673,2687,9,10517,8,325,790,2432,9,8024,8,325,1067,1623,1203,9,10518,8,325,1424,2453,4357,9,18550,8,371,2,1889,2984,77,9,10520,8,193,415,2224,77,9,10519,8,193,358,2094,77,9,8398,8,193,483,2846,9,10521,8,193,8399,1997,9,10522,8,193,1113,1102,18551,49,77,9,6244,8,658,1046,2606,9,10523,8,193,5161,18552,49,77,9,496,2764,8,1235,42,5161,3990,49,77,9,11540,8,42,691,412,2,10524,4280,9,10525,8,42,5764,11539,18553,953,49,18554,4,18555,145,1641,258,1781,1377 1,1,1,1,1,1,1,1,1,1,1,1,1,1,1,1,1,1,1,1,1,1,1,1,1,1,1,1,1,1,1,1,1,1,1,1,1,1,1,1,1,1,1,1,1,1,1,1,1,1,1,1,1,1,1,1,1,1,1,1,1,1,1,1,1,1,1,1,1,1,1,1,1,1,1,1,1,1,1,1,1,1,1,1,1,1,1,1,1,1,1,1,1,1,1,1,1,1,1,1,1,1,1,1,1,1,1,1,1,1,1,1,1,1,1,1,1,1,1,1,1,1,1
500,168,1113,1102,7995,77,9,6244,8,658,5161,11533,49,77,9,496,2764,8,1235,42,5161,3986,77,9,11540,8,42,5764,18556,18557,953,49,18558,4,18559,145,1641,258,1781,1377 1,1,1,1,1,1,1,1,1,1,1,1,1,1,1,1,1,1,1,1,1,1,1,1,1,1,1,1,1,1,1,1,1,1,1,1,1,1,1,1
500,168,330,3820,77,9,18560,8,8890,660,18561,9,18562,8,18563,499,3499,9,2438,8,1367,296,11541,59,9,1868,8,42,578,18564,9,1321,8,1153,700,4714,9,18565,8,7218,737,5541,9,18566,8,598,701,3941,77,9,18567,8,42,1315,821,4339,9,18568,8,6811,18569,3085,9,18570,8,1153,1292,328,18571,1088,3391,1484,77,9,18572,8,42,3195,3391,496,94,9,4187,8,42,4204,517,59,9,18573,8,42,5215,94,9,8891,8,42,6055,558,9,18574,8,42,7334,558,9,1732,8,42,588,3391,4334,77,9,2043,8,8890,588,4204,1708,59,9,2044,8,8890,660,4699,44,2878,4,180,1348,4,180,5491,4,11531,804,201,59,1003,2,555,66,12,5557,32,61,32,561,1088,217,2,5955,201,561,1088,217,18575,804,201,59,1003,2,555,66,12,5557,201,2774,561,217,2,2774,561,337,12,2516 1,1,1,1,1,1,1,1,1,1,1,1,1,1,1,1,1,1,1,1,1,1,1,1,1,1,1,1,1,1,1,1,1,1,1,1,1,1,1,1,1,1,1,1,1,1,1,1,1,1,1,1,1,1,1,1,1,1,1,1,1,1,1,1,1,1,1,1,1,1,1,1,1,1,1,1,1,1,1,1,1,1,1,1,1,1,1,1,1,1,1,1,1,1,1,1,1,1,1,1,1,1,1,1,1,1,1,1,1,1,1,1,1,1,1,1,1,1,1,1,1,1,1,1,1,1,1,1,1,1,1,1,1,1,1,1,1,1,1,1,1,1,1,1,1,1,1,1,1,1,1,1,1,1,1,1,1,1,1,1,1,1,1,1,1,1,1,1,1,1,1,1,1,1,1,1,1,1,1
210,4,12,1212,38,14,68,8888,373,13,15,82,30,185,17,135,2,144,2,1439,2,706,2,5,1378,119,15,11542,602,18576,3055,120,63,10,68,1887,201,299,2,557,10,52,12,461,201,68,1827 1,1,1,1,1,1,1,1,1,1,1,1,1,1,1,47,1,3,1,1,1,1,1,1,1,1,1,1,2,1,1,1,1,1,1,1,1,1,1,1,1,1,1,1,1,3,8
594,119,690,10,4860,707,752,3340,80,32,61,32,464,1407,7,1994,5,18577,266,7,2207 1,1,1,1,1,1,1,1,1,1,1,1,1,1,1,1,1,1,1,1,1
11,1083,1015,201,108,10,403,10,443,141,17,11543,1083,19,2992 1,1,1,1,1,1,1,1,1,1,1,1,1,1,1
108,4,666,338,4,119,1827,87,243,5,635,1072,44,444,8703,32,125,497,17,2262,18578,2,40,3175,17,858,7,1072,18579,1405,114,7439,5,3204,635,461,253 1,1,1,1,1,1,8,1,29,1,1,1,1,1,1,1,1,1,1,1,1,1,1,1,1,1,1,1,1,1,1,1,1,1,1,1,1
1438,1142,12,248 1,12,1,1
4275,2612,635,1072,496,312,140,1691,167,19,889,2,201,495,5,12,248,108,17,11543,1083,19,2992,7,38,109,666,1727,4,63,201,461,2,132,703,1776,1418,12,465,9,51,652,1418,8,108,10,4038,1264,5,161,876,74,136,140,148,201,10599,27,624,12,443,141,2,40,147,1737,10,45,490 1,1,1,1,1,1,1,1,1,1,1,1,1,1,1,1,1,1,1,1,1,1,1,1,1,1,1,1,1,1,1,1,1,1,1,1,1,1,1,1,1,1,1,1,1,1,1,1,1,1,1,1,1,1,1,1,1,1,1,1,1,1,1,1,1,1,1,1,1
3841,465,12,443,141,201,125,524,2,666,245,36,804,804,27,63,2,1633,19,101,2252,2,2740,571,5,22,32,163,1439,490,833,7431,4064,1590,5,3634,332,594,144,11544,11545,5,2030,2,27,164,19,832,345,147,1106,2107,36,340,2262,140,148,2,1929,146,84,434,147,2262,2881,2,876,652,71,223,1418,5,1590,3444,783,5,8703,295,744,8286,18580,228,742,18581 1,1,1,1,1,1,1,1,1,1,1,1,1,1,1,1,1,1,1,1,1,1,1,1,1,1,1,1,1,1,1,1,1,1,1,1,1,1,3,1,1,1,1,1,1,1,1,1,1,1,1,1,1,1,1,1,1,1,1,1,1,1,1,1,1,1,1,1,1,1,1,1,1,1,1,1,1,1,1,1,1,1,1,1
