67,53,4,18726,304,317,397,6478,4228,121,431,17,110,1674,107,30,7,63,361,199,1382 1,1,1,1,1,1,1,1,1,1,1,1,1,1,1,1,1,1,1,1,1
142,894 1,1
1079,269,450,8104,5,406 1,1,1,1,1,1
1216,284 1,1
18727,107,43,62,7456,9,223,61,8 1,1,1,1,1,1,1,1,1
153,1103,9,85,8,283,840,503,840,188,128,80,840,516,840,565,840,127,840,2820,840,645,696,1480,840,371,1086,840,4608,840,1174,840,1079,269,840,2195,843,1755,7,212,1717,72,369,9,1910,735,8,3830,7309,840,153,283,593,450,381,596,197,163,297,1142,18728,503,62,339,779,27,6364,121,18729,258,340,188,128,80,119,734,94,930,18730,62,7456,5,62,5772,516,565,523,699,3976,127,2820,11,5653,17,279,86 1,1,1,1,1,8,15,1,1,10,10,10,10,1,1,1,1,21,8,1,1,1,1,1,1,1,1,1,1,1,1,1,1,1,1,1,1,1,1,1,1,4,4,4,4,4,4,1,1,1,1,8,1,1,1,1,1,1,1,1,1,1,1,1,1,1,1,1,1,1,1,10,10,10,3,3,3,3,3,1,1,1,1,1,1,1,1,1,1,21,1,1,1,1,1,1
629,200,2336 1,1,1
794,62,7456,12,1217,2858,120,1159,3298,154 1,1,1,1,1,1,1,1,1,1
645,696,1480,119,2690,112,55,9,12,2674,8,371,1086,4608,311,126 1,1,1,1,1,1,1,1,1,1,1,1,1,1,1,1
341,498,27,1033,3169,36,18731,2,5,1933,2866 1,1,1,1,1,1,1,1,1,1,1
96,54,18732,374,13,83,12,11587 1,1,1,1,1,1,1,1
18733,4062,2667,140,18734,18735,1174,69,264,114,43,62,11588,9,3568,2,237,8,2673,1079,269,199,280,57,1492 1,1,1,1,1,1,1,1,1,1,1,1,1,1,1,1,1,1,1,1,1,1,1,1,1
11,33 1,1
4048,286 1,1
175,153,2195,843,1755,7,212,1717,72,369,9,1910,735,8,3830,7309,308,41,483,1660,2198,407,22,25,34,2953,488,22,25,34,493,7,389,2959,9,11589,8,3359,55,2027,1974,64,7455,2605,1973,577,336,2792,3149,22,25,64,47,13,851,783,122,22,25,34,493,7,389,814,715,227,22,25,34,493,7,389,636,818,636,1793,1254,485,25,549,149,30,204,30,450,308,12,4196 1,1,1,1,1,1,1,1,4,4,4,4,4,4,1,1,1,1,1,1,10,1,1,1,1,1,1,1,1,1,1,1,1,1,1,1,1,1,1,1,1,1,1,1,1,1,3,21,1,1,1,1,1,1,1,1,1,1,1,1,1,1,1,9,9,1,1,1,1,1,1,1,1,1,1,1,12,1,1,1,1,1,1,1,1,1,1,1
16,14,11586,17,6,4495 1,1,1,1,1,1
113,31,232 14,14,14
668,15,492,2314,7,4363,26,8903,27,405 1,1,1,1,1,1,1,1,1,1
16,21,123,2616 1,1,1,1
8095,994,232,166,4,622,232,541,154,166,4,595,308,445,4,595,85,7,191,280,1806 1,1,14,14,14,14,14,1,1,1,1,1,1,1,1,1,1,1,1,1,1
881,644 1,1
11,48,33,2,299,2,368,26,1341,470,105,107,73,100,2768,137,981,5,150,410,169,763,142,4337,202,205,61,396,2,61,2123,2,11,195,350 1,1,1,1,1,1,1,1,1,1,1,1,5,5,5,1,1,1,1,1,1,1,1,1,1,1,1,1,1,1,1,1,1,1,1
212,1216,284,234,1566,2,764,2,613,2,3835,90,97,769,26,1443 1,1,1,1,1,1,1,1,1,1,1,1,1,1,1,1
134,218,2,11,207 1,1,1,1,1
663,2,5535,681,11,850,2,2009,26,1216,1276,901 1,1,1,1,1,1,1,1,1,1,1,1
48,90,10,478,103 1,1,1,1,1
1147,724,1415,27,1915,4392,2,6131 1,1,1,1,1,1,1,1
456,354,276,2,282,97,1060 1,1,1,1,1,1,1
221,2832,2,11,1006 1,1,1,1,1
44,308,320,309 1,1,1,1
846,78,1071,69 1,1,1,1
696,2,437,1007,3057,3057,2,702,44,131,702,44,406 1,1,1,1,1,1,1,1,1,1,1,1,1
137,203 1,1
16,21,4515,477,7,24,2956,19,24,786,3188,3189,1175,2,324,2,18736,967,524 1,1,1,1,1,1,1,1,1,1,1,1,1,1,1,1,1,1,1
137,203,634,203 1,1,1,1
3699,203,210,5,108,177,1079,269 1,1,1,1,1,1,1,1
11265,219 1,1
538,2,605,2,133,388 1,1,1,1,1,1
3830,118,6384 1,1,1
1378 1
142,470 1,1
247,10808 1,1
683,1502,117,130,224,825,43,6479,2,2701,1739,19,7068,4286,2,3350 1,1,1,1,1,1,1,1,1,1,1,1,1,1,1,1
