67,53,4,18923,1862,2,6493,11636,18924,3754,3908,5062,2,106 1,1,1,1,1,1,1,1,1,1,1,1,1,1
11638,1778,121,1361,11639,3292,542,2400,2,4843,18925,853,62,5062,4,1245,1862,403,10,6,632,17,1054,973 1,1,1,1,1,1,1,1,1,1,1,1,1,1,1,1,1,1,1,1,1,1,1,1
160,99,231,2,18,771,20,97,181,7,116,415,5,358,5,17,38,431,20,1159,10,1421,710,395,23,216,5,10854 1,1,1,1,1,1,1,1,1,1,1,1,1,1,1,1,1,1,1,1,1,1,1,1,1,16,1,1
43,172,426,2,23,358,2500,71,2318,10,1568,5,415,71,4459,10,18926,18,902,21,1774,23,216,345,2,32,771,23,73,100,116,699,23,1051,1526 1,1,1,1,1,1,1,1,1,1,1,1,1,1,1,1,1,1,1,1,1,1,16,1,1,1,1,1,1,1,1,1,1,1,1
12,466,2,32,1582,7,23,973,99,1111,2,18,591,68,1704,1158,408,145,468,76,84,18,3442,15,1128,138,169,7,1213,2,1128,73,100,7,18927,2,469,532,18,2853,6,1132,7,6,1704,3337,1691 1,1,1,1,1,1,1,1,1,1,1,1,1,1,1,1,1,1,1,1,1,1,1,1,1,1,1,1,1,1,1,1,1,1,1,1,1,1,1,1,1,1,1,1,1,1,1
23,7479,8736,674,707,15,2449,56,760,893,1166,7,2208,42,13,15,143,988,56,1783,5,6344,7,6,1580,8942,5,2058,792,780 1,1,1,1,1,1,1,1,1,1,1,1,1,1,1,1,1,1,1,1,1,1,1,1,1,1,1,1,1,1
23,18928,1061,674,115,1052,15,781,2767,1061,1558,12,6,792,5,1580,8942,780,97,98,570,7,1920,338 1,1,1,1,1,1,1,1,1,1,1,1,1,1,1,1,1,1,1,1,1,1,1,1
23,99,1146,592,12,1133,3090,115,15,2154,7,56,760,893,1166,143,1031,27,1268,42,13,177,8942,5,792,2935 1,1,1,1,1,1,1,1,1,1,1,1,1,1,1,1,1,1,1,1,1,1,1,1,1,1
12,466,2,27,37,84,115,181,17,11647,1261,5,2223,1922,5,23,695,20,1897,888,71,23,186,263,12,1111,6396,129,2,18,14,497,2179,200,23,3787,10,1431,142,2,5,12,1649,267,37,468,15,93,8943,18,1799,1298,23,349 1,1,1,1,1,1,1,1,1,1,1,1,1,1,1,1,1,1,1,1,1,1,1,1,1,1,1,1,1,1,1,1,1,1,1,1,1,1,1,1,1,1,1,1,1,1,1,1,1,1,1,1,1,1
63,2,18,87,19,15,346,7,3048,3186,22,355 1,1,1,1,1,1,1,1,9,1,1,1
95,2,675,404,22,355 1,1,12,1,1,1
95,2,216,94,22,355 1,1,16,1,1,1
95,2,673,790,122,1918,355 1,1,1,1,1,1,1
1010,2,828,2917,22,355 1,1,1,1,1,1
1010,2,531,2,5466,198,505,22,355 1,1,1,1,11,11,1,1,1
95,2,6024,801,22,355 1,1,1,1,1,1
95,2,1723,1739,122,168,2611,4414 1,1,7,1,1,1,1,1
5,1723,1739,122,168,2611,18929 1,7,1,1,1,1,1
105,78,290,15,815,2,143,1717,439,12,11,195,350 1,1,1,1,1,1,1,1,1,1,1,1,1
73,100,75,313,997,18930,2,138,169,1268,5,1372,150,2,1538,830,5,2141,2,5,142,18931,647,2,76,14,624,647,288,23,142,7,1041,130,173 1,1,1,1,1,1,1,1,1,1,1,1,1,1,1,1,1,1,1,1,1,1,1,1,1,1,1,1,1,1,1,1,1,1,1
6,134,14,351 1,1,1,1
530,14,935 1,1,1
218,57,97,185,207 1,1,1,1,1
48,511,90 1,1,1
101,78,115,44,276,2,1726,1885,282,13,15,159,672,893,208,579,71,6,1650,10,6,669 1,1,1,1,1,1,1,1,1,1,1,1,1,1,1,1,1,1,1,1,1,1
11,185,1569,208,26,506 1,1,1,1,1,1
6,221,14,1717,2,51,382,645,97,181,7,294,1262,26,207 1,1,1,1,1,1,1,1,1,1,1,1,1,1,1
131,290,564,8825,88 1,1,1,1,1
347,137,57,2485,2,8482,143,1336 1,1,1,1,1,1,1,1
1251,115,800,1062,6139,13,27,84,7,185,1231,861,13,7846,32,360,32,665,55,868 1,1,1,1,1,1,1,1,1,1,1,1,1,1,1,1,1,1,1,1
74,14,181,7,15,186,792,768,475,5,2789,1493,561,5,1533,83 1,1,3,3,3,3,3,3,3,1,1,1,1,1,1,1
1188,13,23,99,1251,2,23,138,169,27,84,14,11381 1,1,1,1,1,1,1,1,1,1,1,1,1
319,4,599,1862,511,219,71,15,603,3064,2,306,2,50,248,1621,497,200,23,1433,17,1239,12,718,7,23,2090 1,1,1,1,1,1,1,1,1,1,1,1,1,1,1,1,1,1,1,1,1,1,1,1,1,1,1
50,45,794,23,10,341,23,3048,10,274,22,355 1,1,1,1,1,1,1,9,1,1,1,1
95,5,10,453,68,167,944,10,1771,58,136,172,426 1,1,1,1,1,1,1,1,1,1,1,1,1
50,7,434,45,6307,23,32,10,6,1549,7,265,12,782,13,356,26,2535,3696,2331,494,18,396,98,126,520,7,1239,26,565 1,1,1,1,1,1,1,1,1,1,1,1,1,1,1,1,1,1,1,1,1,1,1,1,1,1,1,1,1,1
18,1434,37,18,197,627,15,6770,4797,12,6,1350 1,1,1,1,1,1,1,1,1,1,1,1
348,93,73,263,115,15,185,217,371,7,2948,9,18,267,18,14,460,10,8828,23,157,346,13,356,8,5,12,1094,2,44,916,433,263,720,17,68,1731,1762,7,6299,5,538,1712,99,1561,682,17,15,398,7,2510,2,1408,7,1180,2,957,1636,2,5,593,8099,18,1434,6,1549,7,87,10,3552,10,15,18932,2248,2,18933,349,471,511,19,23,18934,345 1,1,1,1,1,1,1,1,1,1,1,1,1,1,1,1,1,1,1,1,1,1,1,1,1,1,1,1,1,1,1,1,1,1,1,1,1,1,1,1,1,1,1,1,1,1,1,1,1,1,1,1,1,1,1,1,1,1,1,1,1,1,1,1,1,1,1,1,1,1,1,1,1,1,1,1,1,1,1,1,1,1,1
18,40,214,13,356,5,23,3832,6,2259,388,7,23,143,158,797 1,1,1,1,1,1,1,1,1,1,1,1,1,1,1,1
12,718,7,395,23,72,5,188,80,2,92,1555,240,52,2259,124,270,10,87,23,19,23,1051,1526 1,1,1,1,1,1,1,1,1,1,1,1,1,1,1,1,1,1,1,1,1,1,1,1
27,6,63,84,2,18,113,31,2947,4389,17,4047,938,7,68,2801,5,23,311,4227,138,397,2912,50,10,638,166,10927,6,163,17,1803,7,11203,2619 1,1,1,1,1,1,1,1,1,1,1,1,1,1,1,1,1,1,1,1,1,1,1,1,1,1,1,1,1,1,1,1,1,1,1
175,300,1031,23,2173,346,32,746,288,2,50,45,31,273,2607,23,129,41,1658 1,1,1,1,1,1,1,1,1,1,1,1,1,1,1,1,1,1,1
50,1012,356,246,615,17,1510,291,10,1199,12,23,211 1,1,1,1,1,1,1,1,1,1,1,1,1
1028,767,2,3684,688,6462,2,106 1,1,1,1,1,1,1,1
847,18935,18936,421,4,3978,18937,106 1,1,1,1,1,1,1,1
1865,8938,1154,8939,2,4843,8940,841,4,11648,859,4,18938,852,4,11648 1,1,1,1,1,1,1,1,1,1,1,1,1,1,1,1
