67,53,4,19106,2018,323,646,13,135,2,144,2,206,2,3283,2,337,2,119,835,403,17,384 1,1,1,1,1,1,1,1,10,1,55,1,12,1,1,1,1,1,1,1,1,1,1
70,148,37,18,21,31,65,47,98,41,17,178,130 1,1,1,1,1,1,1,1,1,1,1,1,1
18,56,17,19107,17,279,130,5,2653,316,7,41 1,1,1,1,1,1,1,1,1,1,1,1
70,19108,23,401,45,65,12,6,19109,70,148,839,7,395,786,2,5,6,302,7,23,23,419,2956 1,1,1,1,1,1,1,1,1,1,1,1,1,1,1,1,1,1,1,1,1,1,1,1
246,2462,13,244,5,999,96,1290,5785,2,6499,19110,2002,876,5,2469 1,1,1,1,1,1,1,1,1,1,1,1,1,1,1,1
153,135,144,206,4,5279,13,1544,5,11673,11674 1,10,55,12,1,1,1,1,1,1,1
8829,695,9,8,406,2,343,418,10,324,11675,379 1,1,1,1,1,1,1,1,1,1,1,1
7491,5123,9,981,42,2781,8,2,133,11676 1,1,1,1,1,1,1,1,47,47
469,928,565,2,299,5,3817 1,1,1,1,1,1,1
167,11677,35,713,561,337,12,638,2,1091,2,646,2,6085 1,1,1,1,1,1,1,1,1,1,1,1,1,1
1125,32,1137,51,31,1320,7,338 1,1,1,1,1,1,1,1
695,115,490,626,7,312,42,13,11,7492 1,1,1,1,1,1,1,1,1,1
136,305,74,20,2789,1493,4430,3399 1,1,1,1,1,1,1,1
1125,32,11,181,7,3217,11678,9,51,277,2317,928,277,7491,8,331,7,3283,43,3431,77,2412,292,119,5525,928,3851,1989,337,1270,119,835,41,1723,1365,312,168,549,112,182,58,157,150,1571,117,168,438,6174,2,154,140,1165,11679,124,6498,2,8955,124,11680,2,8956,11681,2,11682,8488,1323,9,3133,8,485,46,3119,47,35,46,9,66,8,25,34,2703,667,46,47,35,46,9,66,8,25,314,165,11683,3311,9,3734,8,819,46,47,35,46,9,66,8,25,64,11684,9,11685,612,1326,8,35,918,2304,3818,112,517,58,6377,1210,55,1359,1210,555,289,77,165,299,2,165,4,11686,7158,1210,55,1359,7489,64,989,487,22,25,64,241,155,22,25,34,6497,9,8953,8,7176,46,47,35,46,9,66,8,25,34,1832,9,198,1182,1620,8,1024,46,3119,47,35,46,9,66,8,25,34,11687,9,11688,8,566,46,47,35,46,9,66,8,25,34,514,9,1738,8,488,22,25,34,2680,9,5280,8,122,22,9,425,46,47,35,8,25,34,255,227,22,9,667,46,47,35,8,25,34,11689,801,22,25,1477,112,35,58,7067,35,42,1293,9,7071,35,42,1293,8,35,1736,975,34,2,1974,10,2002,570,9,1794,8,34,165,2469,157,1365,9,1571,8,182,11690,969,438,8725,10270,7,54,2,70,14,31,47,98,7,23,41 1,1,1,1,1,1,1,1,1,1,1,1,1,1,1,1,1,1,1,1,1,1,1,1,1,1,1,1,1,1,1,1,1,7,7,7,7,7,7,7,7,9,5,7,7,7,7,7,7,7,7,7,7,7,7,7,7,7,7,7,7,7,7,7,7,1,1,1,1,1,1,1,1,1,1,1,1,1,1,1,1,1,1,1,1,1,1,1,1,1,1,1,1,1,1,1,1,1,1,1,1,1,1,1,1,1,1,1,1,1,1,1,1,1,1,1,1,1,1,1,1,1,1,1,1,1,1,1,1,1,1,1,1,1,1,1,1,1,1,1,11,21,21,21,21,4,12,12,12,12,57,1,1,1,1,1,1,1,1,1,1,1,1,1,35,1,1,1,1,1,1,1,1,1,1,1,1,1,1,1,1,1,1,1,1,1,1,1,1,1,1,1,1,1,1,8,1,1,1,1,1,1,1,1,1,1,1,1,1,1,1,1,1,1,1,1,1,21,1,1,1,1,1,1,1,1,1,1,1,1,1,1,1,1,1,1,1,1,1,1,1,1,1,1,1,1,1,1,1,1,1,1,1,1,1,1,1,1,1,1,1,9,7,7,7,7,7,7,7,7,7,1,1,1,1,1,1,1,1,1,1,1,1
78,4,339,224,133,11700,2,321,1854,2,653,4841,965,134,11,937,11,870,724,456,2,1257,2,1730,4928,697,27,4578,152,787,4115,2,11,8628,365,159,3130,1353,559,11,1458,352,4,764 1,1,1,1,5,5,5,1,1,1,1,1,1,1,1,1,1,1,1,1,1,1,1,1,1,1,1,1,1,1,1,1,1,1,1,1,1,1,1,1,1,1,1,1
1185,3823,2,816,10,4018,26,1876,5429,19,59,2,1515,2268,10,2558,634,3468,2570,3824,2,3852,1038,762 1,1,1,1,1,1,1,1,1,1,1,1,1,1,1,1,1,1,1,1,1,1,1,1
302,7,498,44,709 1,1,1,1,1
888,5784,326,258,342,686,571,857,727,5281,1884,8957,2510,9,251,8,1884,977,9,251,8,1495,3772,1817,2380,9,251,8,1312,9,251,8,1985,9,251,8,342,415,844,813,1424,5281,1708,8957,1170,2283,10538,9,251,8,910,3772,1376,1598,5413,9,251,8,650,342,364,952,1398,1395,8957,3085,3772,3546,1651,3031,1773,342,1740,3772,2380,342,1423,1399,1448,952,3772,504,763,1593,1651,342,1419,2322,957,11701,5281,19111,9,251,8,5503,9,251,8,2406,4692,9,251,8,342,8017,5281,312,342,4238,5786,5281,3883,9,251,8,19112,9,251,8,238,35,239,342,7493,5281,3660,342,7493,19113,5281,3660,19114,342,330,660,499,296,3772,19115,9,251,8,10576,3352,9986,342,578,700,737,484,3772,19116,6303,5686,19117,342,701,3772,3682,342,42,4208,42,4209,42,4522,42,4523,3772,19118,1775,1884,9,49,8,1708,342,42,4524,3772,1289,342,4525,5275,5276,5277,3772,19119,19120,11702,6476,342,5278,3772,3226,238,35,239,258,1427,4,168,1338,22,11422,844,862,4,11691,13,5783,6496,144,2,360,1419,2,337,2,119,1470,2,2462,2,17,384,35,8,93,270,2733,1520,4,174,2733,5,175,6183,2,70,252,31,403,17,822,289,2074,136,1520,12,11692,2,70,40,629,200,589,145,6992,1791,27,435,110,55,8,144,4,1723,1365,27,19121,5,182,549,136,699,17,177,2074 1,1,1,1,1,1,1,1,1,1,1,1,1,1,1,1,1,1,1,1,1,1,1,1,1,1,1,1,1,1,1,1,1,1,1,1,1,1,1,1,1,1,1,1,1,1,1,1,1,1,1,1,1,1,1,1,1,1,1,1,1,1,1,1,1,1,1,1,1,1,1,1,1,1,1,1,1,1,1,1,1,1,1,1,1,1,1,1,1,1,1,7,1,1,1,1,1,1,1,1,29,1,1,1,1,1,1,1,1,1,1,1,1,1,1,1,1,1,1,1,1,1,1,1,1,1,1,1,1,1,1,1,1,1,1,1,1,1,1,1,1,1,1,1,1,1,1,1,1,1,1,1,1,1,1,1,1,1,1,1,1,1,1,1,1,1,1,1,1,1,1,1,1,1,1,1,1,1,1,1,1,1,1,1,1,1,1,1,1,1,1,1,1,1,1,1,1,1,1,1,1,1,1,1,1,1,1,1,1,1,1,1,1,55,1,1,1,1,1,1,1,1,1,1,1,1,1,1,1,1,1,1,1,1,1,1,1,1,1,1,1,1,1,1,1,1,1,1,1,1,1,1,1,1,1,1,1,1,1,1,1,1,1,1,1,1,55,1,7,1,1,1,1,1,1,1,1,1,1,1
99,412,20,3499 13,13,13,13
7475,2,60,19122 13,13,1,1
19123,157,1405 1,9,1
60,719,989,487,64,60,719,243,2,1142,60,519,10,11703,117,8,11693,835,2,163,10,384,13,352,146,38,718,6720,18,199,2,76,18,629,14,1507,18,597,329,6,99,835 1,50,11,1,1,1,65,11,47,47,1,1,1,1,1,1,1,1,1,1,1,1,1,1,1,1,1,1,1,1,1,1,1,1,1,1,1,1,1,1,1,1
243,407,34,2,40,519,10,310,27,435,110 11,1,1,1,1,1,1,1,1,1,1
213,8,11695,408,695,13,277,2317,146,428,305,562,51,5259,7,338 1,1,1,1,1,1,1,1,1,1,1,1,1,1,1,1
135,428,187,161,3052,70,31,2325,13,244 10,1,1,1,1,1,1,1,1,1
11704,40,521,1158,467 1,1,1,1,1
60,133,217,4,255,227,719,6497 1,1,1,1,21,1,40,57
40,111,1169,12,35,2568,5,197,163,273,5402,12,255,9,154,10,52,19,235,8,60,719,241,155,22,34,2,538,87,10,52,217,2,40,822,12,117,130,60,719,243,407,34,94,8,11696,2,172,61,5784,38 1,1,1,1,1,1,1,1,1,1,34,34,21,1,1,1,1,1,1,1,1,13,4,1,1,1,1,1,1,1,1,1,1,1,1,1,1,1,1,65,11,1,1,1,1,1,1,1,1,1,1
719,1417,10,155,34,289,8,11697 1,1,1,1,1,1,1,1
719,925,5,11698,517,8,11699 1,1,1,1,1,1,1
719,1323,650,8,2107,4,296,2097,5,578,910,8,2002,6500,4,11705,801,1477,1293,123,8,457,4527,4,60,3075,17,3059,9,99,117,860,173,8,2,521,60,40,521,779,27,435,110,875,8,384,12,55,109,519,10,204,264,17,1199,13,2389 1,1,1,1,1,1,1,1,1,1,1,1,1,1,1,1,1,1,1,1,1,1,1,1,1,1,1,1,1,1,1,1,1,1,1,1,1,1,1,1,1,1,1,1,1,1,1,1,1,1,1,1,1,1,1,1,1
214,13,655,7494,1282,3273,2,228,2417,3058,79,54,2417,2018,323,439,13,135,2,144,2,206,2,3283,2,337,2,119,835,2,2462,17,384 1,1,1,1,1,1,1,1,1,1,1,1,1,1,1,1,1,10,1,55,1,12,1,1,1,1,1,1,1,1,1,1,1
2653,316,7,41,35,130,173,2,401,12,9756 1,1,1,1,1,1,1,1,1,1,1
1290,19124,2469 1,1,1
39,408,145,12,2631,37,20,1137,51,31,1223,338,2,252,865,384,17,1158 1,1,1,1,1,1,1,1,1,1,1,1,1,1,1,1,1,1
133,11700 5,5
593,19125,99,412,1815,108 1,1,1,1,1,1
40,1438,223,41 1,1,1,1
39,2733,1520,5,178,145,51,31,15,384,145 1,1,1,1,1,1,1,1,1,1,1
384,12,55,109,10,210,41,2389,5,147,133 1,1,1,1,1,1,1,1,1,1,1
2528,62,3273 1,1,1
7494,2,228 1,1,1
