67,53,4,19567,7525,110,9,9020,19568,8,19569,875,1268,874,1180,323,373,13,15,30,7,206,2,905,119,75,609,10,288,372,1063,734,13,3123,9,9017,8,5,93,162,17,1622,1023,112,1203,120,63,13,184,362,416,33,5,3323,5,591,3721,3002,734,535 1,1,1,1,1,1,1,1,1,1,1,1,1,1,1,1,1,1,1,1,1,10,1,1,1,1,1,1,1,1,1,1,1,1,1,1,1,1,1,1,1,1,1,1,1,1,1,1,1,1,1,1,1,1,1,1,3,3,3,3
6,1461,20,664,43,781,73,302,503,5,1393 1,1,1,1,1,1,1,1,1,1,1
12,6,6520,6,29,87,10,52,1393,5,45,277,5288 1,1,1,1,1,1,1,1,1,1,1,1,1
102,465,15,1705,1418,9,118,4978,20,558,8,5,87,3918 1,1,1,1,1,1,1,1,1,1,1,1,1,1
6,29,396,561,83,5,96,39,195,19,209,158,377,9,19570,646,8 1,1,1,1,1,1,1,1,1,1,1,1,1,1,1,1,1
102,1645,5,690,194,10,6,3257 1,1,1,1,1,1,1,1
102,214,38,27,3643,13,6,586,616,32,61,32,543 1,1,1,1,1,1,1,1,1,1,1,1,1
50,107,6,29,85,6,922,5,214,6,1461 1,1,1,1,1,1,1,1,1,1,1
50,755,13,30,5,78,32,5889,12,413,54,470,4,101,338,4,338,20,348,272,10,1393,5,277,499,32,61,32,1246 1,1,1,1,1,1,1,1,1,1,1,1,1,3,3,1,1,1,1,1,1,1,1,1,1,1,1,1,1
40,741,198,5,229,534,10,596,79,13,1938,1891 1,1,52,1,1,1,1,1,1,1,37,37
19571,1142 1,12
19572,19573,10,499,1021,123,5,87,10,147,749,341,768,433,4,16,21,277,1705,628,1097,5,116,4531 1,1,1,1,1,1,1,1,1,1,1,1,1,1,1,1,1,1,1,1,1,1,1,1
40,741,617,5,1645,6,29 1,1,1,1,1,1,1
40,265,695,12,248 1,1,1,1,1
124,24,1705,628,904,5,4531,113,31,8907,253,13,513,1363,240,1218,2331,71,9766,17,132,146,24,169,422,338,195,19574,19575,4,40,1645,10,1677,4319,4,6,19576,21,19577,1677,4319 1,1,1,1,1,1,1,1,1,1,1,1,1,1,1,1,1,1,1,1,1,1,1,1,1,1,1,1,1,1,1,1,1,1,1,1,1,1,1,1,1,1
102,40,17,132,741,1019 1,1,1,1,1,1
195,158,377,4,16,21,185,19578,5288 1,1,1,1,1,1,1,1,1
102,57,1357,359,1845,5,2710 1,1,1,1,1,1,1
40,116,2102,100 1,1,1,1
17,132,240,31,154,828,146,277,1705,2102,100 1,1,1,1,1,1,1,1,1,1,1
2646,9020,421,5123,1572 1,1,1,1,1
