67,53,4,19649,1483,11860,322,6525,878,5951,27,1093,3996,2,3850,3997,7531,22,64,2622,856,22,64,545,1236,22,64,2036,1236,22,64,241,123,22,34,971,7534,22,64,3173,639,22,638,64,9,2149,4457,8,950,122,22,64,1243,50,64,243,407,22,34,2693,1326,5529,22,27,1093,1412,1238,2,2484,2365,30,4,482,10,85,24,41,153 1,1,1,1,7,1,1,1,7,1,1,1,1,1,1,1,1,1,1,1,1,1,1,9,1,1,1,16,1,1,1,12,1,1,1,1,1,1,1,1,1,1,1,1,1,1,1,1,1,1,1,1,1,1,1,11,1,1,1,1,1,1,1,1,1,1,1,1,1,1,1,1,1,1,1,1,1,1
657,788,197,45,4367,881,1656,83 1,1,1,1,1,1,1,1
450,21,33,71,1374,19,15,95,1888,51,92,14,2789 1,1,1,1,1,1,1,1,1,1,1,1,1
21,31,460,98,11861,2,761,2004 1,1,1,1,1,1,1,1
473,45,2543,23,17,86,5,18,21,231,62,19650,13,537,7,3925,601 1,1,1,1,1,1,1,1,1,1,1,1,1,1,1,1,1
619,45,2543,23,12,6,82,51,172,31,129 1,1,1,1,1,1,1,1,1,1,1
412,21,65,215,910,42,5,18,671,37,187,21,31,83 13,13,13,13,13,13,1,1,1,1,1,1,1,1
113,31,45,67,51,671,37,18,145,200,322 1,1,1,1,1,1,1,1,1,1,1
986,4,739,62,4243,15,492,109,173 1,1,1,1,1,1,1,1,1
132,568,343,86 1,1,1,1
99,2188,20,200,798,86,173 1,1,1,1,1,1,1
148,37,873,20,9708,12,178,402,5,19651,12,6,175 1,1,1,1,1,1,1,1,1,1,1,1,1
1334,4,833,20,1955,12,1133 1,1,1,1,1,1,1
671,37,659,226,996,23,10,403,15,130,136,6,99,110,51,18,252,31,996,10,172,426 1,1,1,1,1,1,1,1,1,1,1,1,1,1,1,1,1,1,1,1,1,1
18,629,37,92,20,17,476,7,68,217,330 1,1,1,1,1,1,1,1,1,1,1
306,2,23,330,21,65,44,215,6,99,177,110 1,1,1,1,1,1,1,1,1,1,1,1
575,4,31,515,13,47,6,971,2,5,54,92,18,1890,92 1,1,1,1,1,1,1,1,1,1,1,1,1,1,1
101,4,11,48,33,26,1949,399,19,387 1,1,1,1,1,1,1,1,1,1
113,199,316,7,5436,124,18,2644,235,1826 1,1,1,1,1,1,1,1,1,1
18,14,111,62,4244,12,279,109 1,1,1,1,1,1,1,1
367,4,11,785,82,41,30,4,41,4,11,83,204,30,4,4245,21,39,15,8993,19652,5,177,175,153,93 1,1,1,1,1,1,1,1,1,1,1,1,1,1,1,1,1,1,1,1,1,1,1,1,1,1
395,7,24,3293,45,357 1,1,1,1,1,1
685,14,629,7,568,19,15,8943,10,9,360,19653,8,12,19654,124,16,14,61,2681 1,1,1,1,1,1,1,1,1,1,1,1,1,1,1,1,1,1,1,1
85,7,191,4,288,105,78,4,909,61 1,1,1,1,1,1,1,1,1,1
133,4,19655,321,4,981,2,150,653,4,7535,97,2575,2,455,723,234,4,855 1,1,1,1,1,1,1,1,1,1,1,1,1,1,1,1,1,1,1
218,4,44,137,2,97,207,48,4,90,10,478,138,4,44,276,28,4944,282 1,1,1,1,1,1,1,1,1,1,1,1,1,1,1,1,1,1,1
11,560 1,1
11,208,221,4,11,968 1,1,1,1,1,1
11,236 1,1
11,250 1,1
11,824,2576 1,1,1
131,4,11,88 1,1,1,1
979,4633,2,1338 1,1,1,1
70,196,2,1338 1,1,1,1
11,308,362,266 1,1,1,1
319,5,108,4,2187,10,19656,23,72,187,97,297,512 1,1,1,1,1,1,1,1,4,1,1,1,1
11,1619,955,7,656,153,13,188,128,80,2,51,18,738,2883,200,6,399,19,387,76,18,2129,5,426,40,460,10,90,6,698,13,1068 1,1,1,1,1,1,1,1,1,1,1,1,1,1,1,1,1,1,1,1,1,1,1,1,1,1,1,1,1,1,1,1,1
1068,13,4150 1,1,1
460,10,265,1368,1630,1948 1,1,1,1,1,1
124,5291,2,446,436,885,492,109,10,111,1095,102,45,1374 1,1,1,1,1,1,1,1,1,1,1,1,1,1
1207,412,2,1013,2,1463,2,3805,1005,4,213,130,421,4,1648,4244,2,106 1,1,1,1,1,1,1,1,1,1,1,1,1,1,1,1,1,1
659,226,6527,2253,6528,2,1795,2,3306 1,1,1,1,1,1,1,1,1
