67,53,4,19774,11914,2,19775,2,9045,6,29,20,231,13,62,4887 1,1,1,1,1,1,1,1,1,1,1,1,1,1,1,1
50,633,23,30,5,105 1,1,1,1,1,1
50,96,1322,5,107,6,29 1,1,1,1,1,1,1
383,111,6,54,17,297,393 1,1,1,1,1,1,1
30,7,63,361,4,38,14,15,4070,802,13,15,30,7,127,2,4593,72,2,5,55,109,7,829,48,33,17,76,16,20,176,13,408,145,15,109,186,10,222,110,2,76,20,510 1,1,1,1,1,1,1,1,1,1,1,1,1,1,8,8,4,4,1,1,1,1,1,1,1,1,1,1,1,1,1,1,1,1,1,1,1,1,1,1,1,1,1,1
6,29,39,15,108,17,101,594,6,58,136,38,222,110,51,63,19,38,58,17,68,287,7,48,449,76,923,27,416,2,76,20,1929,24,326,287,7,48,449,76,766,923,13,308 1,1,1,1,1,1,1,1,1,1,1,1,1,1,1,1,1,1,1,1,1,1,1,1,1,1,1,1,1,1,1,1,1,1,1,1,1,1,1,1,1,1,1,1
16,1351,838,13,1766,5,268,63,17,273,176,5,527 1,1,28,1,1,1,1,1,1,1,1,1,1
41,4,336,2,814,2,1204,2,2694,2,198,2,5,3976 1,1,21,1,9,1,26,26,28,1,11,1,1,1
105,107,4,16,14,1027,5,452,2,12,11,350,2,48,33,777 1,1,1,1,1,1,1,1,1,1,1,1,1,1,1,1
1272,13,137,981,2,73,100,19776,2,5,689,1097,776,42,19,712,698 1,1,1,1,1,1,1,1,1,1,1,1,1,1,1,1,1
24,152,57,90,10,478 1,1,1,1,1,1
138,4,150,169,5,245 1,1,1,1,1,1
221,14,159,5,414 1,1,1,1,1
131,57,662,5,61,1061 1,1,1,1,1,1
11,217,530 1,1,1
315,481,434,4,68,167,20,375,290,75,4674,861,2,51,385,245,27,1521,13,11,970,83 1,1,1,1,1,1,1,1,1,1,1,1,1,1,1,1,1,1,1,1,1,1
242,953,20,3254 1,1,1,1
141,151,758,290,1897,44,842,5,1463 1,1,1,1,1,1,1,1,1
444,749,20,600,300,3259,13,68,1053,7,1256,5,48,788,2,76,20,44 1,1,1,1,1,1,1,1,1,1,1,1,1,1,1,1,1,1
6,29,21,65,47,198,186,10,889 1,1,1,1,1,11,1,1,1
138,169,20,12,6,3314,12,6,315,712,5,11,466,7439,20,146,10,6,29 1,1,1,1,1,1,1,1,1,1,1,1,1,1,1,1,1,1,1
306,2,669,19,24,5079,2,76,20,520,17,2303,757,2,16,20,146,2746,12,6,315,712 1,1,1,1,1,1,1,1,1,1,1,1,1,1,1,1,1,1,1,1,1,1
50,4634,10,6,543,612,262,19,446,120,755,10,47,6,29,19,10,24,616,17,1017,101,594,12,6,1352,1350 1,1,1,1,1,1,1,1,1,1,1,1,1,1,1,1,1,1,1,1,1,1,1,1,1,1,1
13,38,108,2,16,20,170,12,219,614,13,15,537,7,2303,757 1,1,1,1,1,1,1,1,1,1,1,1,1,1,1,1
2505,211,84,4,227,462 1,1,1,1,1,1
574,2482,2,9045,228,539,4,11915,303,4,11915,606,43,4,2482,2,9045,847,19777,1765,257,31,85,43,262,327,257 1,1,1,1,1,1,1,1,1,1,1,1,1,1,1,1,1,1,1,1,1,1,1,1,1,1,1
