67,53,4,19938,1167,9062,41,304,162,54,70,4,11965,2,2701,553,49,4,19939,53,7,162,4,19940,262,4,2809,19941,421,4,1728,2,167,83,259,4,1615,323,13,247,7,144,2,206,119,2339,409,9,3557,8,5,261,938,63,13,55,58,7,1728,2,348,1707,751,11966,12,6,1864,16,148,199,32,124,16,14,4519,471,6,712,14,219,28,38,498,14,620,43,83,12,286,26,424,736 1,1,1,1,1,1,1,1,1,1,1,1,1,1,1,1,1,1,1,1,1,1,1,1,1,1,1,1,1,1,1,1,1,1,1,1,1,1,1,1,1,4,1,10,3,3,3,3,3,3,3,3,3,1,1,1,1,1,1,1,1,1,1,1,1,1,1,1,1,1,1,1,1,1,1,1,1,1,1,1,1,1,1,1,1,1,1,1,1,1,1,1
92,1336,343,437,32,6,58,584 1,1,1,1,1,1,1,1
16,91,98,839,2,374,2,1749,2,83,12,873,26,947 1,1,1,1,1,1,1,1,1,1,1,1,1,1
16,91,98,93,2118 1,1,1,1,1
16,113,148,2369,76,21,65,63,829,17,86,32,61,32,103,19942,827,621,10,19943,1520 1,1,1,1,1,1,1,1,1,1,1,1,1,1,1,1,1,1,1,1,1
11,7336 1,1
6,498,7,1728,14,6738,751,178,109,7,1840,584,302,7,2486,2,746,32,31,725,854,10,1462,24,2804,12,422,10,2737 1,1,1,1,1,1,1,1,1,1,1,1,1,1,1,1,1,1,1,1,1,1,1,1,1,1,1,1,1
16,96,148,19944,58,7,143,472,12,11967,343,2,1596,10,637,19945,3218,1293,32,61,32,87,10,47,4453,17,6,1151,517,58,1722 1,1,1,1,1,1,1,1,1,1,1,1,1,1,1,1,1,1,1,1,1,1,1,1,1,1,1,1,1,1,1
472,21,65,2729,523,17,55,58,1965 1,1,1,1,1,1,1,1,1
16,113,148,230,25,617,1259,2,10640,2549,7,8968,140,58 1,1,1,1,1,1,1,1,1,1,1,1,1,1
16,479,24,401,150,5,148,685,45,65,1208,12,6,19946 1,1,1,1,1,1,1,1,1,1,1,1,1,1
16,91,98,275,2,507,2,960,26,1995,782 1,1,1,1,1,1,1,1,1,1,1
6,29,113,45,2398,19,6,59,5,148,37,38,21,65,63,600,300,178,130 1,1,1,1,1,1,1,1,1,1,1,1,1,1,1,1,1,1,1
16,21,39,11,83,12,41 1,1,1,1,1,1,1
466,2,6,29,148,178,287,7,6923,48,33,1253,6,19947,1418,19,19948,76,20,1190,1505,43,1746 1,1,1,1,1,1,1,1,1,1,1,1,1,1,1,1,1,1,1,1,1,1,44
9,70,1596,6,33,10,2597,32,6,6009,8661,13,6,1746,96,738,10,1190,6,33,8 1,1,1,1,1,1,1,1,1,1,1,1,1,44,1,1,1,1,1,1,1
16,113,96,148,68,116,12,299,136,324,114,178,2617,7,1826,76,21,19949,215,6,82,492,130 1,1,1,1,1,1,1,1,1,1,1,1,1,1,1,1,1,1,1,1,1,1,1
677,4,144,112,122,86,2,347,575,135,206,2339,409,12,19950,2,2233,5,261,626,1800,42,9,99,695,2017,8,2751,9,44,5746,2263,8,4890,2,6538,3773,1606,2057,9,340,8,244,4,1345,798,34,243,407,34,216,566,34,545,227,22,64,241,123,22,34,19951,274,22,314,556,2286,4534,292,539,9,483,1067,4782,22,9,1435,22,4435,364,8,1069,1664,539,639,3833,8,35,293,25,64,223,4,2004,60,284,1109,4,1792,4,2242,86,1324,331,2,353,2669,463,4,91,1202,4,91,993,4,518,4,7566,503,651,4,611,12,2937,27,3303,447,1114,4,3519,544,4,32,12,259 1,1,4,1,1,1,1,1,1,8,10,3,3,3,3,3,3,3,3,1,1,1,1,1,1,1,1,1,1,1,1,1,1,1,1,1,1,1,1,1,1,1,1,1,19,1,1,11,1,1,16,1,1,9,1,1,1,12,1,1,1,1,1,1,1,1,1,1,1,1,1,1,1,1,1,1,1,1,1,1,1,1,1,1,1,1,1,1,1,1,1,1,1,1,1,1,1,1,6,6,6,6,6,6,6,6,6,1,1,1,1,1,1,1,1,1,1,1,1,1,1,1,1,1,1,1,1,1,1,1,1,1,1,1,1
36,202,4,11,142,11968,2,11,644,2,11,275,2,11,507,2,11,83,12,1080,36,410,4,11,256,2,11,299,2,11,113,2,11,1819,2,11,420,36,234,4,11,134,2231,2,11,2393,2,11,827,302,36,101,4,48,9063,32,288,2,11,411,2,11,692,2,11,740,36,1690,4,11,301,2,11,392,2,11,472,2,11,631,2,11,459,36,310,4,1336,498,12,1867,103,36,551,681,4,11,1007,551,681,36,1039,4,11,192,33,2,11,134,33,2,11,280,33,2,11,313,33,36,1716,4,11,1174,2,11,845,2,11,1554,2,11,1557,36,1152,4,11,1614,2,11,459,36,1520,4,11,1995,782,2,11,93,2076,78,4,678,4,4710,1180,610,776,42,3147,19952,1175,19953,234,4,1566,2,764,2,3738 1,1,1,1,1,1,1,1,1,1,1,1,1,1,1,1,1,1,1,1,1,1,1,1,1,1,1,1,1,1,1,1,1,1,1,1,1,1,1,1,1,1,1,1,1,1,1,1,1,1,1,1,1,1,1,1,1,1,1,1,1,1,1,1,1,1,1,1,1,1,1,1,1,1,1,1,1,1,1,1,1,1,1,1,1,1,1,1,1,1,1,1,1,1,1,1,1,1,1,1,1,1,1,1,1,1,1,1,1,1,1,1,1,1,1,1,1,1,1,1,1,1,1,1,1,1,1,1,1,1,1,1,1,1,1,1,1,1,1,1,1,1,1,1,1,1,1,1,1,1,1,1,1,1,1,1,1,1,1,1,1,1,1,1,1,1,1,1,1
613,2,11,1829 1,1,1,1
1457,2,967,1443 1,1,1,1
19954,2996,8328,7273,5670,4688,1829,3900,126,134,4,351,2,897,2,295,1543,2,196,218,967,207,2,11,298 1,1,1,1,1,1,1,1,1,1,1,1,1,1,1,1,1,1,1,1,1,1,1,1,1
530,4616,152,4,1366,28,11,961,2,11,420,724,4,456,28,44,1257,2,11,1060,901,365,4,159,2,976,2,2047,28,2546,28,11,1131,7215,4,2525,491,2,1071,174,12,1089,1919,4,11,1458,28,196,979,79,2,427,4360,103,352,4,4768,2,931,354,2,966,638,849,1980,203,13,720,7,59,2398,2,770,5,1107,2212,28,2117,79,196,5,641,762 1,1,1,1,1,1,1,1,1,1,1,1,1,1,1,1,1,1,1,1,1,1,1,1,1,1,1,1,1,1,1,1,1,1,1,1,1,1,1,1,1,1,1,1,1,1,1,1,1,1,1,1,1,1,1,1,1,1,1,1,1,1,1,1,1,1,1,1,1,1,1,1,1,1,1,1,1,1,1,1,1,1,1
4935,3109,103 1,1,1
646,10,1739,354,2,77,10,66,354,2,11085,203,2,3160,174 1,1,1,1,1,1,1,1,1,1,1,1,1,1,1
580,657,2849,657,559,372,2849,372,559,572,2849,572,559,75,94,94,94,94,94,94,56,94,94,94,94,94,94,2098,473,365,2046,559,2046,2849,1574,559,1574,2849,1033,365,75,94,94,94,94,94,94,56,94,94,94,94,94,94,141,4,1355,4,1355,5368,429,2773,1284,325,2632,5300,673,2056,1249,325,2632,5300,790,3345,1285,325,2632,5300,1067,1623,10359,1383,325,2632,5300,7910,9,59,8,7567,415,875,1286,193,2632,5300,358,1708,1535,193,2632,5300,371,19955,1333,193,2632,5300,4130,9,77,8,2632,1310,69,174,2632,11969,5301,9,77,8,7567,2536,69,174,2632,11969,538,145,398,1661,193,6539,6189,1408,2064,2716,193,6539,6189,957,3387,5896,193,6539,6189,593,398,1602,193,6539,6189,3451,1437,3225,6539,19956,691,412,19957,6696,42,19958,19959,11157,9,77,8,19960,1152,464,73,821,330,2969,1250,430,2632,4535,6052,9,77,8,7567,660,31,375,2189,5897,2632,4535,499,111,393,2632,4535,3623,9,59,8,7568,296,111,393,2632,4535,11541,9,59,8,7567,19961,19962,1868,42,2632,19963,5072,9,59,8,2632,578,31,375,1321,1153,2632,4535,700,31,375,1409,1516,2632,4535,737,31,375,1410,598,2632,4535,484,5130,1460,1287,2632,4535,701,31,375,1356,42,2632,4535,2652,1054,2652,70,3828,2923,1059,7568,4215,3800,9,77,8,7568,1049,1256,7568,4215,101,1873,69,112,35,4,1297,4,69,7165,4,69,167,4,333,2339,19964,5,561,217,12,19965,508,4,6,152,57,61,9064 1,1,1,1,1,1,1,1,1,1,1,1,1,1,1,1,1,1,1,1,1,1,1,1,1,1,1,1,1,1,1,1,1,1,1,1,1,1,1,1,1,1,1,1,1,1,1,1,1,1,1,1,1,1,1,1,1,1,1,1,1,1,1,1,1,1,1,1,1,1,1,1,1,1,1,1,1,1,1,1,1,1,1,1,1,1,1,1,1,1,1,1,1,1,1,1,1,1,1,1,1,1,1,1,1,1,1,1,1,1,1,1,1,1,1,1,1,1,1,1,1,1,1,1,1,1,1,1,1,1,1,1,1,1,1,1,1,1,1,1,1,1,1,1,1,1,1,1,1,1,1,1,1,1,1,1,1,1,1,1,1,1,1,1,1,1,1,1,1,1,1,1,1,1,1,1,1,1,1,1,1,1,1,1,1,1,1,1,1,1,1,1,1,1,1,1,1,1,1,1,1,1,1,1,1,1,1,1,1,1,1,1,1,1,1,1,1,1,1,1,1,1,1,1,1,1,1,1,1,1,1,1,1,1,1,1,1,1,1,1,1,1,1,1,1,1,1,1,1,1,1,1,1,1,1,1,1,1,1,1,1,1,1,1,1,1,1,1,1,1,1,1,1,1,1,1,1,1,1,1,1,1,1,1,1,1,1,1,1,1,1,1,1,1,1,1,1,1,1,1,1,1,1,1
74,57,11,915,570,7,2590,26,877 1,1,1,1,1,1,1,1,1
6,101,4697,14,44,12,1002,5,6137 1,1,1,1,1,1,1,1,1
74,57,11,3681,510 1,1,1,1,1
74,57,11,10029,26,159,1219,510 1,1,1,1,1,1,1,1
237,4,11,181,7,195,2440,1745 1,1,1,1,1,1,1,1
1493,5029,810,3469,4979,348,515,13,9897,80,12,15,29,7,38,447,2068,4,376,11970,862,4,1615,323,13,247,135,2,144,2,206,63,13,55,58,7,1728,5,178,109,7,302,7,2486 1,1,1,1,1,1,1,1,1,1,1,1,1,1,1,1,1,1,1,1,1,1,1,1,1,1,8,1,4,1,10,1,1,1,1,1,1,1,1,1,1,1,1,1
126,7,1728,57,348,515,13,347,1728 1,1,1,1,1,1,1,1,1
11971,348,161,32,126,57,940,12,11967,5,1336,215,6,58 1,1,1,1,1,1,1,1,1,1,1,1,1,1
146,2369,19966,19,6,19967,51,600,161 1,1,1,1,1,1,1,1,1
19968,600,161,32,74,14,11,9776,477,26,397,301 1,1,1,1,1,1,1,1,1,1,1,1
146,335,307,679,1705,1258,1161,32,516,40,674,1303 1,1,1,1,1,1,1,1,1,1,1,1
1728,2452,13,302,7,2486,2,643,31,5670,19,78,2,197,1327,6698,797 1,1,1,1,1,1,1,1,1,1,1,1,1,1,1,1,1
167,83,497,17,760,1262,2646,2339,11462,124,6459,1219,450,511 1,1,1,1,1,1,1,1,1,1,1,1,1,1
6465,5,695,12,1864,1728,4,60,237,69,17,195,1258,60,729,376,60,310,285,666,4,338,36,6465,43,167,2,1873,36,6775,695,12,1864,36,87,243,28,1405,114,545,17,858,534,1338,312,32,133,562,36,147,812,538,12,248,2,87,241,36,87,216,36,93,1022,2687,1727,36,11,11972,7,377,19,78,2,508,245,36,129,804,28,1405,114,1301,32,288,36,2153,17,3700,28,1209,571,1338,213,2,22,19969,2838,4,36,744,166,4,295,2573,19970,19971,5302,2,106 1,1,1,1,1,1,1,1,1,1,1,1,1,1,1,1,1,1,1,1,1,1,1,1,1,1,1,1,1,1,1,1,1,1,1,11,1,1,1,9,1,1,1,1,1,1,1,1,1,1,1,1,1,1,1,1,12,1,1,16,1,1,1,1,1,1,1,1,1,1,1,1,1,1,1,1,1,1,1,1,1,1,1,1,1,1,1,1,1,1,1,1,1,1,1,1,1,1,1,1,1,1,1,1,1,1,1,1,1
742,49,19972 1,1,1
