67,53,4,20016,400,4,7268,2,11998,528,4,11999,38,29,14,436,17,15,476 1,1,1,1,1,1,1,1,1,1,1,1,1,1,1,1,1,1,1
18,20,231,13,15,246,464,176,43,2934,9075,17,23,656,704,1848,477 1,1,1,1,1,1,1,1,1,1,1,1,1,1,1,1,1
18,12000,15,359,2588,444,37,205,1040,2488,51,268,136,3696,443,23,359,2934,20,418,10,640,4078,5563,4149,359 1,1,1,1,1,1,1,1,1,1,1,1,1,1,1,1,1,1,1,1,1,1,1,1,1,1
15,1040,1403,8918,32,20017,2154 1,1,1,1,1,1,1
599,7268,464,23,830,58,7,2202,13,1906,7,23,126,51,132,215,6,82,492,58,18,21,1045,68,6115,5,4078,10,23,359,467,97,275,7,845,26,704,2373 1,1,1,1,1,1,1,1,1,1,1,1,1,1,1,1,1,1,1,1,1,1,1,1,1,1,1,1,1,1,1,1,1,1,1,1,1,1
18,21,926,397,13,6,270,431,3385,18,494,45,656,477 1,1,1,1,1,1,1,1,1,1,1,1,1,1
18,14,348,497,200,45,357 1,1,1,1,1,1,1
18,14,521,10,111,62,12001,1111,8623 1,1,1,1,1,1,1,1,1
6,29,148,116,926,7,1763,32,74,45,65,470,568,1021,6,1330,5414 1,1,1,1,1,1,1,1,1,1,1,1,1,1,1,1,1
15,20018,7159,20,20019,5,178,109,536,68,5227,20,2644,15,6491,10,460,10,265,908,23,3733 1,1,1,1,1,1,1,1,1,1,1,1,1,1,1,1,1,1,1,1,1,1
18,1132,114,12002,194,13,15,20020,5,16,2653,2331 1,1,1,1,1,1,1,1,1,1,1,1
18,252,31,5934,15,5645,148 1,1,1,1,1,1,1
32,15,258,7,38,18,21,39,297,153,13,23,926 1,1,1,1,1,1,1,1,1,1,1,1,1
18,148,2389,13,223,23,41,720,37,18,2653,316,7,23,260,665,178,109,173 1,1,1,1,1,1,1,1,1,1,1,1,1,1,1,1,1,1,1
18,39,65,47,122,22,5696,10,178,46,8979,51,31,19,15,150,1888 1,1,1,1,1,1,1,1,1,1,1,1,1,1,1,1,1
18,91,98,48,100,26,411 1,1,1,1,1,1,1
18,91,98,233,7,183 1,1,1,1,1,1
18,91,98,153,13,33,12,23,75,362,26,116,417,7,23,56,572 1,1,1,1,1,1,1,1,1,1,1,1,1,1,1,1,1
105,78,4,73,100,14,20021 1,1,1,5,5,5,5
138,14,150,169,5,245 1,1,1,1,1,1
11,208,2,560,26,506 1,1,1,1,1,1
1297,290,286,2082,5,196,8019 1,1,1,1,1,1,1
23,572,290,564,88,19,6,56 1,1,1,1,1,1,1,1
23,75,131,14,662,10,1073 1,1,1,1,1,1,1
210,5,108,4,9,35,8,127 1,1,1,1,1,1,1,8
73,100,21,65,360,215,6,82,279,110 1,1,1,1,1,1,1,1,1,1
38,197,52,272,10,6,1649,37,18,21,31,65,47,23,260 1,1,1,1,1,1,1,1,1,1,1,1,1,1,1
50,45,1438,23,19,6,260,122,22,10,47,5696,46,1001 1,1,1,1,1,1,1,1,1,1,1,1,1,1
19,15,150,1888 1,1,1,1
9,55,8,926 1,1,1,1
50,40,3356,15,3010,17,23,10,6,20022,1330,20023,10,460,10,265,23,1224,316,7,38,129,1330,5414,10,15,20024,12003 1,1,1,1,1,1,1,1,1,1,1,1,1,1,1,1,1,1,1,1,1,1,1,1,1,1,1,1
9,117,8,656,704,1848,477 1,1,1,1,1,1,1
18,39,15,359,717,12000,89 1,1,1,1,1,1,1
18,20,146,987,1553,17,2202,801,22,178,25,1001 1,1,1,1,1,1,1,1,1,1,1,1
18,40,1218,19,38,585,23,1005,13,62,12001 1,1,1,1,1,1,1,1,1,1,1
50,1105,10,2717,23,37,92,14,1929,37,357,14,6,721,17,23,129,656,477 1,1,1,1,1,1,1,1,1,1,1,1,1,1,1,1,1,1,1
92,14,297,161,272,10,23,20025 1,1,1,1,1,1,1,1
9,213,8,347,367,80 1,1,1,1,1,1
38,205,219 1,1,1
18,511,699,6,1667 1,1,1,1,1
9,94,8,8973 1,1,1,1
18,511,97,126 1,1,1,1
9,289,8,716 1,1,1,1
18,511,19,6,950 1,1,1,1,1
9,517,8,283 1,1,1,15
18,511,19,241 1,1,1,12
18,494,45,15,453,398,640,13,15,311,803,211,327,12,6,778 1,1,1,1,1,1,1,1,1,1,1,1,1,1,1,1
9,650,8,1281,360,401 1,1,1,1,1,1
6,29,494,96,45,38,822,13,6,311,327,12,6,778 1,1,1,1,1,1,1,1,1,1,1,1,1,1
2799,20026,2,106 1,1,1,1
20027 1
