67,53,4,20220,1217,4355,2,2858,9107,3131,2,106 1,1,1,1,1,1,1,1,1,1,1,1
3005,6552,121,20221,6408,465,9108,2,364,9109,589,4,3135,1862,528,4,6553,853,62,3131,4,50,39,6,1070,7,111,3135,1862,12,6,603,226,89 1,1,1,1,1,1,1,1,1,1,1,1,1,1,1,1,1,1,1,1,1,1,1,1,1,1,1,1,1,1,1,1,1,1
38,3887,802,87,10,111,395,291,5,62,20222,9110 1,1,1,1,1,1,1,1,1,1,1,1
50,45,214,38,13,62,9110,5,50,248,1555,1196,12,6894,4022,356,223,240,163,10,111,291,2636,12,318,1862,79,211 1,1,1,1,1,1,1,1,1,1,1,1,1,1,1,1,1,1,1,1,1,1,1,1,1,1,1,1
16,54,37,24,142,21,116,10,5103,965,5,37,16,21,65,104,984,43,62,9110,120,14,1226,260,5,673,790,225 1,1,1,1,1,1,1,1,1,1,1,1,1,1,1,1,1,1,1,1,1,1,1,1,1,1,1,1
16,21,39,11,233,7,183,27,416 1,1,1,1,1,1,1,1,1
16,21,1045,11,185,83,12,24,229,131,88 1,1,1,1,1,1,1,1,1,1,1
16,21,143,692,5,11,1943,1942,399 1,1,1,1,1,1,1,1,1
24,41,346,156,198,407,22,25,680,2,260,404,22,25,1010,2,2621,155,22,25,1010,2,1035,155,22,25,1010,2,545,235,22,25,1010,2,675,122,22,25,680,2,775,94,22,25,1010,2,4174,122,22,25,680,2,5,3330,274,1918,1001 1,1,1,1,11,1,1,1,1,1,1,1,1,1,1,1,28,1,1,1,1,1,16,1,1,1,1,1,9,1,1,1,1,1,12,1,1,1,1,1,20,1,1,1,1,1,1,1,1,1,1,1,1,1,1,1,1
12,466,10,925,2,2829,2,5,3956 1,1,1,1,1,1,1,1,1
24,105,78,14,682,17,15,73,100,7,4431,75,5,56,313,2182 1,1,1,1,1,1,1,5,5,5,5,5,5,5,5,5
136,416,2,38,482,455,10,8195,75,5,56,313,2182 1,1,1,1,1,1,1,1,1,1,1,1,1
24,138,169,14,596,5,150 1,1,1,1,1,1,1
410,169,14,1066,24,712,698,1097,14,1189,42 1,1,1,1,1,1,1,1,1,1,1
24,152,57,90,10,478,2,643,183,309,57,1044,1699 1,1,1,1,1,1,1,1,1,1,1,1,1
603,78,14,682,17,2265,1415,5,15,159,672,893,208 1,1,1,1,1,1,1,1,1,1,1,1,1
24,221,14,159,5,414 1,1,1,1,1,1
131,57,682,17,88,10,24,372,103 1,1,1,1,1,1,1,1,1
589,4,3135,1862,528,4,6553,3065,1217,4355,2,2858,1251,14,682,17,385,245,13,68,1003,7,20223,5,44,732,2,11,181,7,338,26,475 1,1,1,1,1,1,1,1,1,1,1,1,1,1,1,1,1,1,1,1,1,1,1,1,1,1,1,1,1,1,1,1,1
11,83,71,186,1251 1,1,1,1,1
12,1212,2,318,1862,14,129,52,394,17,2539,887,138,377 1,1,1,1,1,1,1,1,1,1,1,1,1,1
24,334,176,436,20,682,17,15,2452,7,1812,5,759,334,1026 1,1,1,1,1,1,1,1,1,1,1,1,1,1,1
50,240,1555,2371,13,87,2476,13,984,2086,10,24,673,2,415,2,5,358 1,1,1,1,1,1,1,1,1,1,1,1,1,1,1,1,1,1
124,74,57,98,743,26,470,2,383,741,291,15,446 1,1,1,1,1,1,1,1,1,1,1,1,1
1028,2,6556,7585,2,106 1,1,1,1,1,1
20224,257,31,85,43,262,327,257 1,1,1,1,1,1,1,1
