67,53,4,20260,20261,2823,457,481,20262,311,12063,3389,20263,2,3775,20264,20265,4883,2,4167,9114,20266,53,7,3785,4,20267,880,278,4,16,63,89,17,24,1674,30,5,105,136,68,2427,10,38,632,17,6,82,55,86 1,1,1,1,1,1,1,1,1,1,1,1,1,1,1,1,1,1,1,1,1,1,1,1,1,1,1,1,1,1,1,1,1,1,1,1,1,1,1,1,1,1,1,1,1,1,1,1,1,1
82,41,30,4,156,428,187,328,55,72,2,129,19,157,17,6,82,1985,86,2,30,7,56,362,477,2,5043,1026,2,3667,7,6220,2,283,2,206,2,792,768,475,664,43,760,1246,2,254,2,72,986,2,970,2527,5,277,4210 1,1,1,1,1,1,1,4,4,11,4,1,1,9,1,1,1,1,1,1,1,1,1,1,1,1,1,1,1,1,1,1,1,22,1,11,1,3,3,3,1,1,1,1,1,7,1,1,1,1,1,1,1,1,1
82,586,30,4,156,101,594,2,188,261,5,4605,101,5887 1,1,1,1,1,1,1,1,89,89,1,1,1,1
366,139,4,16,21,11,363,366,139 1,1,1,1,1,1,1,1,1
41,4,156,255,235,22,12,6,486,5,227,22,12,6,761,2,198,505,22,55,46,95,2,1973,577,35,22,95,2,828,155,22,95,2,529,20268,168,635,95,2,150,157,17,1165,919,2,216,94,22,95,2,913,635,95,2,675,122,22,27,1234,2,1225,1697,1240,43,1364,95,2,636,818,856,168,95,2,5,20269,7154,41 1,1,1,7,1,1,1,1,1,1,1,1,1,1,1,1,12,1,1,1,1,1,1,1,1,1,1,1,1,1,1,1,1,1,4,1,1,1,1,1,7,9,7,7,7,1,15,1,1,1,1,1,1,1,1,14,1,1,1,1,1,1,1,1,1,1,1,1,1,1,1,1,1,1,1,1,1,1
149,30,4,651,5,1114,611,7,2734,1262,2,395,151,127,5,1047,2,74,14,96,30,7,101,80,12,24,10564 1,1,1,1,1,1,1,1,1,1,1,1,1,1,1,1,1,1,1,1,1,1,1,1,1,1,1
204,30,4,1562,2,264,17,6,9115,698,1927,12,12064,2,668,991,3580,15,86 1,1,1,1,1,1,1,1,1,1,1,1,1,1,1,1,1,1,1
16,14,15,3463,2,113,31,154,242,366,2,16,14,985,10,47,211,7,177,1995,5227,37,57,246,984,10,24,3223,2,1198,16,5579,16,344,31,2086,10,24,2109,1121,457,532,7,211,17,175 1,1,1,10,1,1,1,1,1,1,1,1,1,1,1,1,1,1,1,1,1,1,1,1,1,1,1,1,1,1,1,1,1,1,1,1,1,1,1,1,1,1,1,1,1,1
30,7,63,361,4,6,29,63,89,17,1674,105 1,1,1,1,1,1,1,1,1,1,1,1
6,29,267,16,21,1517,20270,93,37,179,16,2816,10,20271,20272,79,2,685,20273,24,2448,13,401,32,15,4022,5,16,629,37,14,6,431,17,24,72,2,2007,7,187,215,6,86 1,1,1,1,1,1,1,1,1,1,1,1,1,1,1,1,1,1,1,1,1,1,1,1,1,1,1,1,1,1,1,1,1,1,1,1,1,1,1,1,1,1,1
16,21,65,9116,2169,2859,12,24,349 1,1,1,1,1,1,1,1,1
136,15,471,2,24,73,401,45,3408,615,458,43,24,148 1,1,1,1,1,1,1,1,1,1,1,1,1,1
16,93,39,68,402,107,115,219,4213,986,97,98,93,83 1,1,1,1,1,1,1,1,1,1,1,1,1,1
16,21,39,11,308,2483,470,215,6,82,55,130,21,39,11,93,48,33,2,233,7,183,26,740 1,1,1,1,1,1,1,1,1,1,1,1,1,1,1,1,1,1,1,1,1,1,1,1
16,111,62,5205,6831,17,15,2527,5475 1,1,1,1,1,1,1,1,1
13,24,2801,4181,738,10,52,264,1115,1573,10,194,179,685,6524,24,2294 1,1,1,1,1,1,1,1,1,1,1,1,1,1,1,1,1
16,148,11,275,2,4315,2,507,2,301,2,392,26,472 1,1,1,1,1,1,1,1,1,1,1,1,1,1
467,2,16,21,39,11,93,48,33,2,740,2,26,692 1,1,1,1,1,1,1,1,1,1,1,1,1,1
16,21,39,11,1820,2,4172,2,1420,2,4428,2,3039,2,845,2,1174,26,1554 1,1,1,1,1,1,1,1,1,1,1,1,1,1,1,1,1,1,1
105,107,4,73,100,14,12065,12,6,75,313,2,890,11610,2,137,1314,2,1538,57,763,2,689,904,977,42,19,712,698 1,1,1,1,1,1,1,1,1,1,1,1,1,1,1,1,1,1,1,1,1,1,1,1,1,1,1,1,1
16,14,1521,2787,5947,2,3743,647 1,1,1,1,1,1,1,1
2786,20274,234,4,1184,2,1135,2,1206,57,924,1534,5,1186,10,718,5,3497 1,1,1,1,1,1,1,1,1,1,1,1,1,1,1,1,1,1
2143,736,151,203 1,1,1,1
16,21,39,750,3400,12066,103 1,1,1,1,1,1,1
3239,151,203 1,1,1
1277,20,90,97,769,26,1443 1,1,1,1,1,1,1
385,151,414 1,1,1
5092,151,883 1,1,1
134,14,351,351,97,937,2,817,26,870 1,1,1,1,1,1,1,1,1,1
152,57,90,10,478,103,97,420,2,506,26,1222 1,1,1,1,1,1,1,1,1,1,1,1
138,150,169,5,245,2,44,276,2,282,2,11,208,2,506,26,560,151,901 1,1,1,1,1,1,1,1,1,1,1,1,1,1,1,1,1,1,1
221,14,159,2,414,2,1695 1,1,1,1,1,1,1
16,21,15,378,3205,806,37,14,31,3301,5,320,309,57,308 1,1,1,1,1,1,1,1,1,1,1,1,1,1,1
16,21,11,1131,5,74,14,11,835,250 1,1,1,1,1,1,1,1,1,1
131,57,97,753,2,711,26,88 1,1,1,1,1,1,1,1
16,113,45,185,1397,5,8218,7,6,6220,7,395,786,515,13,3667 1,1,1,1,1,1,1,1,1,1,1,1,1,1,1,1
16,21,11,1508,1479,7,6,786 1,1,1,1,1,1,1,1
310,2,16,14,452,5,661,1098,5,995,2212,13,203,525,498,10,718,1008,12,395,786 1,1,1,1,1,1,1,1,1,1,1,1,1,1,1,1,1,1,1,1,1
16,21,11,202,817,5,24,623,107,115,11,877,26,769 1,1,1,1,1,1,1,1,1,1,1,1,1,1
210,5,108,4,189,1674,105,2,1468,945 1,1,1,1,1,1,1,1,1,1
6,29,39,15,779,12,9704,5,20,954,10,482,192,12,8234,532,7,645,1260 1,1,1,1,1,1,1,1,1,1,1,1,1,1,1,1,1,1,1
50,252,390,1071,491,1899,89,17,164,145,6483 1,1,1,1,1,1,1,1,1,1,1
2547,57,4095 1,1,1
16,252,370,68,7376,5,15,5120,1368,1179,849,24,4565,5,17,9117,6428 1,1,1,1,1,1,1,1,1,1,1,1,1,1,1,1,1
24,1693,14,272,10,52,15,3343,12,55,86,1319,84 1,1,1,1,1,1,1,1,1,1,1,1,1
102,57,390,15,1200,5,15,11791,1674,118,89 1,1,1,1,1,1,1,1,1,1,1
141,151,96,2350,12,6,632,17,842,2,5623,2,5,538,1712 1,1,1,1,1,1,1,1,1,1,1,1,1,1,1
6,29,14,1542,6946,27,38,84 1,1,1,1,1,1,1,1
102,40,390,15,973,12,35,86,17,68,1674,105 1,1,1,1,1,1,1,1,1,1,1,1
190,428,187,328,55,72 1,1,1,4,4,11
6,29,21,132,9116,2169,2859,71,24,349,2,643,50,172,1385,2275,2462,2856,3762,401 1,1,1,1,1,1,1,1,1,1,1,1,1,1,1,1,1,1,1,1
390,147,15,691,412,89,2,359,17,1369,2,538,1078,5,358,32,61,32,15,415,5,15,4729 1,1,1,1,1,1,1,1,1,1,1,1,1,1,1,1,1,1,1,1,1,1,1
50,240,390,87,24,157,529,1870,168,95,2,51,102,197,163,10,390,68,1653,285,124,24,412,511,217,1172,2275,253 1,1,1,1,1,9,4,1,1,1,1,1,1,1,1,1,1,1,1,1,1,1,1,1,1,1,1,1
102,252,390,1548,142,302,5,305,32,38,14,15,840,20275,10,24,371,187 1,1,1,1,1,1,1,1,1,1,1,1,1,1,1,1,1,1
50,240,390,104,114,12,117,10,213,130 1,1,1,1,1,1,1,1,1,1
220,254 1,7
102,40,147,15,1013,2,538,1078,5,371,10,5306,37,16,14,12,230,1677,2486 1,1,1,1,1,1,1,1,1,1,1,1,1,1,1,1,1,1,1
50,172,1385,87,428,187,72,146,24,82,30 1,1,1,1,1,1,11,1,1,1,1
281,206,13,30,7,900 1,11,1,1,1,1
16,21,39,68,6291,6524,93 1,1,1,1,1,1,1
102,40,147,15,538,1078,89 1,1,1,1,1,1,1
102,240,161,10,20276,17,68,593,600,300,596,146,24,360,307,166,2,50,240,390,83,24,1176,10,15,2220,225,124,627,27,37,808 1,1,1,1,1,1,1,1,1,1,1,1,1,1,1,1,1,1,1,1,1,1,1,1,1,1,1,1,1,1,1,1
574,3273,7586,2,106 1,1,1,1,1
847,20277,9118,2542,841,4,9119,859,4,9119,852,4,9119 1,1,1,1,1,1,1,1,1,1,1,1,1
