67,53,4,20410,632,54,4250,2,3761,49,7604,1412,875,2,2484,21,39,11,387,48,33 1,1,1,1,1,1,1,1,1,1,1,1,1,1,1,1,1,1,1,1,1
359,279,10,542,84,15,405,51,31,246,1065,468,6,58 1,1,1,1,1,1,1,1,1,1,1,1,1,1
2653,316,7,23,545,939 1,1,1,1,8,1
87,10,45,125,449,12,23,75,2556,579,455,6,567,7,23,280 1,1,1,1,1,1,1,1,1,1,1,1,1,1,1,1
31,2757,13,6,5308,37,151,146,23,17,23,6078,33,532,18,344,343,154,1374,13,20411,2575 1,1,1,1,1,1,1,1,1,1,1,1,1,1,1,1,1,1,1,1,1,1
21,39,125,75,473,449 1,1,1,1,1,1
244,4,2970,715,1661,1215,1001 1,1,10,1,1,1,1
198,407,1215,1001 19,1,1,1
545,235,1215,1191 8,1,1,1
2413,94,1215,1001 5,1,1,1
3908,2613 1,1
20412,12,6,56,313,2,20413,12,6,75 4,5,5,5,5,1,5,5,5,5
4165,230,500,7,730,7,6,75,473 1,1,1,1,1,1,1,1,1
74,14,125,8133,215,6,1328,623 1,1,1,1,1,1,1,1
11,9136,26,20414,2315,250 1,1,1,1,1,1
295,500,7,730 1,1,1,1
152,57,90 1,1,1
159,2,286,982 1,1,1,1
11,917,88 1,1,1
189,206 1,11
172,61,97,757 1,1,1,1
190,127 1,5
50,1968,23,545 1,1,1,8
40,822,38,136,18,21,65,47,395,41,4743 1,1,1,1,1,1,1,1,1,1,1
220,72 1,9
40,147,15,371,89,5,50,1968,23,2413 1,1,1,1,1,1,1,1,1,5
281,743,75,7482 1,1,1,1
18,14,31,2008,12,98,3390,345,426,102,40,31,2672,674,27,38,84 1,1,1,1,1,1,1,1,1,1,1,1,1,1,1,1,1
18,39,15,69,237,12,12106,50,1462,23,19,1583,1215,7,3111,542,84,15,58 1,1,1,1,1,1,1,1,1,1,1,1,1,1,1,1,1,1,1
380,6078,33 1,1,1
38,14,90,31,37,5085,37,18,199,37,92,14,297,1549,10,1944,20415,2575 1,1,1,1,1,1,1,1,1,1,1,1,1,1,1,1,1,1
501,75,473,33 1,1,1,1
18,197,45,125,143,2163,2216,8858 1,1,1,1,1,1,1,1
102,214,6,1549,7,31,20416,38,473,5,1512,2665,2686,20417,300,15,2448,2952 1,1,1,1,1,1,1,1,1,1,1,1,1,1,1,1,1,1
3111,1583,1215,2638 1,1,1,1
19,15,295,2929 1,1,1,1
50,115,23,125,500,7,730,305 1,1,1,1,1,1,1,1
4205,3121,7605,2,106 1,1,1,1,1
20418,4250,2,3761,49,7604,36,55,36,1412,875,2,2484,841,4,12107,859,4,20419,852,4,12107,257,2534,51,31,85,43,262,934,257 1,1,1,1,1,1,1,1,1,1,1,1,1,1,1,1,1,1,1,1,1,1,1,1,1,1,1,1,1,1,1
