67,53,4,21171,367,171,170,10192,400,4,1685,4332,41,67,4,49,6581,53,7,176,4,21172,262,4,62,3601,421,4,59,21173,33,30,7,63,361,4,70,14,15,1679,323,697,119,103,2796,1789,66,43,62,3601,120,39,65,326,1394,324,114,10,1771,2174,97,785,2,136,24,184,1789,12,3877,5,59,1789,12,1537,7,38,86 1,1,1,1,1,1,1,1,1,1,1,1,1,1,1,1,1,1,1,1,1,1,1,1,1,1,1,1,1,1,1,1,1,1,1,1,1,1,1,1,1,1,1,1,1,1,1,1,1,1,1,1,1,1,1,1,1,1,1,1,1,1,1,1,1,1,1,1,1,1,1,1,1,1,1,1,1
16,12,1649,739,62,3601,19,21174,5,39,15,230,979,137,27,37,84,19,6,56 1,1,1,1,1,1,1,1,1,1,1,1,1,1,1,1,1,1,1,1
306,2,178,109,173,16,904,19,6,1032,17,21175,548,172,5512,264,2,2849,27,6,657,5,437,2849,27,6,372,2,5,37,405,16,1220,10,45,1354,5,4017,362,33,19,6,59,567 1,1,1,1,1,1,1,1,1,1,1,1,1,1,1,1,1,1,1,1,1,1,1,1,1,1,1,1,1,1,1,1,1,1,1,1,1,1,1,1,1,1,1,1
38,99,17,21176,548 1,1,1,1,1
16,1014,10,24,480,120,20,497,37,16,197,45,6551,24,535,146,16,39,15,1336,979,137,19,6,59,2,5,96,39,396,68,570,7,769,19,6,59,536,1354,76,6,480,1385,10,52,1242 1,1,1,1,1,1,1,1,1,1,1,1,1,1,1,1,1,1,1,1,1,1,1,1,1,1,1,1,1,1,1,1,1,1,1,1,1,1,1,1,1,1,1,1,1,1
16,20,1577,2598,43,24,480,76,16,118,19,7167,2,5,6,29,148,24,769,21,253,160,118,6,2116 1,1,1,1,1,1,1,1,1,1,1,1,1,1,1,1,1,1,1,1,1,1,1,1,1
16,268,12307,62,3601,120,557,1336,564,979,137,19,6,59,2,270,621,10,535,12308,1986,1715,2,5,1159,6,29,10,52,170,89,17,161,1754,5,270,7660,12,6,248 1,1,1,1,1,1,1,1,1,1,1,1,1,1,1,1,1,1,1,1,1,1,1,1,1,1,1,1,1,1,1,1,1,1,1,1,1,1,1,1
19,544,16,21,39,11,21177,10485,33 1,1,1,1,1,1,1,1,1
82,41,30,4,72,2,905,2,206,119,2233,2,135,2,1805,2,704,3215,71,5832,898,9,2941,443,79,8,5,2116,1211,2,1387,1047,2,716,2,1992,119,21178,82,586,30,4,103,609,3102,59,2796,1789,3123,21179,2402,1023,36,655,3601,21180,75,3721,3002,1789,13,21181,21182,3513,21183,655,6035,3601,56,473,3876,3568,11004,139,4,789,41,4,241,122,549,2991,533,549,243,505,550,3976,123,550,255,227,550,654,1872,64,3407,667,34,12309,2926,1293,2598,487,895,112,517,58,9,21184,8,105,78,4,21185,21186,1518,21187,6153,977,42,670,202,4,4306,474,134,4,351,218,4,11,207,152,4,1366,666,4,456,276,282,365,4,159,3130,1353,2,11,236,207,4,180,137,4,218,59,4,196,184,4,196,1311,59,4,196,184,4,196,609,59,4,196,184,4,196,3002,59,4,1169,184,4,1169,979,59,4,1247,184,4,1247,70,59,4,31,1247,184,4,1247,535,59,4,1247,184,4,1247,1025,4,59,536,1456,378,21188,570,7,769,2,143,250,2,21189 1,1,1,1,19,1,1,1,16,1,75,1,12,1,41,1,1,1,1,1,1,1,1,1,1,1,1,1,1,1,1,1,1,1,1,1,1,1,1,1,1,1,1,1,1,1,1,1,1,1,1,1,1,1,1,1,1,1,1,1,1,1,1,1,1,1,1,1,1,1,1,1,1,1,1,1,1,1,15,1,1,9,1,1,8,1,1,12,1,1,4,1,1,11,1,1,1,1,1,1,1,1,1,1,1,1,1,1,1,1,1,1,1,1,1,1,1,1,1,1,1,1,1,1,1,1,1,1,1,1,1,1,1,1,1,1,1,1,1,1,1,1,1,1,1,1,1,1,1,1,1,1,1,1,1,1,1,1,1,1,1,1,1,1,1,1,1,1,1,1,1,1,1,1,1,1,1,1,1,1,1,1,1,1,1,1,1,1,1,1,1,1,1,1,1,1,1,1,1,1,1,1,1,1,1,1,1,1,1,1,1,1,1,1,1,1,1,1,1
93,263,4,141,4,145,1641,258,1781,1377 1,1,1,1,1,1,1,1,1,1
500,168,386,429,1550,9,1284,8,325,386,673,2005,9,1249,8,325,386,790,2659,9,1285,8,325,386,1067,1623,12171,9,1383,8,325,483,3879,9,1436,8,193,1490,2121,9,1662,8,193,1046,949,9,1624,8,1384,386,1782,1967,763,9,1286,8,193,386,358,1459,9,1535,8,193,386,371,5394,77,9,1333,8,193,493,972,3920,9,2401,8,598,1343,2066,9,2346,8,598,1841,2380,9,2172,8,598,454,1117,1396,9,2347,8,193,493,1117,1289,9,2783,8,193,1731,1762,5123,77,9,3527,8,658,2280,1800,9,3528,8,658,2279,2406,9,3539,8,3540,2171,2744,9,3541,8,3542,2225,1495,9,3375,8,658,330,2490,9,1250,8,430,296,11230,59,9,1868,8,42,499,3941,9,2080,8,1367,660,21190,59,9,2189,8,1700,484,8262,9,1460,8,1287,578,1593,9,1321,8,1153,700,6004,9,1409,8,1516,737,8309,77,9,1410,8,598,701,3162,9,1356,8,42,1100,1101,370,1292,1050,376,70,3828,9,4732,8,1059,1049,1256,2042,6691,9,4733,8,1059,319,4,1679,323,697,119,103,2796,1789,66,120,132,63,13,311,1867,33,161,621,10,535,12308,1986,1715 1,1,1,1,1,1,1,1,1,1,1,1,1,1,1,1,1,1,1,1,1,1,1,1,1,1,1,1,1,1,1,1,1,1,1,1,1,1,1,1,1,1,1,1,1,1,1,1,1,1,1,1,1,1,1,1,1,1,1,1,1,1,1,1,1,1,1,1,1,1,1,1,1,1,1,1,1,1,1,1,1,1,1,1,1,1,1,1,1,1,1,1,1,1,1,1,1,1,1,1,1,1,1,1,1,1,1,1,1,1,1,1,1,1,1,1,1,1,1,1,1,1,1,1,1,1,1,1,1,1,1,1,1,1,1,1,1,1,1,1,1,1,1,1,1,1,1,1,1,1,1,1,1,1,1,1,1,1,1,1,1,1,1,1,1,1,1,1,1,1,1,1,1,1,1,1,1,1,1,1,1,1,1,1,1,1,1,1,1,1,1,1,1,1,1,1,1,1,1,1,1,1,1,1,1,1,1,1,1,1,1,1,1,1,1,1,1,1,1,1,1,1,1,1,1,1,1,1,1,1,1,1,1,1,1,1,1,1
390,4,26,12,248,17,1754,5,270,1867,7660 1,1,1,1,1,1,1,1,1,1,1
5324,242,17,340,1242,2381,141,32,288,2,1924,376 1,1,1,1,1,1,1,1,1,1,1,1
167,4,5828,933,2,59,1003,2268 1,1,1,1,1,1,1,1
508,4,5828,90,4115 1,1,1,1,1
328,5,994,4,5828,1301,2588,370 1,1,1,1,1,1,1,1
1221,321,3514,2,1760,321,3514,70,2385,17,554,2,2385,12,922 1,1,1,1,1,1,1,1,1,1,1,1,1,1,1
21191,1691,17,158,2834,186,10,3081 1,1,1,1,1,1,1,1
29,214,13,62,4341,21192,2,367,1129 1,1,1,1,1,1,1,1,1
9078,10465,21193,2,367,171,4322,413,2,742,21194 1,1,1,1,1,1,1,1,1,1,1
