67,53,4,21288,1379,1155,2,9225,4462,5834,2,106 1,1,1,1,1,1,1,1,1,1,1,1
2769,8593,561,589,4,3965,4482,12340,168,49,4,9223,853,62,5834,4,50,39,6,1070,7,111,3965,4482,89,13,607,10,4943,6171,215,6,1940,1498,7,23,56,362 1,1,1,1,1,1,1,1,1,1,1,1,1,1,1,1,1,1,1,1,1,1,1,1,1,1,1,1,1,1,1,1,1,1,1,1,1,1
32,356,57,1833,2,18,14,15,8486,439,13,15,30,7,3596,72,369,5,5596,8650,7,23,56,362,37,21,258,12,15,12341,5979,2168 1,1,1,1,1,1,1,1,1,1,1,1,1,1,10,7,10,1,1,1,1,1,1,1,1,1,1,1,1,1,1,1
18,129,1944,3497,5308,2181,17,21289,13,23,2168 1,1,1,1,1,1,1,1,1,1,1
18,21,54,37,1988,215,6,99,279,109,26,426,37,15,4943,21,2266,1110,6,1940,536,1498,7,6,56,362 1,1,1,1,1,1,1,1,1,1,1,1,1,1,1,1,1,1,1,1,1,1,1,1,1,1
18,91,98,1344,2,769,2,26,116,417,26,3715,12,6,362 1,1,1,1,1,1,1,1,1,1,1,1,1,1,1
23,5308,151,1077,12,1561,5,738,10,52,264,353,61,17,23 1,1,1,1,1,1,1,1,1,1,1,1,1,1,1
18,170,306,37,215,6,99,130,5,1917,26,426,37,18,21,65,1944,3779,37,23,129,5308,172,31,3183,12 1,1,1,1,1,1,1,1,1,1,1,1,1,1,1,1,1,1,1,1,1,1,1,1,1,1
771,2,18,21,39,10,21290,10,23,333,5308,2,76,252,31,47,23,5596,2168,908,3739 1,1,1,1,1,1,1,1,1,1,1,1,1,1,1,1,1,1,1,1,1
23,82,41,30,14,185,17,72,369,5,188,128,80 1,1,1,1,1,1,1,7,1,1,10,10,10
23,41,156,3405,2,556,2,950,2,68,198,15,58,2,1743,2,483,1660,2,15,6389,636,2,878,157,2,5,2070,13,851 1,1,1,1,1,1,1,1,1,1,12,1,1,1,11,1,1,1,1,1,1,1,1,4,9,7,7,9,1,1
18,47,4091,2,531,2,5,814,715,2,32,61,32,241 1,1,1,1,1,1,1,7,4,1,1,1,1,41
23,82,586,30,14,185,17,2291,12,1668,2,1970,892,12,2263,2,188,128,734,171,84,944,12,2414,2,15,871,659,12,2750,2,5,15,1970,5260,12,21291,18,353,232,4509,86,173,5,21,11,363,139,10,41 1,1,1,1,1,1,1,1,1,1,1,1,1,1,1,1,1,1,1,1,1,1,1,1,1,1,1,1,1,1,1,1,1,1,1,1,1,1,1,1,1,1,1,1,1,1,1,1,1,1
105,107,14,582,1104,1021,23,56,362 1,1,1,1,1,1,1,1,1
18,21,1336,498,10,21292,107,13,15,21293,21294,3666 1,1,1,1,1,1,1,1,1,1,1,1
18,21,335,419,2354,2,223,7,76,45,1255,3403 1,1,1,1,1,1,1,1,1,1,1,1
18,113,45,15,824,2326,2150,137 1,1,1,1,1,1,1,1
6,212,14,7,44,3410 1,1,1,1,1,1
18,21,11,308,1940,391,19,1288,279,589,4,3965,4482,53,4,1379,1155,2,9225,1347,362 1,1,1,1,1,1,1,1,1,1,1,1,1,1,1,1,1,1,1,1,1
27,6,1650,7,23,12341,5979,2168,19,6,56,567,74,14,15,4943,37,50,539,21295,12,6,632,1110,76,14,15,1655,558,391 1,1,1,1,1,1,1,1,1,1,1,1,1,1,1,1,1,1,1,1,1,1,1,1,1,1,1,1,1,1
11,311,788,151,640,89 1,1,1,1,1,1
537,4,1655,558,391,2,72,56,362 1,1,1,1,1,1,1,1,1
108,4,18,21,31,2853,6,21296,19,23,56,362,2,306,2,494,18,87,10,21297,97,2228,21298,92,14,343,15,3469,7,84,329,38,396,908,15,1655,50,391 1,1,1,1,1,1,1,1,1,1,1,1,1,1,1,1,1,1,1,1,1,1,1,1,1,1,1,1,1,1,1,1,1,1,1,1,1,1
92,14,906,10,291,1095,6,4401,14,68,5308,37,163,10,52,12342,26,6,1649,37,18,21,65,1944,3779,13,68,9157,5308 1,1,1,1,1,1,1,1,1,1,1,1,1,1,1,1,1,1,1,1,1,1,1,1,1,1,1,1,1
50,248,568,10,45,23,111,8498,10901,2,1085,21299,10,45,6,21300,12342,13,21301 1,1,1,1,1,1,1,1,1,1,1,1,1,1,1,1,1,1,1
50,45,794,599,4482,10,1631,6,2575,37,18,2181,1944,32,61,32,6,3779,18,1944 1,1,1,1,1,1,1,1,1,1,1,1,1,1,1,1,1,1,1,1
102,40,104,38,396,984,32,599,4482,14,6947,1833,7,6,1433,21302,7,2266,68,391 1,1,1,1,1,1,1,1,1,1,1,1,1,1,1,1,1,1,1,1
18,725,10,782,291,124,18,21,98,743,26,497,12,6,2897 1,1,1,1,1,1,1,1,1,1,1,1,1,1,1
1012,356,3334,17,38,1449 1,1,1,1,1,1
1729,1121,607,2,12343,1947,9226,9227,2,106 1,1,1,1,1,1,1,1,1,1
21303 1
