67,53,4,21416,5593,315,1300,110,2635,2,4256,4403,9239,110,53,4,21417,63,278,4,48,449 1,1,1,1,1,1,1,1,1,1,1,1,1,1,1,1,1,1,1,1,18,18
30,7,63,278,4,38,14,15,12364,802,120,39,15,6240,434,7,48,449,762,6,405,2,99,405,2,5,908,89 1,1,1,1,1,1,1,1,1,1,1,1,1,1,1,1,18,18,1,1,1,1,1,1,1,1,1,1
16,608,1351,838,46,27,200,910,26,7332,1864,5,38,6166,24,48,449 1,1,1,44,44,1,1,1,1,1,1,1,1,1,1,18,18
6,29,21,363,30,7,188,128,80,5,93,39,2506,192,19,24,188,1000,1658,2,306,2,939,136,15,21418,2,16,1714,131,2641,2,297,2641,300,766 1,1,1,1,10,10,10,10,10,1,1,1,1,1,1,1,1,1,1,1,1,1,1,1,1,1,1,1,1,1,1,1,1,1,1,1
16,1302,16,1267,45,4643,92,15,2190,5,16,416,762,6,416,7,6,58 1,1,1,1,1,1,1,1,1,1,1,1,1,1,1,1,1,1
268,99,405,2,16,39,125,48,449,2,76,16,444,252,31,629,615,7 1,1,1,1,1,1,1,18,18,1,1,1,1,1,1,1,1,1
268,20,268,397,13,125,233,7,183,12,6,881,486,548 1,1,1,1,1,1,1,1,1,1,1,1,1,1
16,597,16,20,420 1,1,1,1,1
38,523,136,16,1229,114,5,324,1021 1,1,1,1,1,1,1,1,1
16,1351,6,838,46,38,486 1,1,1,44,44,1,1
513,151,12197,838,46,16,39,1058,640,5,38,2,12,1649,2,523,24,126 1,1,1,44,44,1,1,1,1,1,1,1,1,1,1,1,1,1
16,268,1441,12,10,111,62,5691,2,24,327,2,12,226,5,20,758,10,6,315,481,17,176 1,1,1,1,1,1,1,1,1,1,1,1,1,1,1,1,1,1,1,1,1,1,1
383,111,6,6872,315,481,67,17,466,393 1,1,1,1,1,1,1,1,1,1
82,41,30,4,188,128,80,204,30,5,149,30,4,111,6872,315,481,67 1,1,1,1,10,10,10,1,1,1,1,1,1,1,1,1,1,1
105,107,4,6,29,14,63,1196,2,31,3885 1,1,1,1,1,1,1,1,1,1,1
24,73,100,14,3322 1,5,5,5,5
24,138,169,14,12,6,3475 1,1,1,1,1,1,1
74,14,11,181,7,887,138,377,19,107 1,1,1,1,1,1,1,1,1,1
74,14,11,1081,628,1358,5,24,152,57,90,10,478 1,1,1,1,1,1,1,1,1,1,1,1,1
24,138,107,14,1699,2,13,11,208,26,560,901 1,1,1,1,1,1,1,1,1,1,1,1
24,131,45,564,88 1,1,1,1,1
221,12,159,5,976 1,1,1,1,1
137,57,924 1,1,1
489,176,4,24,1251,115,15,56,2847,1741,1757,13,11,83,12,6137,71,326,564 1,1,1,1,1,1,1,1,1,1,1,1,1,1,1,1,1,1,1
24,175,489,263,57,376 1,1,1,1,1,1
345,1863,12,222,4,6,1461,20,214,13,24,327,2,62,5691 1,1,1,1,1,1,1,1,1,1,1,1,1,1,1
102,395,755,37,6,29,21,1017,39,15,584,7,24,188,754,13,270,2303,2319,2,146,24,287,7,233,7,183,5,1943,1942,399 1,1,1,1,1,1,1,1,1,1,1,1,1,1,1,1,1,1,1,1,1,1,1,1,1,1,1,1,1,1,1
92,14,270,37,16,21,4818,338,2,76,14,31,181,532,7,6,56,2847,1741,1757 1,1,1,1,1,1,1,1,1,1,1,1,1,1,1,1,1,1,1,1
376,6,175,176,5,263,2,76,57,52,758,27,38,84,2,6,29,40,627,121,17,273,41,388 1,1,1,1,1,1,1,1,1,1,1,1,1,1,1,1,1,1,1,1,1,1,1,1
608,537,4,195,188,797,2,188,128,80 1,1,1,1,1,1,1,10,10,10
683,9,156,614,751,271,8,4,6,29,20,170,10,6,121,12,219,614 1,1,1,1,1,1,1,1,1,1,1,1,1,1,1,1,1,1
1380,21419,2701,9240,2,106 1,1,1,1,1,1
12365,21420,21421,606,43,4,2701,9240,2,106 1,1,1,1,1,1,1,1,1,1
12365,257,31,85,43,262,327,257 1,1,1,1,1,1,1,1
