67,53,4,21400,1217,624,2,1668,2174,5691,2,106 1,1,1,1,1,1,1,1,1,1,1,1
5593,304,317,397,5593,267,121,763,7156,561,7974,2,409,12359,589,4,2635,2,4256,1843,528,4,9239,853,2174,4,50,39,6,1070,7,111,318,2635,12,603,211,89 1,1,1,1,1,1,1,1,1,1,1,1,1,1,1,1,1,1,1,1,1,1,1,1,1,1,1,1,1,1,1,1,1,1,1,1,1,1
38,3887,21401,333,509,21,39,82,41,30,682,17,188,128,80,2,127,2,645,696,1480,2,337,2,1932,2,1375,166,332,493,372,943 1,1,1,1,1,1,1,1,1,1,1,1,10,10,10,1,8,1,1,1,1,1,1,1,1,1,1,1,1,1,1,1
16,63,89,532,7,15,93,1120,7,1635,188,128,80 1,1,1,1,1,1,1,1,1,1,10,10,10
24,30,7,188,128,80,1869,13,24,63,104,24,493,372,943,12,1217,7,8349,12,21402,16,39,68,287,7,4573,374,5,904,455 1,1,1,10,10,10,1,1,1,1,1,1,1,1,1,1,1,1,1,1,1,1,1,1,1,1,1,1,1,1,1
16,39,11,90,2372,48,100,2,302,7,3196,26,88 1,1,1,1,1,1,1,1,1,1,1,1,1
1232,27,37,84,156,15,6328,145,76,252,31,90,707,338,5,68,1146,13,68,893,1166,7,227,42 1,1,1,1,1,1,1,1,1,1,1,1,1,1,1,1,1,1,1,1,1,1,1,1
16,1220,345,27,37,808,12,84,13,198,2,3858,2,636,1793,2,260,2,1035,2,2038,2,12357,2,2340,2,5,2024 1,1,1,1,1,1,1,1,1,11,1,87,1,1,1,1,1,1,16,1,1,1,1,1,1,1,1,1
16,39,65,777,7,387,134,2,48,2,313,5,1233,33,2,1943,1942,399,2,692,2,411,2,785,5,1470,585,38,82,2032 1,1,1,1,1,1,1,1,1,1,1,1,1,1,1,1,1,1,1,1,1,1,1,1,1,1,1,1,1,1
16,1799,39,375,246,61,13,307,679,2637,156,464,101,1000,27,12360,5,104,15,21403,142,2637,1658,5,341,24,142 1,1,1,1,1,1,1,1,1,1,1,1,1,1,1,1,1,1,1,1,1,1,1,1,1,1,1
12,1111,7,1668,16,1220,1045,37,179,16,20,568,114,6,1376,2191,12,24,1330,16,1220,45,21404,48,449,5,125,399,27,6,975,7,6,1826 1,1,1,1,1,1,1,1,1,1,1,1,1,1,1,1,1,1,1,1,1,1,18,18,18,18,18,18,1,1,1,1,1,1
16,469,264,13,6,21405,27,37,808,5,20,444,19,2082,345 1,1,1,1,1,1,1,1,1,1,1,1,1,44,1
160,37,84,16,21,54,37,16,21,39,185,341,12,126,5,215,6,82,109,21,1799,39,11,163,10,47,2918,838,5,21,65,47,6,295,2617,7,1826,97,524 1,1,1,1,1,1,1,1,1,1,1,1,1,1,1,1,1,1,1,1,1,1,1,1,1,1,44,28,1,1,1,1,1,1,1,1,1,1,1
16,113,54,644,5,1932,1161,37,16,14,440,343,55,10,117,548,15,405 1,1,1,1,1,1,1,1,1,1,1,1,1,1,1,1,1,1
16,113,87,10,52,777,7,1943,1942,399,2,692,2,411,26,1239 1,1,1,1,1,1,1,1,1,1,1,1,1,1,1,1
41,346,156,3272,2,2680,2,2621,122,2554,2,255,2,2024,2,2038,5,198 1,1,1,1,1,1,1,28,1,1,1,9,1,1,1,1,1,11
16,21,11,363,366,139 1,1,1,1,1,1
19,105,78,73,100,179,16,569,889,27,226,20,54,10,52,21406 1,1,1,1,1,1,1,1,1,1,1,1,1,1,1,5
27,6,63,84,92,14,21407,13,15,2635,2,4256,1843,528,4,9239,1217,624,2,1668,1288,279,138,169,7,1473,5,15,410,169,7,1066,74,14,11,116,12,1081,628,100 5,5,5,5,5,5,5,1,1,1,1,1,1,1,1,1,1,1,1,1,1,1,1,1,1,1,1,1,1,1,1,1,1,1,1,1,1,1,1,1
24,218,57,777,7,207 1,1,1,1,1,1
24,152,57,2058,90,10,478,762,2,5,101,78,14,682,17,15,3809,1415,2,276,5,21408,282,13,11,208,2,506,26,560 1,1,1,1,1,1,1,1,1,1,1,1,1,1,1,1,1,1,1,1,1,1,1,1,1,1,1,1,1,1
294,78,14,682,17,15,2752,806 1,1,1,1,1,1,1,1
74,14,11,1131,5,4688,57,74,207,63 1,1,1,1,1,1,1,1,1,1
229,131,57,682,17,196,609,2,1063,2,2326,2150,5,795,1982,137,13,11,88 1,1,1,1,1,1,1,1,1,1,1,1,1,1,1,1,1,1,1
212,78,14,682,343,17,6,21409,12361 1,1,1,1,1,1,1,1,1
1251,14,682,17,15,56,2847,1741,861,76,14,311,160,186,564,1386,436,7,21410 1,1,1,1,1,1,1,1,1,1,1,1,1,1,1,1,1,1,1
1158,20,682,343,17,15,1433,2767,2339,1558,5,11,185,338,19,21411 1,1,1,1,1,1,1,1,1,1,1,1,1,1,1,1
6,893,1166,19,15,7479,8736,20,2040,42 1,1,1,1,1,1,1,1,1,1
12,1212,2,92,205,37,318,2635,197,45,1446,15,311,768,475,258,12,15,56,2847,1741,861,12,1111,7,7515,16,563,2,306,2,96,45,396,24,584,2852,191,80,5,45,6,2767,1558,19,24,1158,1596,343,10,15,56,2847,1741,861 1,1,1,1,1,1,1,1,1,1,1,1,1,1,1,1,1,1,1,1,1,1,1,1,1,1,1,1,1,1,1,1,1,1,1,1,1,1,1,1,1,1,1,1,1,1,1,1,1,1,1,1,1,1,1
50,40,52,85,6,803,674,10,726,826,608,1642 1,1,1,1,1,1,1,1,1,1,1,1
12,1347,607,16,14,132,777,7,126,19,24,129,41,346,1172,24,116,142,5,24,116,73,100 1,1,1,1,1,1,1,1,1,1,1,1,1,1,1,1,1,1,1,1,1,1,1
50,1555,755,13,273,1199,71,1339,5,142,302,5,1680,13,1743,345,76,50,240,116,10,312,22,355 1,1,1,1,1,1,1,1,1,1,1,1,1,1,68,1,1,1,1,1,1,1,1,1
1001 1
50,96,240,442,273,341,7,24,593,13,1142,345,51,240,343,442,38,136,210,24,985,10,21412,24,1339,1658 1,1,1,1,1,1,1,1,1,1,1,1,1,1,1,1,1,1,1,1,1,1,1,1,1,1
146,24,2007,7,126,27,6,63,84,13,24,766,95,308,2,50,240,2403,10,1680,19,6,41,345,3840 1,1,1,1,1,1,1,1,1,1,1,1,1,1,1,1,1,1,1,1,1,1,1,1,1
50,629,37,16,563,52,12362,10,1000,27,12360,13,6,1282,37,273,2270,344,265,194,192,19,1418,12,2011,7,307,679,2637 1,1,1,1,1,1,1,1,1,1,1,1,1,1,1,1,1,1,1,1,1,1,1,1,1,1,1,1,1
50,1555,909,2264,10,214,38,1461,273,13,356 1,1,1,1,1,1,1,1,1,1,1
92,79,1555,15,1070,10,1834,12,24,211 1,1,1,1,1,1,1,1,1,1
1028,2,21413,2914,12344,2,106 1,1,1,1,1,1,1
841,4,12363,859,4,21414,852,4,12363,21415,257,31,85,43,262,327,257 1,1,1,1,1,1,1,1,1,1,1,1,1,1,1,1,1
