67,53,4,21725,317,1167,213,170,54,400,4,4003,2,4309,528,4,7688,53,7,162,4,21726,262,4,62,3754,5016,5683,4,811,259,4,7690,119,2013,152,659,12,2673,17,2234,9,19,1362,164,689,8,2,135,2,5,2709,2,120,14,454,170,10,1167,213,17,1316 1,1,1,1,1,1,1,1,1,1,1,1,1,1,1,1,1,1,1,1,1,1,1,1,1,1,1,1,1,1,1,1,1,1,1,1,1,1,1,1,1,1,1,1,1,1,1,1,8,1,1,1,1,1,1,1,1,1,1,1,1,1
70 1
20,12,2900,585,200,117,109,173,179,16,569,54,15,1479,1181 1,1,1,1,1,1,1,1,1,1,1,1,1,1,1
16,39,15,1995,782,27,264 1,1,1,1,1,1,1
70 1
739,24,480,2,120,1577,123,58,7,2202 1,1,1,1,1,1,1,1,1,1
643,6,1479,1181,523,136,200,178,109,2,70 1,1,1,1,1,1,1,1,1,1,1
396,15,256,5958,7073,1294,5,48,887 1,1,1,1,1,1,1,1,1
70 1
446,24,21727,66,632,9,62,5016,8,5,20,1159,10,45,15,1294,2588,758,10,15,141,12,3983,2,854,70 1,1,1,1,1,1,1,1,1,1,1,1,1,1,1,1,1,1,1,1,1,1,1,1,1,1
249 1
16,20,96,1159,10,464,24,2202,434,2,76,1132,19,6882 1,1,1,1,1,1,1,1,1,1,1,1,1,1
1172,464,2202,434,2,256,2,887,2,5,143,113,9,630,39,10,116,164,689,71,1362,10,5331,8,896 1,1,1,1,1,1,1,1,1,1,1,1,1,1,1,1,1,1,1,1,1,1,1,1,1
16,54,15,890,10,235,19,21728,2,11,507,2,11,48,33 1,1,1,1,1,1,1,1,1,1,1,1,1,1,1
70 1
467,446,62,5016,2,120,864,48,237,2,3459,2,5,640,1294,717,258,71,141,12,3983,2,76,290,15,21729,2459,10,3024,9,252,31,145,1346,10,9022,8,5,1346,10,6569,5,2770 1,1,1,1,1,1,1,1,1,1,1,1,1,1,1,1,1,1,1,1,1,1,1,1,1,1,1,1,1,1,1,1,1,1,1,1,1,1,1,1,1,1,1
70 1
14,170,17,242,1036 1,1,1,1,1
544,4,69,12,393,2,156,11,93,7684,142,83,2,1592,2,134,21730,2,83,12,873,2,411,2,365,33,2,8170,2,73,12,491,2,845,2,1174,2,21731,33,2,839,2,26,374 1,1,1,1,1,1,1,1,1,1,1,1,1,1,1,1,1,1,1,1,1,1,1,1,1,1,1,1,1,1,1,1,1,1,1,1,1,1,1,1,1,1,1,1
677,4,119,2013,152,659,9,6596,8,17,2234,127,2709,9,490,833,21732,8,2287,254,1606,12434,4766,7,184,12435,337,1992,244,19,170,4,5330,1816,25,322,925,1034,21733,1210,3818,165,925,1837,21734,9,21735,42,8,1952,1541,165,2699,2985,293,25,5838,2235,1562,634,35,293,25,5838,483,4134,1435,22,25,64,2622,819,25,64,7691,801,22,1034,34,1204,722,25,34,3728,722,25,64,260,155,22,25,34,241,485,25,34,1046,2473,2777,25,322,913,35,293,25,34,783,425,25,34,775,94,22,25,34,12431,2926,242,555,289,130,673,790,4712,25,64,556,3727,25,34,3405,1414,289,2520,25,64,1914,566,25,3780,2,314,814,715,227,22,25,34,636,539,12430,3833,25,555,109,139,4,789,149,331,4,546,21736,422,204,331,4,249,12,3983,201,547 1,1,1,1,1,1,1,1,1,1,1,8,1,1,1,1,1,1,1,22,1,1,1,1,1,1,1,1,1,1,1,1,1,1,1,1,1,1,1,1,1,1,1,1,1,1,1,1,1,1,1,1,1,1,1,1,1,1,1,1,1,1,1,1,1,1,1,1,1,1,1,1,1,1,1,1,1,1,1,26,1,1,1,1,1,1,1,1,1,1,1,1,12,1,1,1,1,1,1,1,1,1,1,1,1,1,1,1,1,1,20,1,1,1,1,1,1,1,1,1,1,1,1,1,1,1,1,1,1,1,1,1,1,1,1,1,1,1,1,1,1,1,9,9,1,1,1,1,1,1,1,1,1,1,1,1,1,1,1,1,1,1,1,1,1,1,1,1,1,1,1,1
622,232 14,14
11,463 1,1
423,1032,339,4,303,4019,2,534,1860,2,133,21737,2,618,122,2,904,1859,42,19,1362,799,4,452,2,12,474,234,4,3235,2,2255,2,613,2,1457,2,978,90,134,4,351,2,11,850,26,2167,2238,2,196,218,2,11,207,2,11,901,937,48,4,2760,434,605,2,3397,420,724,4,456,2,1699,138,309,2,11,1060,365,4,159,2,897,2,1307,2,3891,131,4,564,580,88,2,196,70,137,1205 1,1,1,1,1,1,1,1,1,1,1,1,1,1,1,1,1,1,1,1,1,1,1,1,1,1,1,1,1,1,1,1,1,1,1,1,1,1,1,1,1,1,1,1,1,1,1,1,1,1,1,1,1,1,1,1,1,1,1,1,1,1,1,1,1,1,1,1,1,1,1,1,1,1,1,1,1,1,1,1,1,1,1,1,1,1,1,1,1,1,1,1,1,1,1
352,4,452,5,661,1098,2,966,2930,203,2,1038,770,634,5,354 1,1,1,1,1,1,1,1,1,1,1,1,1,1,1,1
498,10,718,1008,12,223,131,512,145,400,2799,5839,5189,686,3315,571,2687,857,2333,727,7449,415,2135,9,77,8,844,798,9,77,8,813,404,145,400,2799,5839,5189,364,3249,952,1651,1398,2741,1395,2066,1740,2215,145,400,2799,5839,5189,1423,1170,1399,123,1448,1484,952,1651,145,400,2799,5839,5189,1419,4061,9,303,8,2322,1593,957,2018,593,2406,9,303,8,3451,2744,9,303,8,145,400,2799,5839,5189,330,4370,660,10787,9,59,8,499,3499,296,6398,9,59,8,578,1779,700,5983,737,7509,484,4799,701,6109,9,77,8,2684,370,1050,1193,42,1124,1796,9,77,8,42,551,875,9,59,8,42,772,517,42,773,117,42,796,558,2395,21738,9,77,8,2396,21739,2463,11742,9,77,8,2464,6879,9,77,8,2465,3226,1467,180,1416,180,2466,180,2006,180,145,400,2799,5839,5189,5326,875,48,237,4,376,3459,4,4407,2,5115,5,9270,57,1031 1,1,1,1,1,1,1,1,1,1,1,1,1,1,1,1,1,1,1,1,1,1,1,1,1,1,1,1,1,1,1,1,1,1,1,1,1,1,1,1,1,1,1,1,1,1,1,1,1,1,1,1,1,1,1,1,1,1,1,1,1,1,1,1,1,1,1,1,1,1,1,1,1,1,1,1,1,1,1,1,1,1,1,1,1,1,1,1,1,1,1,1,1,1,1,1,1,1,1,1,1,1,1,1,1,1,1,1,1,1,1,1,1,1,1,1,1,1,1,1,1,1,1,1,1,1,1,1,1,1,1,1,1,1,1,1,1,1,1,1,1,1,1,1,1,1,1,1,1,1,1,1,1,1,1,1,1,1,1,1,1,1,1,1,1,1,1,1,1,1,1,1,1,1,1,1,1,1,1,1,1,1,1,1,1,1,1,1,1
21740,14,44 1,1,1
21741,14,44 1,1,1
1678,14,116 1,1,1
21742,1437,14,116 1,1,1,1
2459,14,116,28,1619,2852,14,341 1,1,1,1,1,1,1,1
1562,183,752,2176,14,1031 1,1,1,1,1,1
1032,167,4,385,27,488,1735,2,354 1,1,1,1,1,1,1,1,1
1003,2,354 1,1,1
732,2,11,185,2909,510,2584,4,7690,119,2013,152,659,12,2673,17,2234,2,135,2,2709,2,170,201,1316 1,1,1,1,1,1,1,1,1,1,1,1,1,1,1,1,1,1,8,1,1,1,1,1,1
1316,1683,201,2770,5,6569,146,1346,71,1887,1294,1866,719 1,1,1,1,1,1,1,1,1,1,1,1,1
7691,1952,2,925,1952,384,48,237,119,152,659,719 1,1,1,1,1,1,1,1,1,1,1,1
2622,2,3899,2,556,719 1,1,1,1,1,1
2235,2,3728,2,5330,2,2699,666,719 1,1,1,1,1,1,1,1,1
1204,2,260,2,241,2,775,2,814,2709,358,205,10,52,27,490,2,40,104 26,1,1,1,12,1,20,1,9,1,1,1,1,1,1,1,1,1,1
2287,1689,27,405,3444,652,438,1127,9945,21743,4003,2,106 1,1,1,1,1,1,1,1,1,1,1,1,1
7692,49,21744 1,1,1
