67,53,4,22269,6403,403,13,7724,5,23,962 1,1,1,1,1,1,1,1,1,1,1
16,79,65,460,36,2148,1875,192,19,5100,2,5,22270 1,1,1,1,1,1,1,1,1,1,1,1,1
16,324,885,58,36,2250,11,278 1,1,1,1,1,1,1,1
24,1022,20,114,27,22271,11,2405 1,1,1,1,1,1,1,1
11,278,7,362,839,2,11,728,884 1,1,1,1,1,1,1,1,1
538,151,1040,36,4775,2,957,2769,2,2322,22272,5292,21,1517,68,470,19,244,32,6403,21,65,91,267,3244,17,22273,22274,9,24,9011,14,343,22275,8,544,4,199,1115,2,544,174 1,1,1,1,1,1,1,1,1,1,1,1,1,1,1,1,1,1,1,1,1,1,1,1,1,1,1,1,1,1,1,1,1,1,1,1,1,1,1,1,1,1
12,393 1,1
1171,4,11,232,26,668 1,1,13,13,1,1
9,3312,17,86,8,41,989,9,336,8,819,46,47,35,46,9,66,8,25,322,112,389,58,2413,9,654,8,123,22,9,566,46,47,55,8,25,64,112,389,58,2088,9,3619,8,1816,46,47,35,46,9,66,8,25,322,112,389,58,12550,9,5289,429,8,425,46,47,35,46,9,66,8,25,34,112,389,58,198,9,912,577,8,942,46,4599,47,35,46,9,66,8,25,34,2,47,32,454,241,9,911,8,533,46,47,35,46,9,66,8,25,34,2,47,32,454,705,9,1016,8,807,46,47,35,46,9,66,8,25,34,112,389,58,2,47,32,454,139,1525,339,224,653,4775,965,909,61,2,684,22276 1,1,1,1,1,1,19,13,13,13,1,1,1,1,1,1,1,1,1,1,1,1,1,14,55,47,55,1,1,1,1,1,1,1,1,1,1,1,1,1,1,1,1,1,1,1,1,1,1,1,1,1,1,1,1,1,1,63,13,13,13,13,1,1,1,1,1,1,1,1,1,1,1,1,1,4,16,16,16,16,1,1,1,1,1,1,1,1,1,1,1,1,1,1,1,16,19,19,19,1,1,1,1,1,1,1,1,1,1,1,1,1,1,8,21,21,21,1,1,1,1,1,1,1,1,1,1,1,1,1,1,1,1,1,1,1,1,1,1,1,1,1,1,1,1,1
133,4,3322,4677,596,79,1654,90,456,11,88,2,11,22277 42,42,21,1,1,1,1,1,1,1,1,1,1,1
153,72,369,36,147,1192,371,89 1,5,5,1,1,1,1,1
3357,102,2857,163,10,3948,22278,1507,10,172,1752,2,51,102,57,865,74,1813 1,1,1,1,1,1,1,1,1,1,1,1,1,1,1,1,1,1
264,2187,19,349,932,384,22279 1,1,1,1,1,1,1
16,40,163,402,78 1,1,1,1,1
1144,1142,5,198,89 1,19,1,4,1
127,36,1422,705,807,34 55,1,1,8,1,1
247,693,956,4,166,332,424,1309,247,541,1230,36,3312,132 1,1,1,1,1,1,1,1,1,1,1,1,1,1
457,945,1452,1179,22280,398,4545,4775,1825,4,496,639,4817,1437,4545,2864,2492,22281,174,1408,4545,22282,3278,4545,60,432,2312,379,593,14,22283,1408,6679,1583,193 1,1,1,1,1,1,1,1,1,1,1,1,1,1,1,1,1,1,1,1,1,1,1,1,1,1,1,1,1,1,1,1,1,1,1
1369,4545,2124,296,9,863,8,4545,7725,3279,4545,2406,5150,9,8862,8,22284,182,499,9,691,8,4545,4505,1022,4545,22285,1291,12551,7726,2,106 1,1,1,1,1,1,1,1,1,1,1,1,1,1,1,1,1,1,1,1,1,1,1,1,63,63,63,1,1,1,1,1
