67,53,4,22411,421,4,275,259,4,596,1528,9137,439,13,677,144,2,135,2,360,398,120,20,93,170,10,5952,222,2284,168,9,99,109,8,17,192,33 1,1,1,1,1,1,1,1,1,1,1,1,1,1,1,4,1,8,1,8,8,1,1,1,1,1,1,1,1,1,1,1,1,1,1,1,1
18,21,65,47,1836,5,784,3525,27,164 1,1,1,1,1,1,1,1,1,1
6,82,492,58,2,18,21,39,275,885,2316,5,149,14,497,200,5730 1,1,1,1,1,1,1,1,1,1,1,1,1,1,1,1,1
275,27,164,45,65,1329,2460,5,2659,9,1363,13,22412,8 1,1,1,1,1,1,1,1,1,1,1,1,1,1
18,87,10,45,192,33,5,96,21,294,33,2,341,1080 1,1,1,1,1,1,1,1,1,1,1,1,1,1
140,149,2,18,21,31,738,1197,27,223 1,1,1,1,1,1,1,1,1,1
7,54,2,18,21,39,5730,12,6,82,2,5,18,148,6,126,57,6,1151,132,32,685,151,27,37,84 1,1,1,1,1,1,1,1,1,1,1,1,1,1,1,1,1,1,1,1,1,1,1,1,1,1
153,9,140,1993,8,72,369,4,1223,1763,4161 1,1,1,1,1,4,4,1,1,1,1
11,247,2466,26,4987,664 1,1,1,1,1,1
127,956,4,1223,4161,2,20,47,255,2,3045,5,1847,12,168,8846,831,254,1375,4,59,372,5365,2650,2197,1004,80,4,112,86,2,622,39,2386 8,8,1,1,1,1,1,1,9,1,46,1,44,1,1,1,15,22,1,1,1,1,1,1,1,1,1,1,1,1,1,1,1,1
2113,2412,12574,12575,2412,4,7729,286,3812,5,3413,6616,2,11,4971,375 1,1,1,1,1,1,1,1,1,1,1,1,1,1,1,1
146,5151,345,1482,43,304,317,636,539,1545,1271,612,3388,63,4,39,12576,5,12577,12,4293,1304,933,3275,5,6617,286,1772,4,1223,12,9326,326,12,3275,1606,41,9,140,1993,8,198,9,912,577,8,505,22,9,505,22,46,47,35,8,25,34,112,182,58,49,182,46,9,66,8,255,227,22,9,667,46,47,35,8,25,34,112,182,58,49,182,46,9,66,8,483,2656,292,636,539,9,8552,8,35,293,25,64,49,312,46,9,66,8,4224,3985,168,9,3985,168,601,47,35,8,25,2782,112,1870,58,49,289,601,9,66,8,216,122,22,9,122,22,46,47,35,8,25,34,112,182,58,49,182,46,9,66,8,336,487,22,9,487,22,46,47,35,8,25,64,112,182,58,49,312,46,9,66,8,3111,9,1801,8,1435,22,9,2656,46,47,35,8,25,1744,165,33,2,47,13,1139,112,517,58,49,1495,46,9,66,8,22413,6162,1447,25,32,454,49,35,2549,9,66,8,1836,94,22,9,566,46,47,35,8,25,1744,165,33,2,33,31,1190,43,1801,675,155,22,9,155,22,46,47,35,8,25,549,112,182,58,49,182,46,9,66,8,4492,9,8742,8,94,22,9,566,46,47,35,8,25,2103,2,47,35,46,885,650,548,17,784,3525,124,22414,139,1525,204,30,436,13,177,149,1928 1,1,1,1,1,1,1,1,1,1,1,1,1,1,1,1,1,1,1,1,1,1,1,1,1,1,1,1,1,1,1,1,1,1,1,1,1,1,1,1,1,11,11,11,11,11,1,1,1,1,1,1,1,1,1,1,1,1,1,1,1,1,1,1,1,1,9,1,1,1,1,1,1,1,1,1,1,1,1,1,1,1,1,1,1,1,1,1,1,1,1,1,1,1,1,1,1,1,1,1,1,1,1,1,1,1,1,1,1,1,1,1,1,1,1,1,1,1,1,1,1,1,1,1,1,16,1,1,1,1,1,1,1,1,1,1,1,1,1,1,1,1,1,1,1,1,21,1,1,1,1,1,1,1,1,1,1,1,1,1,1,1,1,1,1,1,1,1,1,1,1,1,1,1,1,1,1,1,1,1,1,1,1,1,1,1,1,1,1,1,1,1,1,1,1,1,1,1,1,1,1,1,1,1,1,1,1,1,1,1,1,1,1,1,1,1,1,1,1,1,1,1,1,1,1,1,1,12,1,1,1,1,1,1,1,1,1,1,1,1,1,1,1,1,1,1,1,1,1,1,1,1,1,1,1,1,1,1,1,1,1,1,1,1,1,1,1,1,1,1,1,1,1,1,1,1,1,1,1,1,1,1,1
1162,71,22415,2,113,31,1514,4429 1,1,1,1,1,1,1,1
105,78,22416,2,534,2064,2,618,122,2,1084,42,670,133,22417,5,22418,202,36,246,2988,12,891,234,36,22419,36,90,666,36,5333,51,150,2,11,208,221,36,159,2,2047,2,148,125,250,10,1073,7,5582,559,36,11,88,2,11,284,2,22420,167,169,235,2,385,245,2,44,1003 1,1,1,1,1,1,1,1,1,1,1,1,1,5,5,5,5,1,1,1,1,1,1,1,1,1,1,1,1,1,1,1,1,1,1,1,1,1,1,1,1,1,1,1,1,1,1,1,1,1,1,1,1,1,1,1,1,1,1,1,1,1,1,1,1,1,1
11,195,561,83,2,555,837,26,303,837,2724 1,1,1,1,1,1,1,1,1,1,1
303,837,2564,12,998,638 1,1,1,1,1,1
11,185,83,1188,10,186,9,6616,8 1,1,1,1,1,1,1,1,1
359,5154,36,781,4895,2,781,6715,11544,4231,3111,1477,27,4790,862,596,1528,439,13,677,144,2,135,2,360,398,120,20,93,170,10,5952,222,2284,168,9,99,109,8,17,192,33,132,13,587,360,275 1,1,1,1,1,1,1,1,1,1,1,1,1,1,1,1,1,1,1,1,4,1,8,1,8,8,1,1,1,1,1,1,1,1,1,1,1,1,1,1,1,1,1,1,1,1,1
22421,717,9,178,441,8,13,242,118,2,8442,2051,2308,12248,717,758,22422,10,5952,1089,17,273,2026,2,161,162,28,1449,446,10,222,953,820,12583,6610,2,228,2,22423,421,4,62,6454,1121,214,1100,537,5,527,108,13,29 1,1,1,1,1,1,1,1,1,1,1,1,1,1,1,1,1,1,1,1,1,1,1,1,1,1,1,1,1,1,1,1,1,1,1,1,1,1,1,1,1,1,1,1,1,1,1,1,1,1,1,1
70,755,5,707,295,1434,7,390,329,271 1,1,1,1,1,1,1,1,1,1
271,84,4,12555 1,1,1,1
