67,53,4,22442,29,400,4,9332,2,9333,238,528,4,12597,239,53,7,110,4,22443,436,17,2161,110 1,1,1,1,1,1,1,1,1,1,1,1,1,1,1,1,1,1,1,1,1,1,1,1
18,597,61,585,22444,761 1,1,1,1,1,1
54,37,23,184,1011,20,3002,5,597,887 1,1,1,1,1,1,1,1,1,1
11,33,26,275 1,1,1,1
1014,10,891,199,422,61,51,2827,27,200,117,248,565,5,3466 1,1,1,1,1,1,1,1,1,1,1,1,1,1,1
565,2327,51,18,511,3466,17,200,68,548,5,392,810,12598 1,1,1,1,1,1,1,1,1,1,1,1,1,1
18,2827,38,248,450,22445,13,378,1403,7,392,12598 1,1,1,1,1,1,1,1,1,1,1,1
23,1163,38,248,20,22446,1014,192,10,891,200,875,248,5,2827,27,178,8364,450,22447 1,1,1,1,1,1,1,1,1,1,1,1,1,1,1,1,1,1,1,1
11,256,2,845 1,1,1,1
362,211,14,230,13,11,391 1,1,1,1,1,1,1
2807,10,187,301,12,82,13,6359,45,31,65,1725 1,1,1,1,1,1,1,1,1,1,1,1
18,1351,244,156,9334,529 1,1,1,1,14,4
23,605,38,248,20,22448,76,14,360,17,23 1,1,1,1,1,1,1,1,1,1,1
18,21,65,816,10,637,2686,1172,460,10,637,22449 1,1,1,1,1,1,1,1,1,1,1,1
29,118,10,392,27,6,1132,7,78 1,1,1,1,1,1,1,1,1
4548,328,9231,569,5892,12,22450,179,18,63,13,184,362,362,7735,12,143,7148 1,1,1,1,1,1,1,1,1,1,1,1,1,1,1,1,1,1
18,1132,114,13,15,2633,5,14,104,132,43,62,22451,5302,5,43,62,4825,6769,7,171 1,1,1,1,1,1,1,1,1,1,1,1,1,1,1,1,1,1,1,1,1
99,1106,3042,22452 1,1,1,1
544,91,818,2,299,2,11,1341,26,368,884,1551,12599,1551,496,496,311,6375,381,381,4549,546,78,7736,354,375,398,22453,1550,1825,4,496,639,1022,22454,6559,1207,7736,6448,1369,22455,289,4467,78,7736,375,4612,62,4366,894,1074,1503,4549,375,2483,78,22456,62,22457,40,111,555,117,130,846,78,4549,174,3358,7736,214,13,29 1,1,1,1,1,1,1,1,1,1,1,1,1,1,1,1,1,1,1,1,1,1,1,1,1,1,1,1,1,1,1,1,1,1,1,1,1,1,1,1,1,1,1,1,1,1,1,1,1,1,1,1,1,1,1,1,1,1,1,1,1,1,1,1,1,1,1,1,1,1,1,1,1
18,1340 1,1
232,166,4549,622,15,1047,491,1071,4549,375,36,69,3839,12600,40,172,27,435,110,2492,22458,69,873,78,12601,11,83,62,894,2,40,111,12,178,86,1551,153,1551,362,391,72,1551,139,1551,789,1551,41,1551,1914,9,3822,805,8,533,25,64,157,529,1571,22459,438,550,243,9,912,577,8,1024,35,46,9,66,8,25,34,2036,667,25,64,251,3084,6861,25,34,241,9,911,8,533,35,46,9,66,8,25,314,251,12602,157,2663,12603,12604,723,1447,22460,64,423,4,7737,12,474,234,36,354,684,59,1011,1530,861,43,4191,681,36,967,218,36,11,207,152,36,90,10,321,81,15,724,36,456,967,2685,26,697,365,36,645,559,36,11,88,1924,816,10,741,15,2588,1192,605,36,5638,22461,42,272,10,3787,10,1209,98,617,5,1139,455,5,6,1649,37,18,21,1941,1015,23,22462,102,40,170,17,22463,5,242,1916 7,7,1,14,14,14,1,1,1,1,1,1,1,1,1,1,1,1,1,1,1,1,1,1,1,1,1,1,1,1,1,1,1,1,1,1,1,1,1,1,11,1,1,1,1,1,1,1,1,1,1,1,1,1,1,1,12,4,4,1,1,1,7,11,11,11,11,1,1,1,1,1,1,1,1,7,1,1,1,1,33,1,1,1,49,12,12,12,1,1,1,1,1,1,1,1,1,1,12,1,1,1,1,1,1,1,1,1,1,1,1,1,1,1,1,1,1,1,1,1,1,1,1,1,1,1,1,1,1,1,1,1,1,1,1,1,1,1,1,1,1,1,1,1,1,1,1,1,1,1,1,1,1,1,1,1,1,1,1,1,1,1,1,1,1,1,1,1,1,1,1,1,1,1,1,1,1,1,1,1,1,1,1,1,1,1,1,1,1
50,45,1227,62,5302 1,1,1,1,1
574,5307,1694,5273,2,228 1,1,1,1,1,1
