67,53,4,22687,22688,121,7,4177,402,8463,2166,237,3975,2,9355,4177,402,2,1669,12650,12651,9,22689,8,22690,9356,5454,4,15,4504,439,63,32,15,311,29,10,214,153,13,280,417 1,1,1,1,1,1,1,1,1,1,1,1,1,1,1,1,1,1,1,1,1,1,1,1,1,1,1,1,1,1,1,1,1,1,1,1,1,1,1,1,1,1
82,41,30,4,189,2502,3596,1910,735,72,13,15,30,7,575,5,986 1,1,1,1,1,1,1,1,1,4,1,1,1,1,1,1,1
190,30,7,229,131,88,13,82,176,140,29,156,15,44,408,1146 1,1,1,1,1,1,1,1,1,1,1,1,1,1,1,1
220,30,7,277,192,33,272,10,1656,1594,80 1,1,1,1,1,1,1,1,1,1,1
6,29,21,65,394,27,6,4897,688,22691,947,121,13,527,156,6370,861,5,3553,1037 1,1,1,1,1,1,1,1,1,1,1,1,1,1,1,1,1,1,1,1
281,166,332,1546 1,1,1,1
380,166,332,944,2002,22692,2,279,22693,3076,5,279,5894 1,1,1,1,1,1,1,1,1,1,1,1,1
869,1187 1,1
1043,1387,1047,665,22694,30,353,3650,86,173 1,6,6,1,1,1,1,1,1,1
1066,127 1,8
30,7,63,361,4,6,29,21,15,2502,30,7,72 1,1,1,1,1,1,1,1,1,1,1,1,4
18,21,627,2903,2188,171,17,986 1,1,1,1,1,1,1,1
18,148,125,1749,5,839,12,6,5979,7,23,786 1,1,1,1,1,1,1,1,1,1,1,1
18,21,39,6996,153,13,229,131,417,215,6,99,610,130 1,1,1,1,1,1,1,1,1,1,1,1,1,1
18,54,37,68,1020,176,20,444,375,97,15,90,4288 1,1,1,1,1,1,1,1,1,1,1,1,1
23,9357,39,23,469,23,3084,76,258,12,185,253 1,1,1,1,78,78,78,1,1,1,1,1
215,6,99,1041,130,2,306,2,6,29,21,396,280,417,467 1,1,1,1,1,1,1,1,1,1,1,1,1,1,1
18,91,1943,1942,399 1,1,1,1,1
18,113,54,125,387,233,7,183,2,76,18,1596,10,23,142 1,1,1,1,1,1,1,1,1,1,1,1,1,1,1
18,21,11,30,7,387,48,33 1,1,1,1,1,1,1,1
18,21,31,54,15,83,12,23,294,4477 1,1,1,1,1,1,1,1,1,1
18,21,39,11,1354,33,26,417 1,1,1,1,1,1,1,1
18,113,54,15,30,7,440,1587,5,4267,280,754 1,1,1,1,1,1,1,1,1,1,1,1
6,29,54,37,18,39,15,440,263,27,125,808,12,6,82,279,26,542,86,173 1,1,1,1,1,1,1,1,1,1,1,1,1,1,1,1,1,1,1,1
15,1689,2294,20,390,51,31,562,43,6,29 1,1,1,1,1,1,1,1,1,1,1
18,54,37,18,21,185,95,277,192,33 1,1,1,1,1,1,1,1,1,1
23,3008,33,14,22695 1,1,1,1,1
38,923,471,18,14,1175,26,324,98,3637 1,1,1,1,1,1,1,1,1,1
18,21,246,1126,26,11,33,179,18,14,997,26,1442 1,1,1,1,1,1,1,1,1,1,1,1,1
85,7,191,4,382,2,526,13,11,275,2,507,2,83,12,320,1171,2,631,2,472,2,2000,26,4207,491,2,845,2,212,284 1,1,1,1,1,1,1,1,1,1,1,1,1,1,1,1,1,1,1,1,1,1,1,1,1,1,1,1,1,1,1
6,29,113,45,387,280,1806 1,1,1,1,1,1,1
18,54,15,367,176,20,44,5,23,33,20,597,272,10,23,192 1,1,1,1,1,1,1,1,1,1,1,1,1,1,1,1
41,4,775,94,22,680,2,12652,122,22,680,2,241,122,22,680,2,216,155,22,680,2,255,227,22,680,2,2728,178,1360,1164,5092,680,2,2693,7388,22,3896 1,1,20,1,1,1,1,1,1,1,1,1,12,1,1,1,1,16,1,1,1,1,9,1,1,1,1,1,1,1,1,1,1,1,1,1,1,1
4151,2,198,505,22,680,2,157,2,1723,1739,155,168,1010,2,2070,1165,919,504,10,274,168,4414 1,1,11,1,1,1,1,7,1,7,1,1,1,1,1,7,1,1,1,1,1,1,1
504,10,274,168,329,1901,2,1501,801,1240,4414 1,1,1,1,1,1,1,1,1,1,1
105,107,4,339,224,4,142,9358,647,2,890,2578,2,138,169,1156,2,73,100,9641 1,1,1,1,1,1,1,1,1,1,1,1,1,1,1,1,1,5,5,5
6,29,14,12,11,350,2,183,1196 1,1,1,1,1,1,1,1,1
234,4,855,2,11,832,266 1,1,1,1,1,1,1
134,4,351,2,11,817,2,11,663,236,26,581 1,1,1,1,1,1,1,1,1,1,1,1
152,4,90,10,478 1,1,1,1,1
11,420,2,1048,26,1222 1,1,1,1,1,1
101,4,150 1,1,1
1699,138,309 1,1,1
11,208,2,506,26,560 1,1,1,1,1,1
221,4,254,2,159,2,11,236 1,1,1,1,1,1,1,1
3813,320,1332 1,1,1
131,4,196,88,10,6,372 1,1,1,1,1,1,1
367,4,218,137,57,1646,5,641,97,207 1,1,1,1,1,1,1,1,1,1
1311,2,2326,2150,5,795,1982,137,57,1646,5,641 1,1,1,1,1,1,1,1,1,1,1,1
210,5,108,4,189,88 1,1,1,1,1,1
6,29,79,88,14,161,3927 1,1,1,1,1,1,1
18,113,31,45,181,7,887,138,377,89 1,1,1,1,1,1,1,1,1,1
50,85,23,2275,429,1259,2,76,309,10,52,2574 1,1,1,1,1,1,1,1,1,1,1,1
18,197,1136,71,466,1339,1629,607,38,470 1,1,1,1,1,1,1,1,1,1
23,280,417,197,96,422,10,23,775,154 1,1,1,1,1,1,1,1,20,1
50,252,31,111,23,359,1369,145,5,489,263,6,29,1631,13,23,89 1,1,1,1,1,1,1,1,1,1,1,1,1,1,1,1,1
185,2405,197,52,2441,10,23,88,32,61 1,1,1,1,1,1,1,1,1,1
6,29,21,39,11,1108,10,2196,41,5,21,622,65,19,15,10418,2025,10,23,4884 1,1,1,1,1,1,1,1,1,1,1,1,1,1,1,1,1,1,1,1
50,390,444,37,18,469,6,775,5,118,1016,274,22,1001 1,1,1,1,1,59,59,20,1,1,1,1,1,1
50,214,6,154,5,567,882,7,38,41 1,1,1,1,1,1,1,1,1,1
50,40,111,23,192,12,6,632,12,279,26,542,109,10,85,23,584 1,1,1,1,1,1,1,1,1,1,1,1,1,1,1,1,1
190,277,192,33 1,1,1,1
50,390,6,29,87,23,12652 1,1,1,1,1,1,1
102,214,175,33,41,156,2089 1,1,1,1,1,1,1
102,2436,3298,154,513,41,89 1,1,1,1,1,1,1
220,30,7,440,1587 1,1,1,1,1
6,29,21,185,644 1,1,1,1,1
38,197,52,272,10,23,440,1587 1,1,1,1,1,1,1,1
12,466,2,23,524,13,23,142,32,61,32,617,3215,197,422,10,23,428,187,440,1587 1,1,1,1,1,1,1,1,1,1,1,1,1,1,1,1,1,1,1,1,1
50,214,38,13,23,89 1,1,1,1,1,1
50,240,390,37,18,403,17,15,104,114,440,263 1,1,1,1,1,1,1,1,1,1,1,1
18,252,31,45,230,22696,13,15,440,2806,51,1267,172,458,13,15,872,2806 1,1,1,1,1,1,1,1,1,1,1,1,1,1,1,1,1,1
18,40,629,200,38,5,102,40,85,92,467,19,23,104,114,110 1,1,1,1,1,1,1,1,1,1,1,1,1,1,1,1
574,4131,4227,2,106 1,1,1,1,1
606,43,4,4131,4227,847,22697,5513,3771,841,4,9356,859,4,22698,852,4,9356 1,1,1,1,1,1,1,1,1,1,1,1,1,1,1,1,1,1
