67,53,4,22835,431,17,110,476,880,278,59,12689,33,30,7,63,361,396,143,33,12,59,1011,5,12690,570,6,99,279,109 1,1,1,1,1,1,1,1,1,1,1,1,1,1,1,1,1,1,1,1,1,1,1,1,1,1,1,1,1,1
11,1309,2,11,827,302,2,11,1728,2,11,2118,126,153,127,562,1035,97,153 1,1,1,1,1,1,1,1,1,1,1,1,1,1,8,1,16,1,1
133,450,217,19,1035,425 1,1,1,1,16,1
254,18,20,118,19,6629,43,304,317 22,1,1,1,1,1,1,1,1
18,14,47,92,343,34,2932,7,1328,2,160,92,14,741,23,1392,615,3151,491 1,1,1,1,1,1,1,1,1,1,1,1,1,1,1,1,1,1,1
18,199,116,22836,2,3926,498,19,6629 1,1,1,1,1,1,1,1,1
337,219,19,1977 1,1,1,1
11,3009,567,882 1,1,1,1
11,3310,26,4615 1,1,1,1
372,33,71,2075,5853,2580 1,1,1,1,1,1
11,88,2,769 1,1,1,1
2085,882,444,51,132,31 1,1,1,1,1,1
18,14,47,19,975,7,2085,96,3111 1,1,1,1,1,1,1,1,1
18,14,568,17,403,110,13,62,8999,10,214,171 1,1,1,1,1,1,1,1,1,1,1,1
503,2246,263,2,636,1225,2,1724,445,223,44 1,1,1,1,1,1,1,1,1,1,1
1394,97,495,2,299,2,26,1239 1,1,1,1,1,1,1,1
11,510,2002,459 1,1,1,1
41,1035,9,216,8,425,2,35,46,9,66,8,25,34,1977,9,2125,805,8,425,2,35,46,9,66,8,25,34,6629,9,8678,8,4137,2,35,601,9,66,8,25,322,1801,5109,2,35,46,9,66,8,25,322,22837,22838,9,3045,533,292,705,807,8,7286,46,25,34,139,789,82,41,30,85,825,512,85,333,67,111,153,1103,1468,457,30,111,457,4527 1,16,16,16,16,1,1,1,1,1,1,1,1,1,1,1,1,1,1,1,1,1,1,1,1,1,1,1,1,1,1,1,1,1,1,1,1,1,1,1,1,1,1,1,1,1,1,1,1,1,1,16,1,1,16,1,1,63,1,1,1,1,1,1,1,1,1,1,1,1,1,1,1,1,1,1,1,1,1,1,1,1,1,1
85,7,191,1756,4,1080,230,2,1339,2431,33,4,111,288,546,4,22839,9750,2078 1,1,1,1,1,1,1,1,1,1,1,1,1,1,1,1,1,1,1
4,11,256,1879,4,11,740,2,387,48,33,2,785 1,1,1,1,1,1,1,1,1,1,1,1,1
368,4,11,3750,2,631,1341,4,11,845,2,1336,5201,2,1119,339,224,73,100,5086,137,981,142,6702,965,105,78,48,90,10,478,3264,456,2,888,1730,2748,27,4578,3188,3189,143,250,27,2075,623,1418,7,59,372,234,59,2615,90,13,230,718,1057,28,59,1011,2877,97,3471,266,28,59,22840,5,12689,570,97,824,250,26,224,7,477,2,11,12690,817,210,5,108,1212,4,22841,13,254,2,372,33,2,127,35,8,127,4,562,1035 1,1,1,1,1,1,1,1,1,1,1,1,1,1,1,1,1,5,5,5,1,1,1,1,1,1,1,1,1,1,1,1,1,1,1,1,1,1,1,1,1,1,1,1,1,1,1,1,1,1,1,1,1,1,1,1,1,1,1,1,1,1,1,1,1,1,1,1,1,1,1,1,1,1,1,1,1,1,1,1,1,1,1,1,1,1,1,1,1,22,1,1,1,1,8,1,1,8,1,1,16
571,5,833,57,1115 1,1,1,1,1
40,116,1035,10,485,34 1,1,16,1,1,1
29,96,146,15,1553,17,705,3033,34,51,954,31,10,118,92,1813,585,24,435,133,147,5,118,343,124,133,381,11632 1,1,1,1,1,1,63,1,1,1,1,1,1,1,1,1,1,1,1,1,1,1,1,1,1,1,1,1
55,8,59,372,33,4,2085,31,882,6241 1,1,1,1,1,1,1,1,1,1
29,954,10,469,5,87,1801,5109,322,13,851 1,1,1,1,1,1,1,1,1,1,1
29,40,111,62,8999,5,214,171 1,1,1,1,1,1,1,1
11,1136,71,70 1,1,1,1
117,8,254,4,47,343,6629,635,15,58 1,1,22,1,1,1,1,1,1,1
11,185,142,83,1813,2,51,93,1058,118,19,6629 1,1,1,1,1,1,1,1,1,1,1,1
40,104 1,1
213,8,503,4,899,2,636,1225,2,1724,445,223,44 1,1,1,1,1,1,1,1,1,1,1,1,1
31,450,22842 1,1,1
822,296,13,9725,821 1,1,1,1,1
94,8,101,208,4,1194,12,7747,289,8,59,1011,33,4,1042,906 1,1,1,1,1,1,1,1,1,1,1,1,1,1,1,1
40,104,3025 1,1,1
517,8,247,716,5,5339,79,1402,4,2386,12,7747,650,8,283,4,40,822,538,1078,27,435,110,5,1791,19,1142,345,457,945,36,546,22843,4,12691,1207,645,36,1074,1503,4,29,1465,10,435,110,36,779,4,40,214,27,435,110,1502,4,991,130,10,384,2386,5,1194,258,5,822,133 1,1,1,1,1,1,1,1,1,1,1,1,1,1,15,1,1,1,1,1,1,1,1,1,1,1,1,1,1,1,1,1,1,1,1,1,1,1,1,1,1,1,1,1,1,1,1,1,1,1,1,1,1,1,1,1,1,1,1,1,1,1,1,1,1,1,1
29,40,161,163,10,118,705 1,1,1,1,1,1,63
