67,53,4,22865,3602,1167,539,304,170,54,29,79,400,4,6293,2,5340,983,528,4,9377,53,7,162,4,3138,480,4,3124,12692,880,278,4,495,2,299,30,640,71,4,70,2,922,30,7,63,361,4,2018,323,688,201,1504,3060,17,135,5,1569,1026,5,93,162,13,461,12,6,2718,7,135,120,63,201,421,7,299,5,495,37,18,1599,579,455,395,7,23,313 1,1,1,1,1,1,1,1,1,1,1,1,1,1,1,1,1,1,1,1,1,1,1,1,1,1,1,1,1,1,1,1,1,1,1,1,1,1,1,1,1,1,1,1,1,1,1,1,1,1,1,1,1,1,1,15,1,1,1,1,1,1,1,1,1,1,1,1,15,1,1,1,1,1,1,1,1,1,1,1,1,1,1,1,1,1
6,33,5,299,118,19,6,10238,329,162,471,70,20,27,416 1,1,1,1,1,1,1,1,1,1,1,1,1,1,1
751,889,7,1951,70,20,127,10,2984,43,22866,243,2,2694,5,1575,10,6,3284,222 1,1,1,1,1,1,36,1,1,1,1,9,1,8,1,1,1,1,1,1
540,746,70,10,52,420,177,58,1965 1,1,1,1,1,1,1,1,1
70,1290,7,301,12,6,222 1,1,1,1,1,1,1
70,91,22867,22868,22869,22870,22871,22872,22873,22874,22875,22876,22877,2920 1,1,1,1,1,1,1,1,1,1,1,1,1,1
11,93,2076,26,1995,782 1,1,1,1,1,1
1336,22878,562,928,372,33 1,1,1,1,1,1
7,54,2,70,21,65,363,10,52,428,2325,13,23,41,32,61,32,2275,346 1,1,1,1,1,1,1,1,1,1,1,1,1,1,1,1,1,1,1
70,252,671,37,18,469,47,23,260,984,10,15,130,173 1,1,1,1,1,1,1,1,1,1,1,1,1,1
222,434,4,678,4,22879,28,22880,28,6984,1625,28,6016,28,22881,42,19,670,545,94,22,242,2,545,274,22,25,2,3827,35,2787,2,243,407,2,2450,155,1918,112,55,2,11518,55,1719,112,35,2,255,274,22,2,216,155,22,2,2038,2,2980,213,22,242,6543,22882,421 1,1,1,1,1,1,1,11,1,1,1,1,1,1,1,1,1,1,8,1,1,1,1,8,1,1,1,1,22,1,1,1,9,1,1,1,1,1,1,1,1,1,1,1,1,1,1,5,1,1,1,15,1,1,1,1,1,1,1,1,1,1,1,1
1032,434,4,474,2,422,6,30,288,85,7,191,4,111,259,82,41,30,4,1569,1026,4,2946,2242,2,626,1521,42,2,11,3488,26,22883,28,69,1704,1158,12,3446,2334,127,254,4178,391,80,166,332,56,372,5853,892,337,503,831 1,1,1,1,1,1,1,1,1,1,1,1,1,1,1,1,1,1,1,1,1,1,1,1,1,1,1,1,1,1,1,1,1,1,1,1,1,1,1,1,16,79,1,1,1,1,1,1,1,1,1,1,1,9
41,4,255,274,22,25,34,1035,155,22,25,34,2,1977,122,22,25,34,1801,2382,22,25,322,165,33 1,1,5,1,1,1,1,8,1,1,1,1,1,1,1,1,1,1,1,1,1,1,1,1,1
139,4,789,149,30,4,11,363,149,30,7,206,28,292,72,12,23,651 1,1,1,1,1,1,1,1,1,1,1,1,1,1,1,1,1,1
204,30,4,6,29,264,32,68,9379,4041,1496,5733,5,249,13,23,962 1,1,1,1,1,1,1,1,1,1,1,1,1,1,1,1,1
708,4,6,29,353,232,123,86,173,2,51,39,68,11436,1324,86,30,186,10,353 1,1,1,1,6,6,6,6,6,1,1,1,1,1,1,1,1,1,1,1
541,4,6,29,668,5,13,11,30,7,541,4101,26,693 1,1,1,1,1,1,1,1,1,1,1,1,1,1
3579,3580,140,405,19,2818,13,23,99,668,1252,58,173,366,4,326,154,7,2658,5,12706,12,1093,175,4,91,105,78,4,678,4,22884,22885,7471,22886,42,19,55,59,22887,2578,202,4,12,474,234,4,3235,2,764,2,613,2,1140,1597,1373,134,4,351,2,530,935,48,4,787,1087,724,4,1654,245,2,354,169,2,354,276,2,282,2,11,1096,2,982,2,208,26,506,221,4,159,2,2047,2,976,28,605,63,28,559,4,196,3483,137,103,28,11,917,88,26,711 1,1,1,1,1,1,1,1,1,1,1,1,1,1,1,1,1,1,1,1,1,1,1,1,1,1,1,1,1,1,1,1,1,1,1,1,1,1,1,1,1,1,1,1,1,1,1,1,1,1,1,1,1,1,1,1,1,1,1,1,1,1,1,1,1,1,1,1,1,1,1,1,1,1,1,1,1,1,1,1,1,1,1,1,1,1,1,1,1,1,1,1,1,1,1,1,1,1,1,1,1,1,1,1,1,1,1,1,1,1
352,4,15,81,983,112,117,28,1432,1150,1673,203,28,770,5,1107,433,995,44,28,2425,78 1,1,1,1,1,1,1,1,1,1,1,1,1,1,1,1,1,1,1,1,1,1
141,4,1355,5368,429,3237,1284,325,1790,5341,673,22888,1249,325,1790,5341,790,2460,1285,325,1790,5341,1067,1623,5488,1383,325,1790,5341,415,1376,1286,193,1790,5341,358,1598,1535,193,1790,5341,371,22889,1333,193,1790,5341,202,1355,483,3062,1436,193,3138,3603,1490,1676,1662,193,3138,3603,1046,22890,1624,1384,3138,3603,1117,9,493,8,1289,3526,193,3138,3603,1117,9,454,1475,2347,193,3138,3603,493,972,2741,2401,598,3138,3603,1343,2056,2346,598,3138,3603,1841,2380,2172,598,3138,3603,916,433,145,2826,9,3457,8,1155,3382,658,3138,3603,2927,9,3456,8,1155,3741,658,3138,3603,4049,1177,22891,3241,658,3138,3603,1117,9,493,8,1289,3526,193,3138,3603,1117,9,454,1475,2347,193,3138,3603,101,145,1310,9,7225,8,69,174,3138,12707,2536,69,174,3138,12707,1152,464,73,821,330,3042,1250,430,1790,2359,660,22892,2582,5897,1790,2359,499,22893,2438,1367,1790,2359,296,22894,2310,42,1790,2359,578,1487,1321,1153,1790,2359,700,5200,1409,1516,1790,2359,737,6107,1410,598,1790,2359,484,9380,1460,1287,1790,2359,701,2771,1356,42,1790,2359,73,1100,42,1100,11180,370,1790,22895,1292,1050,1193,1790,2359,3391,1156,1637,42,1790,2359,551,274,1701,42,1790,2359,772,213,1638,42,1790,2359,773,117,1769,42,1790,2359,796,558,1732,42,1790,2359,73,1292,36,588,3391,49,10829,2043,430,1790,2359,551,49,22896,2044,430,1790,2359,772,49,9381,2311,430,1790,2359,773,49,8078,2045,430,1790,2359,796,49,3261,2091,430,1790,2359,12505,180,44,1790,2359,12506,180,44,1790,2359,2254,180,1790,2359,1953,180,1790,2359,2652,1054,2652,70,3386,2923,1059,1790,12708,1049,1459,1790,12708,1072,8930,2730,1059,1790,22897,2878,4,686,1348,4,22898,4,1786,334,88,2,253,71,6,326,107 1,1,1,1,1,1,1,1,1,1,1,1,1,1,1,1,1,1,1,1,1,1,1,1,1,1,1,1,1,1,1,1,1,1,1,1,1,1,1,1,1,1,1,1,1,1,1,1,1,1,1,1,1,1,1,1,1,1,1,1,1,1,1,1,1,1,1,1,1,1,1,1,1,1,1,1,1,1,1,1,1,1,1,1,1,1,1,1,1,1,1,1,1,1,1,1,1,1,1,1,1,1,1,1,1,1,1,1,1,1,1,1,1,1,1,1,1,1,1,1,1,1,1,1,1,1,1,1,1,1,1,1,1,1,1,1,1,1,1,1,1,1,1,1,1,1,1,1,1,1,1,1,1,1,1,1,1,1,1,1,1,1,1,1,1,1,1,1,1,1,1,1,1,1,1,1,1,1,1,1,1,1,1,1,1,1,1,1,1,1,1,1,1,1,1,1,1,1,1,1,1,1,1,1,1,1,1,1,1,1,1,1,1,1,1,1,1,1,1,1,1,1,1,1,1,1,1,1,1,1,1,1,1,1,1,1,1,1,1,1,1,1,1,1,1,1,1,1,1,1,1,1,1,1,1,1,1,1,1,1,1,1,1,1,1,1,1,1,1,1,1,1,1,1,1,1,1,1,1,1,1,1,1,1,1,1,1,1,1,1,1,1,1,1,1,1,1,1,1,1,1,1,1,1,1,1,1,1,1,1,1,1,1,1,1,1,1,1,1,1,1,1,1,1,1,1,1,1,1,1,1,1,1,1,1,1,1,1,1,1,1,1,1,1,1,1,1,1,1,1,1,1,1,1,1,1
167,4,1906,7,6,326,22899,63,561,217,12,5557,28,1544,2584,4,2018,323,646,13,331,7,22900,1026,5,93,162,13,2290,7858,88,12,6,441,7,217,133,2,1488,1052,126,2,4924 1,1,1,1,1,1,1,1,1,1,1,1,1,1,1,1,1,1,1,1,1,1,1,1,1,1,1,1,1,1,1,1,1,1,1,1,1,1,1,1,1,1,1
195,461,12,441,7,177,135,2,11,749,3662,2,11,311,970,167,83,12700,12701,167,1472,479,2,2252,36,2391,1873,6135,2,545,1547,9378,13,3204,81,4649,2,3175,17,2081,858,7,12702,79,17,2048,9,133,39,65,32,360,32,2984,79,8,12703,28,147,812,538,6071,32,163,28,3260,4461,79,2,34,653,5827,163,17,695,26,6884,19,38,162,146,11,311,167,83,190,135,4,36,738,10,52,61,187,27,38,84,36,124,1517,1160,10,187,40,1405,1301,114,5,442,2029,987,1381,36,197,163,10,52,264,114,17,928,721,7,135,2,1161,32,3230,220,331,7,244,2462,4,36,40,163,4186,3703,589,1549,7,3552,10,41,346,36,40,214,1433,1136,71,52,22901,908,6,461,226,36,442,1339,285,281,503,12704,223,491,28,36,7951,899,263,2,347,1503,2,4687,821,2,1973,577,2,1225,36,442,1645,22902,296,496,182,380,1905,4,277,429,2,277,398,2,277,2248,349,28,2740,1845,32,163,501,1211,4,783,60,60,60,60,60,60,60,60,60,60,60,60,60,60,60,36,22903,22904,2,106 1,1,1,1,1,1,15,1,1,1,1,1,1,1,1,1,1,1,1,1,1,1,1,1,1,1,1,1,1,8,1,1,1,1,1,1,1,1,1,1,1,1,1,1,1,1,1,1,1,1,1,1,1,1,1,1,1,1,1,1,1,1,1,1,1,1,1,1,1,1,1,1,1,1,1,1,1,1,1,1,1,1,1,1,1,1,15,1,1,1,1,1,1,1,1,1,1,1,1,1,1,1,1,1,1,1,1,1,1,1,1,1,1,1,1,1,1,1,1,1,1,1,1,15,1,1,1,1,1,1,1,1,1,1,1,1,1,1,1,1,1,1,1,1,1,1,1,1,1,1,1,1,1,1,1,1,1,1,1,1,1,1,1,1,1,1,1,1,1,1,1,1,1,1,1,1,1,1,1,1,1,1,1,1,1,1,1,1,1,1,1,1,1,1,1,1,1,1,1,1,1,1,1,1,1,1,1,1,1,1,1,1,1,1,1,1,1,1,1,1,1,1,1,1,1,1,1,1,1,1,1
112,22905 1,1
