67,53,4,22985,158,1129,2567,182,86,333,13,12725,13,1185,417,259,4,38,29,63,10,6,222,13,15,35,58,247,1185,417 1,1,1,1,1,1,1,1,1,1,1,1,1,1,1,1,1,1,1,1,1,1,1,1,1,1,1,1,1,1
18,96,148,752,294,33,112,177,58,28,32,61,32,507,27,974,19,2992 1,1,1,1,1,1,1,1,1,1,1,1,1,1,1,1,1,1
18,66,262,223,974,3862,93,17,23,295,84,28,18,21,39,279,1908,37,258,12,881,1195,71,6,774,3296,2,51,18,1077,114,23,84,19,175,58 1,1,1,1,1,1,1,1,1,1,1,1,1,1,1,1,1,1,1,1,1,1,1,1,1,1,1,1,1,1,1,1,1,1,1,1
18,199,18,21,65,1517,116,1019,1874,17,6,99,991,109,28,18,21,1101,68,466,9,1933,8,774,3862,1164,109,51,23,978,582,21,31,65,418,10,3497,23 1,1,1,1,1,1,1,1,1,1,1,1,1,1,1,1,1,1,1,1,1,1,1,1,1,1,1,1,1,1,1,1,1,1,1,1,1,1
6,29,1014,10,304,317,38,248,5,39,15,22986,269,988,1352,6,1295,7,15,186,261 1,1,1,1,1,1,1,1,1,1,1,1,1,1,1,1,1,1,1,1,1
82,41,30,11938,71,186,54,1148,928,9384,1223,447,910,2074,22987,27,3602,22988,10462,2181,265,94,3675,1195,1164,774,3862,22989,8624,2010,11726,1912,367,953,2,129,1603,465,43,62,6630,12718,22990,5286,22991,22992,19,531,22993,5,477,59,1456,535,2938,55,1912,12719,9,4793,2,2334,8,2,125,470,7,4026,4008,2971,269,119,261,554,135,119,5178,7751,693,956,2,99,693,12720,926,956,247,2495,3677,41,556,798,550,2,22994,35,34,2,1323,155,34,2,1821,639,64,2,2088,12726,64,2,255,227,34,9,12727,58,343,8,2,12724,182,34,9,12727,58,343,8,2,2680,123,34,2,4009,227,314,2,514,488,314,2,531,94,314,2,5124,2,3370,213,3780,2,12728,55,3780,139,3713,36,693,28,1451,36,284,28,6631,36,693,28,2065,5,22995,36,1064,509,79,754,204,30,249,13,518,12,4500,2875,149,30,1669,544,2609,286,12,259 1,1,1,1,1,1,1,1,1,1,1,1,1,1,1,1,1,1,1,1,1,1,1,1,1,1,1,1,1,1,1,1,1,1,1,1,1,1,1,1,1,1,1,1,1,1,1,1,1,1,1,1,1,1,1,1,1,1,1,1,1,1,1,1,1,1,1,1,1,1,1,1,1,1,8,1,1,1,1,1,1,1,1,1,1,1,1,1,1,1,1,1,1,1,1,1,1,1,1,1,1,1,1,1,1,1,1,1,1,1,9,1,1,1,1,1,1,1,1,1,1,1,1,1,1,1,1,1,1,1,1,1,1,1,1,1,1,1,1,1,1,1,1,1,1,1,1,1,1,1,1,1,1,1,1,1,1,1,1,1,1,1,1,1,1,1,1,1,1,1,1,1,1,1,1,1,1,1,1,1,1,1,1,1,1,1,1,1,1,1
382,69,12,393 1,1,1,1
105,107,202,4,815,3303,439,2,474,2,4685,12,205,13,595,1185,417,5935,4,133,4,22996,22997,1163,4,7588,689,904,776,42,670,234,4,3835,1140 1,1,1,1,1,1,1,1,1,1,1,1,1,1,1,1,1,1,1,5,5,5,1,1,1,1,1,1,1,1,1,1,1,1,1
855 1
1858,8150 1,1
134,4,530,1338,910,28,335,953,1147,19,134,48,4,961,4711,114,724,4,276,2,282,5333,22998,4,1572,1972,13,1572,752,250 1,1,1,1,1,1,1,1,1,1,1,1,1,1,1,1,1,1,1,1,1,1,1,1,1,1,1,1,1,1
59,5,184,124,1147 1,1,1,1,1
559,4,564,88 1,1,1,1
2570,1603,22999,352,4,1027,2,452,2,2428 1,1,1,1,1,1,1,1,1,1
1224,223,213,79,23000,97,524 1,1,1,1,1,1,1
141,686,3538,571,94,415,1670,833,2987,330,3017,296,5200,484,23001,1053,1523,508,4,3892,1842,27,6,2075,75,152,669,76,197,52,422,10,2115,26,811,12,6,4463,226,441 1,1,1,1,1,1,1,1,1,1,1,1,1,1,1,1,1,1,1,1,1,1,1,1,1,1,1,1,1,1,1,1,1,1,1,1,1,1,1,1
74,14,15,535,161,3210,12,6,1056,37,14,888,12,6,326,263,5,197,1327,68,2971,261 1,1,1,1,1,1,1,1,1,1,1,1,1,1,1,1,1,1,1,1,1,1
964,4,561,1524,1855,1003,1314,23002,319,1185,417,2,1337,2971,754,23003,14,906,124,6,269,12,6,5335,731,1753,6,1185,417 1,1,1,1,1,1,1,1,1,1,1,1,1,1,1,1,1,1,1,1,1,1,1,1,1,1,1,1,1
23004,62,6632,2,1083,5850,4,1715,7,987,731,31,231,27,5286,1267,1753,126,23005,197,52,2441,10,63,18,39,507,27,774,5,277,1655,1163,12,222,334,1908,12725,119,279,1912,12672,503,693,5885,390,242,2116,10,1634,221,2,152,2,270,12460,477,12729,3924,22,12,774,23006,6193,26,1758,12,38,23007,2397,29,237,1754,73,717,36,40,1357,71,774,102,40,147,295,441,7,1355,12,774,18,20,31,2133,19,23,531,5,205,10,163,15,2220,225,774,108,23008,102,40,633,1275,1553,13,978,168,23009,1482,4,23010,2917,213,548,55,571,798,364,4514,5445,12730,669,19,142,12317,4,571,143,217,2,2181,17,774,29,136,2818,2,774,40,2758 1,1,1,1,1,1,1,1,1,1,1,1,1,1,1,1,1,1,1,1,1,1,1,1,1,1,1,1,1,1,1,1,1,1,1,1,1,1,1,1,1,1,1,1,1,1,1,1,1,1,1,1,1,1,1,1,1,1,1,1,1,1,1,1,1,1,1,1,1,1,1,1,1,1,1,1,1,1,1,1,1,1,1,1,1,1,1,1,1,1,1,1,1,1,1,1,1,1,1,1,1,1,1,1,1,1,1,1,1,1,1,1,1,1,1,1,1,1,1,1,1,1,1,1,1,1,1,1,1,1,1,1,1,1,1,1,1,1,1,1,1,1,1,1,1,1,1
23011,4,595,1019,1874,12,441,7,628,269,7,23012,2249,55,58,2818 1,1,1,1,1,1,1,1,1,1,1,1,1,1,1,1
23013,4,87,978,4127,12,6,2266,7,5119 1,1,1,1,1,1,1,1,1,1
23014,4,102,40,822,2766,12,774 1,1,1,1,1,1,1,1
383,87,3370,12728,13,851 1,1,1,1,1,1
11806,4,59,1603,10163,4,87,2960,28,55,1719,8693,349,28,4782,421,617,1812,5015,23015,3121,9194,2,228,158,1129,49,23016 1,1,1,1,1,1,1,1,1,1,1,1,1,1,1,1,1,1,1,1,1,1,1,1,1,1,1,1
