67,53,4,23108,317,616,285,54,29,400,4,5121,2,7756,553,49,4,7757,53,5,84,7,285,4,12746,23109,248,803,262,4,62,4110,10008,317,285,262,4,62,6138,12747,782,4,12748,5121,9,747,2,4526,8,23110,164,5,12749,843,285,23111,4,3339,176,9076,4,7758,13,1504,7,135,2,831,2,144,2,1187,2,209,628,1522,2,5,247,2122,900,63,13,59,694,4480,745,136,778 1,1,1,1,1,1,1,1,1,1,1,1,1,1,1,1,1,1,1,1,1,1,1,1,1,1,1,1,1,1,1,1,1,1,1,1,1,1,1,1,1,1,1,1,1,1,1,1,1,1,1,1,1,1,1,1,1,1,1,1,1,1,1,1,1,45,1,12,1,9,1,1,1,1,1,1,1,1,1,1,1,1,1,1,1,1,1,1,1
70,20,19,23,12750,1105,10,2853,6,12751,7,23,4444,5416,2,51,1912,10,2853,92,5,2500,192,5772,997,455 1,1,1,1,1,1,1,1,1,1,1,1,1,1,1,1,1,1,1,1,1,1,1,1,1,1
70,1290,7,56,4480,33,5,20,816,10,265,114,71,6,997,286,761,13,6,1199,7,23,540,120,3570,6,778 1,1,1,1,1,1,1,1,1,1,1,1,1,1,1,1,1,1,1,1,1,1,1,1,1,1,1
1951,20,446,10,6,12752,10,4041,6,29,10,6,121 1,1,1,1,1,1,1,1,1,1,1,1,1
70,91,2262,23,424 1,1,1,1,1
11,3729 1,1
91,495,2,299,26,411,32,6,721,7,23,778 1,1,1,1,1,1,1,1,1,1,1,1
544,4,32,12,259,2,382,69,12,393 1,1,1,1,1,1,1,1,1,1
82,41,4,831,72,4,349,187,135,1187,331,7,2122,900,81,733,28,155,86,173,136,2370,36,906,1095,29,3849,394,13,531,36,160,268,21,39,209,628,1522,7,229,131,82,586,4,493,2370,23112,3256,27,447,1870,41,27,164,9,633,13,149,8,4,255,488,22,1937,9,2079,300,267,19,1971,54,8,260,1661,22,25,95,9,2079,300,267,19,1971,54,8,775,2272,22,1937,241,123,22,1937,2,1501,2067,1240,1937,243,505,22,483,1067,23113,539,35,293,555,58,41,436,4,2004,9,1157,8,25,5564,22,1541,238,4551,239,1145,9,775,8,25,2272,22,34,238,4551,239,255,25,227,22,34,238,4551,239,911,9,241,8,25,123,22,34,238,4551,239,483,6634,9,2985,6635,5476,8,25,35,293,34,238,4551,239,6597,9,2746,8,438,155,22,549,238,4551,239,828,9,260,8,25,155,22,34,238,4551,239,1584,1326,242,4024,22,12753,165,238,4551,239,139,4,705,36,1185,417,5,284,149,30,4,651,13,1508,138,171,9,340,3488,80,8,27,447,12539,518,13,117,3231,2,23114,12,3314 1,1,1,12,11,1,1,1,45,1,1,1,1,1,1,1,1,1,1,1,1,1,1,1,1,1,1,1,1,1,1,1,1,1,1,1,1,1,1,1,1,1,1,1,1,1,1,1,1,1,1,1,1,1,1,1,1,1,1,1,4,1,1,1,1,1,1,1,1,1,1,1,1,1,1,1,1,1,1,1,1,1,1,1,1,9,1,1,1,20,1,1,1,1,1,1,1,1,14,1,1,1,1,1,1,1,1,1,1,1,1,1,1,1,1,1,1,1,1,1,1,1,1,20,20,9,20,1,1,1,1,1,1,1,4,1,1,1,1,1,1,1,12,12,20,12,1,1,1,1,1,1,1,1,1,1,1,1,1,1,1,1,1,1,1,1,1,1,1,1,1,1,1,1,1,1,1,1,1,1,1,1,1,1,1,1,1,1,1,1,1,1,1,1,1,1,1,1,1,1,1,1,1,1,1,1,1,1,1,1,1,1,1,1,1,1,1,1,1,1,1,1,1,1,1,1,1,1,1,1,1
1114,13,152,357,120,20,1047 1,1,1,1,1,1,1
204,30,4,2904,592,2,249,1296,12,6,2526,1032,7,15,5151,12131,2,23,540,5,747,249,12,6,868,5,569,1032,7,6,5012 1,1,1,1,1,1,1,1,1,1,1,1,1,1,1,1,1,1,1,1,1,1,1,1,1,1,1,1,1,1,1
1183,967,98,2294,26,1199 1,1,1,1,1,1
91,463,2,232,26,3222,366 14,14,14,8,1,1,1
105,78,4,678,4,23115,23116,23117,23118,23119,19,670,202,4,474,234,4,1566,2,764,2,855 1,1,1,1,1,1,1,1,1,1,1,1,1,1,1,1,1,1,1,1,1,1
613 1
1457 1
978,90,13,11,1443 1,1,1,1,1
212,4,11,284,26,266,134,4,351 1,1,1,1,1,1,1,1,1
11,298 1,1
530,27,289,648,48,4,787,625,1879,4,456 1,1,1,1,1,1,1,1,1,1,1
44,2474 1,1
3236,2748,27,6523 1,1,1,1
11,218,207 1,1,1
2265,1415 1,1
365,4,23120,605 1,1,1,1
159,2,414,2,1695 1,1,1,1,1
12754,4,1465,1919,4,427,88,103,13,209,1522,83 1,1,1,1,1,1,1,1,1,1,1,1
662,5,61,1061 1,1,1,1
427,917,137,103,352,4,1432,1150,1673,203,141,4,4551,686,1550,571,1946,857,977,9,59,8,727,4815,9,77,8,415,1400,844,12314,1529,2406,9,303,8,813,6164,9,77,8,1424,875,330,2951,660,10360,499,3386,296,4423,9,59,8,578,1487,484,5451,701,5028,42,1124,404,9,77,8,42,551,504,9,59,8,42,772,117,9,59,8,42,773,55,42,796,558,70,3386,28,1049,1256,28,1072,7134,23121,8868,9,77,8,1297,4,3952,2,2674,2490,2,69,5154,28,2006,115,492,4294,2,492,8026,5,1450,4895,167,4,44,385,245 1,1,1,1,1,1,1,1,1,1,1,1,1,1,1,1,1,1,1,1,1,1,1,1,1,1,1,1,1,1,1,1,1,1,1,1,1,1,1,1,1,1,1,1,1,1,1,1,1,1,1,1,1,1,1,1,1,1,1,1,1,1,1,1,1,1,1,1,1,1,1,1,1,1,1,1,1,1,1,1,1,1,1,1,1,1,1,1,1,1,1,1,1,1,1,1,1,1,1,1,1,1,1,1,1,1,1,1,1,1,1,1,1,1,1,1,1,1,1,1,1,1
2723,866,1231,861 1,1,1,1
56,1003,2268,13,161,56,625,4981,861 1,1,1,1,1,1,1,1,1
11,186,1386,17,2467 1,1,1,1,1
674,4,48,788,4,11,181,7,811 1,1,1,1,1,1,1,1,1
657,1936,4,3294,2,2394,745,7,6,56,609,134,13,23122,1020,7,745,908,6,12755,694,4480 1,1,1,1,1,1,1,1,1,1,1,1,1,1,1,1,1,1,1,1,1,1
1194,10140,4,143,318,56,2957,1007,27,2135,713 1,1,1,1,1,1,1,1,1,1,1
595,2053,13,1707,12756,714 1,1,1,1,1,1
44,1116,3087,13,626,1228,42 1,1,1,1,1,1,1
44,1678,433,13,2946,7528,319,4,7758,13,1504,7,135,2,831,2,144,2,1187,2,209,628,1522,2,5,247,2122,900,63,13,59,694,4480,745,136,778 1,1,1,1,1,1,1,1,1,1,1,1,45,1,12,1,9,1,1,1,1,1,1,1,1,1,1,1,1,1,1,1,1,1,1,1
29,81,49,914,28,66,778,113,205,10,52,2228,43,30 1,1,1,1,1,1,1,1,1,1,1,1,1,1
23,12757,240,52,2912,7847,2,465,23,27,277,10,5597,307,17,38,5597,307,554 1,1,1,1,1,1,1,1,1,1,1,1,1,1,1,1,1,1,1
146,37,18,14,19,7439,2,18,494,52,87,13,154,7,233,2083,2173,9,12758,2,545,8,471,436,12,6,121 1,1,1,1,1,1,1,1,1,1,1,1,1,1,1,1,1,1,1,1,4,1,1,1,1,1,1
23,209,628,1522,83,14,161,272,10,326,103,5554,669,19,23,30 1,1,1,1,1,1,1,1,1,1,1,1,1,1,1,1
38,344,52,176,1851,32,92,197,1325,1642,607,1433,1626 1,1,1,1,1,1,1,1,1,1,1,1,1
390,4,36,383,83,29,71,255,10,545,3186,22,25,23123,2,10,52,2192,17,534,81,903,28,1473,5,2081,81,903,28,235,36,383,147,964,1851,1253,13,749,19,58,35,5,58,213,1851,36,383,23124,360,307,900,1211,1851,13,2746,182,22,438,64,36,383,521,2962,1851,32,14,562,669,19,171 1,1,1,1,1,1,1,4,1,4,1,1,1,1,1,1,1,1,1,1,1,1,1,1,1,1,1,1,1,1,1,1,1,1,1,1,1,1,1,1,1,1,1,1,1,1,1,1,1,1,1,1,1,1,1,1,1,1,1,1,1,1,1,1,1,1,1,1,1,1
240,163,10,214,23125,7,2539,1626,13,149,124,286,1012,356,17,38,2008,285 1,1,1,1,1,1,1,1,1,1,1,1,1,1,1,1,1,1
10,52,23126,89,13,62,6138,12747 1,1,1,1,1,1,1,1
5065,12746,23127,248,4203,2244,10473,2,106 1,1,1,1,1,1,1,1,1
7692,2,742,23128 1,1,1,1
