67,53,4,23550,304,317,397,9427,1778,121,840,153,457,945,4095 1,1,1,1,1,1,1,1,1,1,1,1,1,1,1
8834,1179,146,12,6352,1542,15,3358,26,779 1,1,1,1,1,1,1,1,1,1
72,369,73,401,45,65,246,230 4,4,1,1,1,1,1,1
436,89,2,92,14,12100,18,1788,13,12847,120,214,1020,200,23,72 1,1,1,1,1,1,1,1,1,1,1,1,1,1,1,1
18,557,92,246,583 1,1,1,1,1
349,470,3703 1,1,1
6970,2445,523 1,1,1
127,73,100,615,253,2,4377,136,116,23,41 8,1,1,1,1,1,1,1,1,1,1
38,14,15,1382,253 1,1,1,1,1
179,12847,147,2,23,73,100,20,96,1803,458,27,37,110,2,7975 1,1,1,1,1,1,1,1,1,1,1,1,1,1,1,1
45,23,2153,23,2100,5,96,23,401,12,23,349 1,1,1,1,1,1,1,1,1,1,1,1
308,41,654,566,25,55,293,64,336,2792,487,22,25,64,216,122,22,25,34,255,722,25,34,2198,407,22,25,34,1016,274,22,25,34,775,566,25,34,105,107,73,100,4377,142,5283,647,48,152,57,90,724,526,131,90,683,403,14,10,111,291,12,6,778 1,1,19,1,1,1,1,1,21,21,1,1,1,1,16,1,1,1,1,9,1,1,1,11,1,1,1,1,27,1,1,1,1,20,1,1,1,1,1,1,1,1,1,1,1,1,1,1,1,1,1,1,1,1,1,1,1,1,1,1,1,1
54,2328,43,1698,616,2762,1748,197,52,63 1,1,1,1,1,1,1,1,1,1
224,825,43,5860,697,3755,19,4374,830,2,1668 1,1,1,1,1,1,1,1,1,1,1
