67,53,4,23888,310,413,285,54,29,400,4,6651,4011,528,4,9448,53,7,285,4,23889,285,43,4,222,17,2607,959,166,5,202,374,259,4,1306,323,646,247,191,3142,9,1020,1276,12,6,48,2,221,2,5,2557,2836,2,5,21,65,19,3663,8,2,2968,12938,119,527,120,63,13,177,109,116,202,374,5,177,58,7,116,1197 1,1,1,1,1,1,1,1,1,1,1,1,1,1,1,1,1,1,1,1,1,1,1,1,1,1,1,1,1,1,1,1,1,1,1,1,1,1,1,1,1,1,1,1,1,1,1,1,1,1,1,1,1,1,1,1,1,1,1,1,1,1,1,1,1,1,1,1,1,1,1,1,1,1,1,1,1,1
29,14,816,10,741,15,6257,30,28,30,71,540,23890,4011,2,2657,50,446,19,6,2095,2,5,71,1993,9,2179,62,12936,12937,79,2092,310,54,8 1,1,1,1,1,1,1,1,1,1,1,1,1,1,1,1,1,1,1,1,1,1,1,1,1,1,1,1,1,1,1,1,1,1,1
23,540,148,37,129,1542,14,1052,10,23,63,12,1133,11006,18,20,121,27,4246,12,1133,2707,17,176,7,959,5,770,1266,2,947,302,2,5,142,302,37,39,584,215,35,10,55,130 1,1,1,1,1,1,1,1,1,1,1,1,1,1,1,1,1,1,1,1,1,1,1,1,1,1,1,1,1,1,1,1,1,1,1,1,1,1,1,1,1,1,1,1
424,237,19,12925,13,343,143,9319 1,1,1,1,1,1,1,1
68,729,7,6,1303,19,7445,115,15,492,7542,7,1812,752,12,6,56,9450 1,1,1,1,1,1,1,1,1,1,1,1,1,1,1,1,1,1
74,20,11,510,5361 1,1,1,1,1
38,20,515,13,378,930,516 1,1,1,1,1,1,1
3791,115,202,1266,7,6,4213,12,6,12926,5,3148,500,13,11,7787,2330 1,1,1,1,1,1,1,1,1,1,1,1,1,1,1,1,1
18,39,44,636,1225,2,1724,2,1013,2,5,1904,9,122,8 1,1,1,1,1,1,1,1,1,1,1,1,1,1,1
3213,5845,5765,20,69 1,1,1,1,1
1022,20,217,27,12931,68,2675,115,44,371,9,1180,8,2,217,972,9,2064,8,2,4204,9451,9,12927,330,2,12928,42,4204,2,12929,42,5215,2,5,4024,42,3391,8,5,7761,660 1,1,1,1,1,1,1,1,1,1,1,1,1,1,1,1,1,1,1,1,1,1,1,1,1,1,1,1,1,1,1,1,1,1,1,1,1,1,1,1,1,1
3213,1051,20,44 1,1,1,1
717,151,69 1,1,1
3213,12930,20,69 1,1,1,1
18,20,444,394,13,556,155,22,95,1883,455,10,123,22,95 1,1,1,1,1,1,1,1,1,1,1,1,1,1,1
12,104,114,2,92,20,54,37,5929,20,9452,2,15,9453,20,286,2,5,6,633,7788,145,9,9454,8,20,96,286,27,6,267,141 1,1,1,1,1,1,1,1,1,1,1,1,1,1,1,1,1,1,1,1,1,1,1,1,1,1,1,1,1,1,1,1
38,20,1302,10,1327,9455,5,18,20,170,5,394,201,830,58,7,242,1451 1,1,1,1,1,1,1,1,1,1,1,1,1,1,1,1,1,1
556,20,902,1883,10,699,160,23,63,20,1302,10,52,515,201,9455,5,31,9449 1,1,1,1,1,1,1,1,1,1,1,1,1,1,1,1,1,1,1
140,23,540,2,29,39,253,192,10,52,2230,7,2715,79,5,324,13,15,2362,23891,1199 1,1,1,1,1,1,1,1,1,1,1,1,1,1,1,1,1,1,1,1,1
215,6,99,492,109,2,18,21,3408,584,297,374,13,335,778 1,1,1,1,1,1,1,1,1,1,1,1,1,1,1
21,1902,1175,132,2,738,2882,19,23,786,2,21,65,2179,12,891,17,6,99,492,58,2,627,1199,10,265,10,6,4984,26,18,778,455 1,1,1,1,1,1,1,1,1,1,1,1,1,1,1,1,1,1,1,1,1,1,1,1,1,1,1,1,1,1,1,1,1
215,6,99,177,58,2,18,21,1517,761,297,2449,374,5,1197 1,1,1,1,1,1,1,1,1,1,1,1,1,1,1
18,21,65,2142,200,422,120,57,31,12,6,1330,2,629,37,685,57,74,28,629,37,6,23892,14,6,4984 1,1,1,1,1,1,1,1,1,1,1,1,1,1,1,1,1,1,1,1,1,1,1,1,1,1
92,20,15,1266,584,215,15,492,109,5,268,7337,215,6,99,492,58 1,1,1,1,1,1,1,1,1,1,1,1,1,1,1,1,1
29,148,829,573 1,1,1,1
19,63,10,6,222,2,18,20,54,10,52,2626,12,6,1661,79,9,490,416,1246,587,17,1252,130,2,52,264,114,43,1899,8,2,7739,2,1272,2,661,112,55,2,5,1224,223,131 1,1,1,1,1,1,1,1,1,1,1,1,1,1,1,1,1,1,1,1,1,1,1,1,1,1,1,1,1,1,1,1,1,1,1,1,1,1,1,1,1,1,1,1
544,4,6257,7,544,14,743 1,1,1,1,1,1,1
310,4,720,32,288,2,74,45,65,11,83,12,873,26,827,2,134,33,2,2369,2,1728,2,839,2,1514,2,3609,2,1478,2,26,709 1,1,1,1,1,1,1,1,1,1,1,1,1,1,1,1,1,1,1,1,1,1,1,1,1,1,1,1,1,1,1,1,1
202,4,69,17,275,2,507,2,284,2,83,12,142,2,48,33,2,411,2,233,7,183,2,256,2,294,33,2,301,2,392,2,472,2,5,83,12,320,26,898,1171 1,1,1,1,1,1,1,1,1,1,1,1,1,1,1,1,1,1,1,1,1,1,1,1,1,1,1,1,1,1,1,1,1,1,1,1,1,1,1,1,1
677,4,189,127 1,1,1,12
190,72 1,8
220,191,3142,281,2968,4006,166,332,527 1,1,1,1,1,1,1,1,1
380,1375 1,1
501,663,581 1,1,1
676,103,2557,2160 1,1,1,1
869,3534 1,1
1043,2511 1,1
1066,23893,970,516 1,1,1,1
244,4,3084,504,22,95,198,505,22,95,483,2249,636,539,216,155,22,95,783,155,22,95,1886,155,22,95,8766,1034 1,1,4,1,1,1,49,1,1,1,1,1,1,1,14,1,1,1,1,1,1,1,4,1,1,1,1,1
139,4,2235,36,368,1086,28,2376,36,256,204,331,4,936 1,1,1,1,1,1,1,1,1,1,1,1,1,1
249,13,540,23894 1,1,1,1
113,2715,27,164,27,490 1,1,1,1,1,1
4779 11
11,463 1,1
11,1202,26,5815 1,1,1,1
149,331,4,816,10,640,105,78,4,9,84,7,78,1338,9615,874,8,1595,4,303,776,534,3454,133,23895,618,830,2974,776,42,799,4,474,2,1196,234,4,1305,855 1,1,1,1,1,1,1,1,1,1,1,1,1,1,1,1,1,1,1,1,1,1,1,13,13,1,1,1,1,1,1,1,1,1,1,1,1,1,1
1457,2,978,90 1,1,1,1
134,4,351,724,4,456,48,4,1366,221,4,159,2,897,2,1307 1,1,1,1,1,1,1,1,1,1,1,1,1,1,1,1
2546,559,4,3089,2,11,88,212,4,11,266,2,11,284,352,4,931,4,799,4,452,2,15,1126,1266,10,2152,10,743,51,958,661,4,629,92,14,881,3877,5287,2932,7,2553,182,28,8497,2086,4,400,58,7,109,3415,2758 1,1,1,1,1,1,1,1,1,1,1,1,1,1,1,1,1,1,1,1,1,1,1,1,1,1,1,1,1,1,1,1,1,1,1,1,1,1,1,1,1,1,1,1,1,1,1,1,1,1,1,1,1
7715,4,2562,967,4832,1748,28,104,3845,2356,97,5788,1197 1,1,1,1,1,1,1,1,1,1,1,1,1
524,201,1506,2356 1,1,1,1
4186,5,400,203 1,1,1,1
344,1125,246,781,6707 1,1,1,1,1
947,4,6502,27,35,462,28,12527,27,94,1572,51,1706,223,117,201,10773,2743 1,1,1,1,1,1,1,1,1,1,1,1,1,1,1,1,1,1
400,6,4861,2758,2,51,31,6,12939,26,98,186,4861 1,1,1,1,1,1,1,1,1,1,1,1,1
816,10,741,393,7,98,93,1029,12,6,12940,9,23896,2,23897,2436,2,2039,8 1,1,1,1,1,1,1,1,1,1,1,1,1,1,1,1,1,1,1
2312,4,203,17,23898,5,94,8681,7172,4,418,10,23899,8960,3281,5,2647 1,1,1,1,1,1,1,1,1,1,1,1,1,1,1,1,1
966,4,638,4,5789,28,764,117,10,55,1205 1,1,1,1,1,1,1,1,1,1,1
816,10,728,8059,3414,23900,402,12941,1091,2,242,2,4483,4,613,967,1829,26,3014,28,11,2398,1595,4,498,203,10,718,1008,3979,4,1406,641,4867,4,995,203,3796,2,112,4,2119,44,2,2813,217,641,3158,4,4233,5,5801,295,1980,4,1515,1056,770,4,44,2569,5,1332,28,11,2245 1,1,1,1,1,1,1,1,1,1,1,1,1,1,1,1,1,1,1,1,1,1,1,1,1,1,1,1,1,1,1,1,1,1,1,1,1,1,1,1,1,1,1,1,1,1,1,1,1,1,1,1,1,1,1,1,1,1,1,1,1,1,1,1,1,1
11,3159,2905 1,1,1
634,90,641 1,1,1
1988,2449,143,374,51,563,96,52,341,2807 1,1,1,1,1,1,1,1,1,1
12466,2973,460,2246,4906,4121,5843,12942,3819,4581,12467,184,94,94,94,94,94,94,94,94,94,94,59,94,94,94,94,94,94,94,94,94,94,1057,4,44,5,641,9,196,8,12,1205,2586,2,3629,2,4045,2,6323,5,572 1,1,1,1,1,1,1,1,1,1,1,1,1,1,1,1,1,1,1,1,1,1,1,1,1,1,1,1,1,1,1,1,1,1,1,1,1,1,1,1,1,1,1,1,1,1,1,1,1,1,1,1
419,201,1707,4101 1,1,1,1
3190,4,903,5,890,203 1,1,1,1,1,1
2651,1581,23901 1,1,1
4029,4,1581,1758,2,12557,2,5,12943,203 1,1,1,1,1,1,1,1,1,1
709,4,1465,141,4,12944,686,2510,9,251,8,2,571,2001,9,49,8,2,857,977,9,251,8,2,727,1238,9,251,8,2,415,830,2,844,23902,2,813,4307,9,251,8,12944,364,23903,330,23904,2,296,4184,9,251,8,2,484,23905,1297,69,674,4,424,237,89,4,74,14,11,1056,3881,2,236,882,2,181,7,195,1998,475,2,26,2532 1,1,1,1,1,1,1,1,1,1,1,1,1,1,1,1,1,1,1,1,1,1,1,1,1,1,1,1,1,1,1,1,1,1,1,1,1,1,1,1,1,1,1,1,1,1,1,1,1,1,1,1,1,1,1,1,1,1,1,1,1,1,1,1,1,1,1,1,1,1,1,1,1,1,1,1,1,1,1,1
1783,5,9895,57,1707,515,13,219,23906,83 1,1,1,1,1,1,1,1,1,1
74,14,11,4343 1,1,1,1
209,5029,810,3469,83,57,467,54 1,1,1,1,1,1,1,1
74,14,11,185,159,1219,417,26,23907,745 1,1,1,1,1,1,1,1,1,1
1707,1830,7,15,23908,9456,57,3722,54 1,1,1,1,1,1,1,1,1
674,3194,7,6,23909,385,5,5787,698,843,57,90 1,1,1,1,1,1,1,1,1,1,1,1
74,14,103,23910 1,1,1,1
508,4,89,2676,1842,231,12,6,12945,1440,76,563,1327,881,811 1,1,1,1,1,1,1,1,1,1,1,1,1,1,1
226,3395,5,732,476,14,390 1,1,1,1,1,1,1
167,4,385,5333 1,1,1,1
11,561,83,26,555,837 1,1,1,1,1,1
210,5,390,4,1306,323,646,247,191,3142,9,1020,1276,12,6,48,2,221,2,5,2557,2836,2,5,21,65,19,3663,8,2,2968,12938,119,527,120,63,13,177,109,7,116,202,374,5,177,58,7,116,1197 1,1,1,1,1,1,1,1,1,1,1,1,1,1,1,1,1,1,1,1,1,1,1,1,1,1,1,1,1,1,1,1,1,1,1,1,1,1,1,1,1,1,1,1,1,1,1,1,1
78,682,17,428,947,5,125,1197,200,93,1029 1,1,1,1,1,1,1,1,1,1,1
141,57,526,720,2789,1463,510 1,1,1,1,1,1,1
424,237,526 1,1,1
23,186,63,20,1302,10,52,348,161,272,10,9455,32,393,288,2,684,74,20,450,6,270,7,23911 1,1,1,1,1,1,1,1,1,1,1,1,1,1,1,1,1,1,1,1,1,1,1,1
18,21,31,39,15,453,2675,10,210,17,1906,7,186,510,2,5,132,37,18,21,15,656,7,126,2,18,494,45,453,2675 1,1,1,1,1,1,1,1,1,1,1,1,1,1,1,1,1,1,1,1,1,1,1,1,1,1,1,1,1,1
18,494,96,45,68,729,32,15,23912,26,2797,516,14,987,270,1042 1,1,1,1,1,1,1,1,1,1,1,1,1,1,1,1
38,563,52,15,297,2449,377,10,12075,12,6,441,7,4592,104,43,428,25,79,2,51,38,494,52,15,537,7,8201 1,1,1,1,1,1,1,1,1,1,1,1,1,1,1,1,1,1,1,1,1,1,1,1,1,1,1,1
508,1876,15,743,7,12945,1842,520,270,1316,2,51,13,44,330,2,11,2118,884,79,26,256,2,5,11,275,2,50,629,92,14,1929,37,18,21,1316,5,40,104,226 1,1,1,1,1,1,1,1,1,1,1,1,1,1,1,1,1,1,1,1,1,1,1,1,1,1,1,1,1,1,1,1,1,1,1,1,1,1,1,1
3530,23,709,3530,1904,23913,17,3019,263,5,6326,2704,421,17,466,263,1123,19,843,23914,23915,7,6,1303,23916,6796,141,2033,376,2675,258,23917,2538,1751,7401,285,1380,4309,2610,5312,1795,2,4034,742,49,23918,4246,310,413,7692 1,1,1,1,1,1,1,1,1,1,1,1,1,1,1,1,1,1,1,1,1,1,1,1,1,1,1,1,1,1,1,1,1,1,1,1,1,1,1,1,1,1,1,1,1,1,1,1,1,1
