67,53,4,24012,6520,2048,162,77,81,1178,28,321,29,400,4,7789,2,2344,59,553,49,4,24013,53,4,6648,84,4,289,874,537,4,56,372,5865,477,2,119,56,372,5865,1195,5,1036,7628,5688,170,616,4,30,7,63,361,4,981,323,646,331,32,12952,2623,2,553,2,409,2,135,2,144,2,5729,2,1786,152,12953,2,5,423 1,1,1,1,1,1,1,1,1,1,1,1,1,1,1,1,1,1,1,1,1,1,1,1,1,1,1,1,1,1,1,1,1,1,1,1,1,1,1,1,1,1,1,1,1,1,1,1,1,1,1,1,1,1,1,1,1,1,1,1,1,1,1,1,4,1,8,3,5,1,9,1,1,1,1,1,1,1
18,39,5225,517,2112,173,2,5,132,1904,5,3617,217,13,177,372,33,2,340,477,12,56,372 1,1,1,1,1,1,1,1,1,1,1,1,1,1,1,1,1,1,1,1,1,1,1
18,21,65,1272 1,1,1,1
18,39,56,372,5865,1195,5,1036,7628,5688,6648 1,1,1,1,1,1,1,1,1,1,1
6358,434,4,2138,4,2456,2806,2,24014,2072,4461,4,24015,639,1447,2,6543,6277,1447,2,12954,5568,1447,953,4,7241,510,470,4,11,1036,4,2065,35,1719,123,248,33,187,4,9,35,8,590,269,36,119,24016,12,5776 1,1,1,1,1,1,1,1,1,1,1,1,1,1,1,1,1,1,1,1,1,1,1,1,1,1,1,1,1,1,1,1,1,1,1,1,1,1,1,1,1,1,1,1,1,1,1,1,1,1
12955,1851,434,682,17,410,377,627,1990,7779,1485,5,9220 1,1,1,1,1,1,1,1,1,1,1,1,1
9,55,8,1261,1922,36,595,10,177,553,43,695,12,9057,684,297,93,695,9,12956,8,71,4537,226,115,143,553,9,117,8,119,409,12,5776 1,1,1,1,1,1,1,1,1,1,1,1,1,1,1,1,1,1,1,1,1,1,1,1,1,1,1,1,1,1,17,4,34,34
170,17,48,33,27,4537,226,19,9463 1,1,1,1,1,1,1,1,1
3621,408,145,74,115,44,1061,97,98,2767,26,1920,1061,510 1,1,1,1,1,1,1,1,1,1,1,1,1,1
104,43,62,4341 1,1,1,1
82,3484,30,4,32,4,119,2623,2334,28,3767,2955,28,12955,1851,434,682,17,410,377,627,1990,7779,1485,5,9220 1,1,1,1,1,1,1,1,1,1,1,1,1,1,1,1,1,1,1,1,1,1,1,1,1,1
553,4,3208,10,177,43,695,12,9057,684,297,93,695,9,12956,8,71,4537,226,115,143,553,423,24017,19,531,119,409,12,5776 1,1,1,1,1,1,1,1,1,1,1,1,1,1,1,1,1,1,1,1,1,1,1,1,1,1,17,4,34,34
170,17,48,33,27,4537,226,19,9463 1,1,1,1,1,1,1,1,1
3621,408,145,74,115,44,1061,97,98,2767,26,1920,1061,510 1,1,1,1,1,1,1,1,1,1,1,1,1,1
104,43,62,4341 1,1,1,1
1786,152,80,4,5115,24018,42,2,104,43,62,8382,27,4537,226,10896,144,2,349,187,926,331,7,158,377,704,1119,2,119,898,3256,24019,2604,184,24020,2667,1009,2673,1733,171,164,41,4,243,2,828,2,2306,2,24021,2,814,2,1254,2,899,2,1280,2,491,6158,2,1225,2,539,139,4,2351,2,6297,2,6631,2,3251,2,2196,3803,30,4,11,3605,470,204,30,4,1792,4,55,24022,160,182,323,463,4,91,1202,4,91,85,7,191,4,111,259,78,4,678,4,534,1487,2,24023,2,1859,42,1669,689,202,4,985,234,4,613,2,764,48,4,787,1879,4,3236,672,208,365,4,31,250,131,4,61,1061 1,1,1,1,1,1,1,1,1,1,1,1,1,1,1,1,5,1,1,1,1,1,1,1,1,1,1,1,1,1,1,1,1,1,1,1,1,1,1,1,1,1,1,37,1,1,1,1,1,1,1,11,1,8,1,1,1,1,1,1,1,1,1,1,1,1,1,1,1,1,1,1,1,1,1,1,1,1,1,1,1,1,1,1,1,45,45,17,17,17,17,17,1,1,1,1,1,1,1,1,1,1,1,1,1,1,1,1,1,1,1,12,1,1,1,1,1,1,1,1,1,1,1,1,1,1,1,1,1,1,1,1,1,1,1,1,1,1,1,1,1
352,4,15,81,1178,28,983,112,117,2,11,915,224,512,332,978,141,4,24024,686,2055,2,571,2888,9,77,8,238,35,239,2,857,2217,2,727,7091,2,415,1170,2,844,11734,2,1529,2018,238,55,239,2,813,3476,9,77,8,238,35,239,258,1427,4,5504,24025,813,3914,9,77,8,9464,686,2247,2,571,2380,2,857,977,9,59,8,2,727,4369,2,415,763,2,844,7714,2,1529,2540,238,35,239,2,813,2217,12957,364,2969,2,22,24026,22,24027,1163,7217,2,4977,6003,2,9397,7535,9,77,8,2,9398,2135,2,9399,24028,9,77,8,2,6627,2056,2,499,1893,4370,9,59,8,12957,330,3546,2,660,31,375,2,499,816,10,2312,660,4699,2,5150,24029,2,296,3670,1050,2,5150,6084,9,59,8,2,578,31,375,2,700,31,375,2,737,31,12958,330,2490,2,660,12170,9,59,8,2,499,3491,9,59,8,2,296,7624,9,59,8,2,578,1531,2,700,12698,2,737,24030,484,24031,2,701,31,12958,484,12959,2,701,3346,9,77,8,9464,70,4505,9,77,8,2,1049,1523,2,1072,24032,2288,1612,2,2978,90,2,2061,69,2,2478,69,2,2277,69,2,4805,24033,2,2012,69,2,1616,24034,2479,69,2,2784,69,2,2062,69,2,1713,24035,4,24036,4,24037,1783,4,1173,56,760,433,14,44 1,1,1,1,1,1,1,1,1,1,1,1,1,1,1,1,1,1,1,1,1,1,1,1,1,1,1,1,1,1,1,1,1,1,1,1,1,1,1,1,1,1,1,1,1,1,1,1,1,1,1,1,1,1,1,1,1,1,1,1,1,1,1,1,1,1,1,1,1,1,1,1,1,1,1,1,1,1,1,1,1,1,1,1,1,1,1,1,1,1,1,1,1,1,1,1,1,1,1,1,1,1,1,1,1,1,1,1,1,1,1,1,1,1,1,1,1,1,1,1,1,1,1,1,1,1,1,1,1,1,1,1,1,1,1,1,1,1,1,1,1,1,1,1,1,1,1,1,1,1,1,1,1,1,1,1,1,1,1,1,1,1,1,1,1,1,1,1,1,1,1,1,1,1,1,1,1,1,1,1,1,1,1,1,1,1,1,1,1,1,1,1,1,1,1,1,1,1,1,1,1,1,1,1,1,1,1,1,1,1,1,1,1,1,1,1,1,1,1,1,1,1,1,1,1,1,1,1,1,1,1,1,1,1,1,1,1,1,1,1,1,1,1,1,1,1,1,1,1,1,1,1,1,1,1,1,1,1,1,1,1,1,1,1,1,1,1,1,1,1,1,1,1,1,1
6,1709,893,1166,14,9013,42 1,1,1,1,1,1,1
74,57,11,1440,780,730,510 1,1,1,1,1,1,1
6,590,714,205,10,52,15,61,2182,7552,714,13,44,433,9,1238,713,24038,24039,43,226,67,8 1,1,1,1,1,1,1,1,1,1,1,1,1,1,1,1,1,1,1,1,1,1,1
6,1128,6313,590,714,3683,14,24040,6388 1,1,1,1,1,1,1,1,1
6,1128,24041,590,714,3502,14,8948,2019 1,1,1,1,1,1,1,1,1
6,3161,590,714,3502,14,9345,2019 1,1,1,1,1,1,1,1
74,14,11647,590,797 1,1,1,1,1
1261,714,4,6,1261,714,14,143,752,1397 1,1,1,1,1,1,1,1,1,1
74,14,595,10,177,1261,1922,13,15,1705,24042,4,48,55,8974,4,9464,24043,152,4,6,152,1019,57,277,5,341,2317,5,1619,17,1745 1,1,1,1,1,1,1,1,1,1,1,1,1,1,1,1,1,1,1,1,1,1,1,1,1,1,1,1,1,1,1,1
74,14,1707,7,6,8545,2,76,563,1327,246,143,1786,88 1,1,1,1,1,1,1,1,1,1,1,1,1,1
74,14,11,915,698,2737,1842,10,520,811 1,1,1,1,1,1,1,1,1,1
6305,4,74,14,11,1082,877,26,3573 1,1,1,1,1,1,1,1,1
138,5,3811,4,6,101,4697,14,702,44,406,12,1002 1,1,1,1,1,1,1,1,1,1,1,1,1
590,714,5865,14,54 1,1,1,1,1
948,4,74,57,143,1656,83,7,6,3661,4113 1,1,1,1,1,1,1,1,1,1,1
1585,14,54,12,6,320,71,186,554 1,1,1,1,1,1,1,1,1
319,4,270,246,143,1786,88 1,1,1,1,1,1,1
11,181,7,915,811 1,1,1,1,1
210,5,108,4,981,323,646,331,32,12952,2623,2,553,2,409,2,135,2,144,2,5729,2,1786,152,12953,2,5,423 1,1,1,1,1,1,1,1,1,1,1,1,1,1,4,1,8,3,5,1,9,1,1,1,1,1,1,1
2,340,477,12,56,372 1,1,1,1,1,1
119,56,372,5865,1195,5,1036,7628,5688,352,4,33,187,13,1584,7871,666,4,252,31,370,814,89 1,1,1,1,1,1,1,1,1,1,1,1,1,1,1,1,1,1,1,1,1,11,1
479,133 1,1
741,545,242,165,17,133,2860 1,3,1,1,1,1,1
1774,814,1696 1,11,1
2078,4,24044,2,87,1952,527,165 1,1,1,1,1,1,1,1
1209,4542,81,733,28,1855,42,158,4,479,6543 1,1,1,1,1,1,1,1,1,1,1
2271,81,733,28,723,24045 1,1,1,1,1,1
18,39,330,12,1887,1297 1,1,1,1,1,1
1357,1297,132 1,1,1
368,4,2426,24046,32,562 1,1,1,1,1,1
1075,4,479,330,2,87,5284,2645,4,479,6694,401,12,248,141 1,1,1,1,1,1,1,1,1,1,1,1,1,1,1
2107,4,479,2392,71,56,372 1,1,1,1,1,1,1
384,842 1,1
1209,499,81,733,28,1043,1774,531,2860 1,1,1,1,1,1,1,1,1
24047,4,7175,122,571,235,4975,1331,4,1669,308,4,891,416 1,1,1,1,1,1,1,1,1,1,1,1,1,1
953,4,7241,24048,24049,4,3779,2,3831,2,950 1,1,1,1,1,1,1,1,1,1,1
744,166,4,295,2775,24050,8975,2,228,931,413,2,6520,5714,742,49,24051 1,1,1,1,1,1,1,1,1,1,1,1,1,1,1,1,1
