67,53,4,24388,24389,2,24390,2,5425,6,29,20,231,12,3480,13,413,2,62,5613 1,1,1,1,1,1,1,1,1,1,1,1,1,1,1,1,1,1,1,1
413,79,54,20,85 1,1,1,1,1
6,29,20,231,5,107,43,291 1,1,1,1,1,1,1,1
383,111,6,413,79,54,17,393,7,6,29,79,82,41,2,204,2,149,30,2,85,7,191,2,5,105,78 1,1,1,1,1,1,1,1,1,1,1,1,1,1,1,1,1,1,1,1,1,1,1,1,1,1,1
880,278,4,1749,5,839 1,1,1,1,1,1
30,7,63,361,4,38,14,15,13040,439,13,15,30,7,516,5,693,12,7802,5,15,2502,30,7,72,120,63,89,13,15,1828,13041,11470,498,12,23,75,619,27,7850,1864,471,1278 1,1,1,1,1,1,1,1,1,1,1,1,1,1,1,1,1,1,1,1,1,1,1,1,29,1,1,1,1,1,1,1,1,1,1,1,1,1,1,1,1,1,1
92,99,2204,868,5,268,464,523 1,1,1,1,1,1,1,1
8407,462,536,2,18,1045,15,1052,498,12,23,75,619,17,15,492,868,5,268,523,464,2,5,268,18,1045,92,12,23,75,362,5,6,419 1,1,1,1,1,1,1,1,1,1,1,1,1,1,1,1,1,1,1,1,1,1,1,1,1,1,1,1,1,1,1,1,1,1
18,24391,23,419,12,23,2575,5,268,37,523,136,15,492,868,5,268,182,462,136,37,18,39,15,1052,51,600,177,498,12,6,24392,7,23,56,619,27,200,24393,37,268,523,464 1,1,1,1,1,1,1,1,1,1,1,1,1,1,1,1,1,1,1,1,1,1,1,1,1,1,1,1,1,1,1,1,1,1,1,1,1,1,1,1,1,1,1
160,268,2,18,21,39,11,498,161,38 1,1,1,1,1,1,1,1,1,1
18,21,39,3825,5,2629,199,12,23,619,5,786,12,6,82,2,51,622,15,1828,13041,199,161,38,12,6,82 1,1,1,1,1,1,1,1,1,1,1,1,1,1,1,1,1,1,1,1,1,1,1,1,1,1,1
18,39,11,2841,2,1197,2,374,2,839,1309,2,565,2,302,7,3196,2,823,2,693,308,2,83,12,23,41,2,26,98,311,41 1,1,1,1,1,1,1,1,1,1,1,1,1,1,1,1,1,1,1,1,1,1,1,1,1,1,1,1,1,1,1,1
18,1351,23,514,32,766,38,486,2,14,132,126,777,2,5,246,61,205 1,1,1,26,1,1,1,1,1,1,1,1,1,1,1,1,1,1
18,446,23,1453,79,632,5,6,820,954,23,10,482,10,6,315,481,10,52,147 1,1,1,1,1,1,1,1,1,1,1,1,1,1,1,1,1,1,1,1
82,41,30,4,127,2,72,2,360,398,2,693,12,6,441,7,15,516,12,7802,2,5,15,56,2358,516,12,7802 1,1,1,1,4,1,29,1,29,29,15,1,1,1,1,1,1,1,1,1,1,1,1,1,1,1,1,1
18,21,39,11,693,160,268 1,1,1,1,1,1,1
18,21,2154,75,229,131,374,2,76,14,132,615,253 1,1,1,1,1,1,1,1,1,1,1,1,1
695,12,7802,115,68,626,7,312,42 1,1,1,1,1,1,1,1,1
18,21,2169,1544,2,11,780,730,510,2,5,11,175,171 1,1,1,1,1,1,1,1,1,1,1,1,1,1
204,30,4,82,1047,7,182,1324,86,2,463,180,2,5,11,242,366,154 1,1,1,48,48,6,6,6,6,1,1,1,1,1,1,1,1,1
18,264,32,15,4196,616,388,5,249,13,23,149 1,1,1,1,1,1,1,1,1,1,1,1
149,30,4,2205 1,1,1,1
85,7,191,4,382,2,69 1,1,1,1,1,1,1
41,4,18,47,1821,2,1345,2,989,2,514,2,255,2,1204,2,5,241 1,1,1,1,1,1,15,1,8,1,26,6,21,1,19,1,1,9
139,4,180 1,1,1
105,107,4,18,14,1272,13,44,5,219,339,224 1,1,1,1,1,1,1,1,1,1,1,1
1027,2,452,2,5,12,11,350 1,1,1,1,1,1,1,1
23,78,14,464,526,156,1038,634,12,23,451,5,229,131 1,1,1,1,1,1,1,1,1,1,1,1,1,1
709,14,44 1,1,1
18,21,11,2430,224,2,82,808,4025,2,5790,2,2732,2,915,374,2,26,98,915,1107,1122,27,223 1,1,1,1,1,1,1,1,1,1,1,1,1,1,1,1,1,1,1,1,1,1,1,1
489,512,4,167,115,2090,27,227,1961,15,462,13,1493,1533,83 1,1,1,1,1,1,1,1,1,1,1,1,1,1,1
1752,14,12283,1821,445,14,44 1,1,1,1,1,1,1
424,237,115,11,181,7,459,26,98,175,510 1,1,1,1,1,1,1,1,1,1,1
315,481,434,4,310,20,285,5,755,13,6,537,7,161,347,575 1,1,1,1,1,1,1,1,1,1,1,1,1,1,1,1
685,40,583,1780,973,702,35,109,17,38,29,13,23,5171,5,18,14,954,10,111,23,803,211,327,702,55,109,5,10,403,10,6,315,481,17,98,48,33,2,233,7,183,2,26,98,175,620,7,23,126 1,1,1,1,1,1,1,1,1,1,1,1,1,1,1,1,1,1,1,1,1,1,1,1,1,1,1,1,1,1,1,1,1,1,1,1,1,1,1,1,1,1,1,1,1,1,1,1,1,1
683,4,18,14,61,205,27,6,84,7,271,12,2726,614 1,1,1,1,1,1,1,1,1,1,1,1,1,1
574,7803,2,5425,106 1,1,1,1,1
539,4,13042,303,4,13042,606,43,4,7803,2,5425,847,24394,1765,257,31,85,43,262,327,257 1,1,1,1,1,1,1,1,1,1,1,1,1,1,1,1,1,1,1,1,1,1
