67,53,4,24591,317,162,54,29,400,4,6657,2,4986,528,4,13081,53,4,24592,170,1703,4,24593,2146,4,24594,431,17,162,4,1820,259,4,599,6657,14,15,1306,2214,439,13,72,120,63,71,164,13,68,665,55,130,30,7,584,1820,2,3572,5,2944 1,1,1,1,1,1,1,1,1,1,1,1,1,1,1,1,1,1,1,1,1,1,1,1,1,1,1,1,1,1,1,1,1,1,1,1,1,1,1,1,1,4,1,1,1,1,1,1,1,1,1,1,1,1,1,1,1,1,1
200,37,84,18,20,1577,3863,5,3714,2,1784,17,2113,2412,7357,9,31,633,8,28,18,148,68,3009,1108,10,3863,13,284,5,1185,417 1,1,1,1,1,1,1,1,1,1,1,1,1,1,1,1,1,1,1,1,1,1,1,1,1,1,1,1,1,1,1,1
6,244,151,1298,5,18,118,15,434,7,832,12439 1,1,1,1,1,1,1,1,1,1,1,1
18,469,38,177,109,173,532,92,1077,23,24595 1,1,1,1,1,1,1,1,1,1,1
665,6,1151,84,18,1220,10,1045,37,1139,5,1718,240,199,11868,12,6,1181,28,19,273,743,2,18,96,197,45,54,6,2639,7,810,2650,12,6,1364,1021,38,84,32,61 1,1,1,1,1,1,1,1,1,1,1,1,1,1,1,1,1,1,1,1,1,1,1,1,1,1,1,1,1,1,1,1,1,1,1,1,1,1,1,1,1
11,275,2,507,2,405,960,2,301,2,392,2,48,33,2,411,2,573,2,1239,2,1728,2,284,26,311,623,33,28,11,93,2076 1,1,1,1,1,1,1,1,1,1,1,1,1,1,1,1,1,1,1,1,1,1,1,1,1,1,1,1,1,1,1,1
18,113,54,37,23,73,401,27,164,45,65,515,217,10,6,13082,500 1,1,1,1,1,30,30,30,30,30,30,30,30,30,30,30,30
12,6,222,2,599,6657,20,1272,5,1539,219 1,1,1,1,1,1,1,1,1,1,1
18,20,176,43,6,368,481 1,1,1,1,1,1,1
15,994,2733,145,20,69 1,1,1,1,1,1
18,20,557,10,45,143,2384,5,143,3598,2,32,61,32,15,743,7,7211,964,83 1,1,1,1,1,1,1,1,1,1,1,1,1,1,1,1,1,1,1,1
6,288,502,2743,162,17,273,1232 1,1,1,1,1,1,1,1
544,4,2609,286,5,69,288 1,1,1,1,1,1,1
3575,4,72,369,127,283,254,716,1375,5,277,192,33,247,13079,9,1668,8,139,4,148,284,5,1185,417,13,3863,41,4,255,667,95,13083,488,22,4278,165,336,819,25,64,3133,155,22,95,4803,925,4193,8989,807,165,24596,3834,109,149,30,4,2205,204,30,4,249,1296,28,149,5656,756,12,23,211,5,1199,13,621,2715 1,1,4,4,8,15,22,1,1,1,1,1,1,1,1,1,1,1,1,1,1,1,1,1,1,1,1,1,1,9,1,1,1,1,1,1,1,21,1,1,1,1,1,1,1,1,1,1,1,1,1,1,1,1,1,1,1,1,1,1,1,1,1,1,1,1,1,1,1,1,1,1,1,1,1
11,541,2,708,26,366,154 14,14,14,14,1,1,1
3100,12,6159,2,99,110,200,178,86,173 1,1,1,1,1,1,1,1,1,1
105,78,4,799,4,452,2,474,678,4,1272,1531,24597,610,235,42,670,234,4,1858,90,2,855,2,1169,90,2,978,13,143,3318,2,451,2928,28,11,385,250,134,4,351,2,11,1276,28,11,824,870,138,4,456,2,1257,97,208,152,4,787,103,97,24598,365,4,159,2,414,2,1695,2,2546,2,11,236,559,4,662,2,11,88,212,4,11,284,26,3910,352,4,15,81,2964,2,11,915,1122,489,4,5301,381,24599,496,24600,9,1860,1391,2,1155,551,8,1964,1069,3487,1069,1084,1069,1238,1069,2208,1069,1256,496,4598,1529,1865,24601,44,24602,44,112,55,441,1297,4,1476,371,2,382,69,2878,4,359,717,376,1348,4,180,964,4,804,2,3594,2837,28,303,837,24603,12,5407,37,20,31,54,19,1668,964,319,5,108,4,1361,2214,439,13,24604,1820,2,832,6500,2,5,428,187,72,369 1,1,1,1,1,1,1,1,1,1,1,1,1,1,1,1,1,1,1,1,1,1,1,1,1,1,1,1,1,1,1,1,1,1,1,1,1,1,1,1,1,1,1,1,1,1,1,1,1,1,1,1,1,1,1,1,1,1,1,1,1,1,1,1,1,1,1,1,1,1,1,1,1,1,1,1,1,1,1,1,1,1,1,1,1,1,1,1,1,1,1,1,1,1,1,1,1,1,1,1,1,1,1,1,1,1,1,1,1,1,1,1,1,1,1,1,1,1,1,1,1,1,1,1,1,1,1,1,1,1,1,1,1,1,1,1,1,1,1,1,1,1,1,1,1,1,1,1,1,1,1,1,1,1,1,1,1,1,1,1,1,1,1,1,1,1,1,1,1,1,1,1,1,1,1,1,1,1,1,1,1,4,4
6,2639,7,3318,1876,5666,17,1402,6500,2,684,18,113,31,148,4172 1,1,1,1,1,1,1,1,1,1,1,1,1,1,1,1
2228,759,494,52,836,316 1,1,1,1,1,1
6,2639,7,143,2384,5,3598,14,161,1596,10,6,1649,37,18,4356,1298,24605,3663,136,15,177,109,434,28,18,14,1539,219 1,1,1,1,1,1,1,1,1,1,1,1,1,1,1,1,1,1,1,1,1,1,1,1,1,1,1,1,1
608,2,74,14,1126,436,10,520,195,188,754,2,684,18,778,908,15,24606,7,29,297,161,10,63,13,750,126 1,1,1,1,1,1,1,1,1,1,1,1,1,1,1,1,1,1,1,1,1,1,1,1,1,1,1
964,5405,104 1,1,1
72,14,428,187,5,197,627,444,7,157,345,28,684,401,436,197,45,65,24607,43,6,225,7,1176,146,12,222 4,1,1,1,1,1,1,1,1,1,1,1,1,1,1,1,1,1,1,1,1,1,1,1,1,1,1
666,4,833,479,2048,28,1244,964,5,101,3202,28,198,2,87,1938,1891,1342,4,11,470,28,925,165,368,4,451,2101,10239,108,17,6,486,28,1221,136,2139,28,87,164,2324,1653,4,1165,919,157,2,336,28,442,72,2270,2,5,214,13,480,1095,444,7,157,14,5405 1,1,1,1,1,1,1,1,1,1,1,1,1,1,1,9,9,1,1,1,1,1,1,1,1,1,1,1,1,1,1,1,1,1,1,1,1,1,1,1,1,1,1,39,39,33,33,21,1,1,4,1,1,1,1,1,1,1,1,1,1,1,1
147,1022,2,6731,1905,4,479,1845,28,11956,5901,349,2668,80,4,104,2386,2,8988,17,6500,28,3554,14,5499,2,51,31,915,181,7,477,3167,4,6597,197,52,118,136,2386,204,264,285,10,210,1485,5569,5,1199,13,271,108,3753,6286,40,3815,211,12,6,486 1,1,1,1,1,1,1,1,1,1,1,1,1,1,1,1,1,1,1,1,1,1,1,1,1,1,1,1,1,1,1,1,1,1,1,1,1,1,1,1,1,1,1,1,1,1,1,1,1,1,1,1,1,1,1,1,1,1,1,1
383,1288,62,6286,454,27,24608,13,743,4765,136,24609 1,1,1,1,1,1,1,1,1,1,1,1
3746,2875,24610,2,228,742,24611 1,1,1,1,1,1,1
