67,53,4,24629,9485,2,7808,528,4,9486,24630,1670,1528,509,688,9335,2,247,24631,663,2160,2,254,2,328,638,144,2,63,939,10,632,13,735,24632,58,1971,7,4619,2,5544,432,1335,379,256 1,1,1,1,1,1,1,1,1,1,1,1,1,1,1,8,1,1,1,1,1,1,22,1,4,4,4,4,1,1,1,1,1,1,1,1,1,1,1,1,1,1,1,1,1
326,2810,405,688,405,960 1,1,1,1,1,1
8090,24633,6255,82,117,58 1,1,1,1,1,1
96,54,1614,59,2046,12908,967,1309,2,5,178,19,59,1915,1033 1,1,1,1,1,1,1,1,1,1,1,1,1,1,1
96,15,5442,2532,266,59,13086,5,8555,19,2711,24634,15,59,4443,2532 1,1,1,1,1,1,1,1,1,1,1,1,1,1,1,1
11,4471,2,368,26,1341,884 1,1,1,1,1,1,1
20,118,19,24635,508,115,3032,1908,184,24636,5,842,688,1315,821,24637,2,296,182,2,330,24638,688,94,42,1391,9,24639,2881,8,2,5,1389,42,781,24640,843,688,24641,2,125,688,4541 1,1,1,1,1,1,1,1,1,1,1,1,1,1,1,1,1,1,1,1,1,1,1,1,1,1,1,1,1,1,1,1,1,1,1,1,1,1,1,1,1,1,1
416,57,875,42,551,2,122,42,772,2,5,35,24642,5,35,24643 1,1,1,1,1,1,1,1,1,1,1,1,1,1,1,1
1132,7,2092,39,39,644,5,1844,1302,10,52,2276,361,2,76,523 1,1,1,1,1,1,1,1,1,1,1,1,1,1,1,1
11,363,1995,1520 1,1,1,1
54,37,547,14,94,130,9033 1,1,1,1,1,1,1
19,78,8555,474,51,2393,2,24644,1627,720,378,13086,266,2,48,688,24645,5,7322,1222,59,381,184,793,793,152,1567 1,1,1,1,1,1,1,1,1,1,1,1,1,1,1,1,1,1,1,1,1,1,1,1,1,1,1
11,3181,1999 1,1,1
365,645 1,1
11,284 1,1
1504,2,6727,2,6726,2,244,32,140,963,632,54,4,153,127,21,39,143,127,5,12,2072,7,2601,3726,19,216 1,1,1,1,1,1,1,1,1,1,1,1,1,1,8,1,1,1,8,1,1,1,1,1,1,1,16
13087,110,3535,27,3917,5,24646,19,453 1,1,1,1,24,1,24,1,1
116,216,122,1215,10,182,1215,2574,19,37,9487,688,653,302,9103,49,10,6544 1,16,1,1,1,1,1,1,1,1,1,1,1,1,1,1,1,1
4838,114,10,5042,467 1,1,1,1,1
133,3917,5,24647,3472,182,60,381,155,51,38,197,31,13088 5,24,1,16,1,1,1,1,1,1,1,1,1,1
457,945,24648,24649,43,5410,174,10,404,648 1,1,1,1,1,1,1,1,1,1
491,1899,146 1,1,1
4838,1824,24650,1200,994 1,1,1,1,1
146,8412 1,1
40,214,273,435,84 1,1,1,1,1
1337,663,1755,840,5178,4543,43,3996,3090,7128,2073,26,175,527,12622,663,24651 1,1,1,1,1,1,1,1,1,1,1,1,1,1,1,1,1
38,20,1799,15,24652,2160,7,6,4769,843,328 1,1,1,1,1,1,1,1,1,1,1
74,20,11,1799,1755 1,1,1,1,1
62,6022,1386,17,285,124,163 1,1,1,1,1,1,1
19,4469,1001 1,1,1
1628,2,279,1718,178,58,15,109 1,1,1,1,1,1,1,1
1013,52,104 1,1,1
217,371,24653,24654,20,9929,518,20,72,5,16,14,1555,254 1,1,1,1,1,1,1,1,1,1,1,1,1,22
1022,11808,1338,6065,10493 1,1,1,1,1
238,24655,239,142,114,10,1352,1283,2010,51,268,21,3726,10,1431,142,2,9859,24656 1,1,1,1,1,1,1,1,1,1,1,1,1,1,1,1,1,1,1
24657,4676,4307 1,1,1
24658,412,24659 1,1,1
8695,36,412,8556,27,12095,765 1,1,13,13,1,1,1
24660,36,6559,19,336,3149,322 1,1,1,1,21,1,1
8271,104,17,402 1,1,1,1
11,181,7,575 1,1,1,1
11,2003,1026 1,1,1
9487,24661,812,538,375 1,1,1,1,1
1369,9487,13089,4676,5,412,375,89 1,1,1,1,1,1,1,1
3974,2570,884,63,4406,5,729,633,3418,5,7909,2302,272,10,24662,1506 1,1,1,1,1,1,1,1,1,1,1,1,1,1,1,1
739,3684,13078,2,120,2753,2085,5,38,21,65,7,615,583 1,1,1,1,1,1,1,1,1,1,1,1,1,1
4838,110,829,3825,5,2629,2,562,2,967,634,153 1,1,1,1,1,1,1,1,1,1,1,1
154,1801,1435,322,688,600,1136 1,1,1,1,1,1,1
40,460,2382,322,688,851 1,1,1,1,1,1
212,266,4838,54,10,45,270,881,24663,59,288,5429 1,1,1,1,1,1,1,1,1,1,1,1
96,68,1007,266,184,625,48,2,5,15,492,175,7,161,24664 1,1,1,1,1,1,1,1,1,1,1,1,1,1,1
519,10,7213 1,1,1
24665,24666 1,1
82,41,30,11,1099,586,121 1,1,1,1,1,1,1
232,585,24667 6,6,6
1143,3580 1,1
149,30,518,72,2,611,2334,27,1313,7,410,377 1,1,1,1,1,1,1,1,1,1,1,1
651,611,3090,2,447,596,2,1807,6839,27,5715,7479,3462 1,1,1,1,1,1,1,1,1,1,1,1,1
279,992,2,94,5,123,860,5432,2,15,81,688 1,1,1,1,1,1,1,1,1,1,1,1
279,3560,12445,13,72 1,1,1,1,1
174,2387,881,206,26,879,364 1,1,1,1,1,1,1
204,30,388,17,8474 1,1,1,1,1
3056,2134,13,2502,24668,4271 1,1,1,1,1,1
540,3100,5528 1,1,1
238,24669,239,24670,5145,540,3100,24671 1,1,1,1,1,1,1,1
747,3100,8297 1,1,1
264,13090 1,1
24,547,264,17,24672 1,1,1,1,1
85,7,191,13087,110,148,24673,1833,7,341,827,28,1104,12,1896,854,74,14,15,1497,7,4213,7106 1,1,1,1,1,1,1,1,1,1,1,1,1,1,1,1,1,1,1,1,1,1,1
19,78,16,21,5481,3400,10,6,59,51,180,19,6,2558,16,14,519,10,62,24674,17,176 1,1,1,1,1,1,1,1,1,1,1,1,1,1,1,1,1,1,1,1,1,1
44,78,5,24675,24676 1,1,1,1,1
24677,872,887,71,24678,10,4838,110 1,1,1,1,1,1,1,1
394,9868,385,24679 1,1,1,1
4838,24680,1612,1344,467 1,1,1,1,1
24681,688,24682,5,96,1462,19,7222 1,1,1,1,1,1,1,1
85,7,191,382,69,720,140,153,1103 1,1,1,1,1,1,1,1,1
105,78,212,32,54 1,1,1,1,1
234,2155,354,43,8271,5129 1,1,1,1,1,1
2615,79,90 1,1,1
1277,645 1,1
134,11,870,2,116,530,2,207,26,1276,684,5785 1,1,1,1,1,1,1,1,1,1,1,1
48,90 1,1
3264,11,208,26,560 1,1,1,1,1
221,645,7128,1131,26,250 1,1,1,1,1,1
11,207 1,1
846,78,11,266 1,1,1,1
696,31,1007 1,1,1
491,174,17,73 1,1,1,1
8629,354 1,1
131,137,295,2,11,88 1,1,1,1,1,1
41,216,425,25,34,118,53,4,13091,949,1718,1001 1,16,1,1,1,1,1,1,1,1,1,1
1801,5109,35,46,9,66,8,25,322,7222,9,4842,6397,872,8,4601,2309,34,1628,4469,25,34,118,53,4,13091,35,293,680,2,720,17,279,178,58,140,109,989,4012,25,322,1104,470,14,1095,24,1152,510,57,621,10,477,2,1784,24683,2,26,1095,74,14,803,1152,956,13,3471,24684 1,1,1,1,1,1,1,1,1,1,1,1,1,1,1,1,1,1,1,1,1,1,1,1,1,1,1,1,1,1,1,1,1,1,1,1,1,21,1,1,1,1,1,1,1,1,1,1,1,1,1,1,1,1,1,1,1,1,1,1,1,1,1,1,1,1
21,226,459,32,61,32,3508 1,1,1,1,1,1,1
152,510,197,52,811,2,51,146,2718,163,273,2313,60,1929,4748 1,1,1,1,1,1,1,1,1,1,1,1,1,1,1
50,6357,794,62,6980,9292,10,285 1,1,1,1,1,1,1,1
574,9488,1694,1648,2,106 1,1,1,1,1,1
