67,53,4,24793,5762,1130,7,38,54,14,6,4259,315,1300 1,1,1,1,1,1,1,1,1,1,1,1,1,1
1227,191 1,1
223,2738,494,1162,12,3991 1,1,1,1,1,1
3768,13105,41,24794,481,67,36,1633,168,222,2284,54,3991,54,166,4,224,29,4,2361,2,1685,81,921,81,921,528,4,9489,2185,4,13106,3393,4,697,4206,342,4,6658,24795,222,2284,54,2284,162,54,222,4859,53,84,4,6658,13109,38,54,21,65,825,224,43,13110,2,4230,2,1169,6658,24796,226,1703,587,12,6,222,54,156,4,820,3108,4,13110,2,4230,2,1169,238,2803,239,342,7,24797,24798,238,2803,239,880,278,4,495,238,2803,239,24799,323,373,119,5225,35,4375,173,2,63,10,6,81,9493,28,222,13,2200,565,5,495 1,1,1,1,1,1,1,1,1,1,1,1,1,1,1,1,1,1,1,1,1,1,1,1,1,1,1,1,1,1,1,1,1,1,1,1,1,1,1,1,1,1,1,1,1,1,1,1,1,1,1,1,1,1,1,1,1,1,1,1,1,1,1,1,1,1,1,1,1,1,1,1,1,1,1,1,1,1,1,1,1,1,1,1,1,1,1,1,1,1,1,1,1,1,1,1,1,1,1,1,1,1,1,1,1,1,1,1,1,1,1,1,1,1,1,1,1,1,1,1,1,1
746,6,565,32,81,9493,28,712,4519,81,9493,28 1,1,1,1,1,1,1,1,1,1,1,1
292,8784,13,301,6,396,902,299,2,374 1,1,1,1,1,1,1,1,1,1
11,3729,140,70 1,1,1,1
16,889,10,6,222,1394,238,2803,239,5265,4,2269,2,135,2,831,2,209,184,657,5,184,372,33,2,1018,2,696,1007,2,440,1587,2,716,2,2187,7,827 1,1,1,1,1,1,1,1,1,1,1,4,1,8,8,15,1,1,1,1,1,1,1,1,1,1,1,1,1,1,1,1,1,1,1,1,1,1
238,2803,239,244,4,13108,723,22,95,9490,1089,2272,22,95,336,487,22,64,1127,122,64,255,227,22,95,216,155,22,35,81,49,3550,28,293,95,675,155,22,81,49,3550,28,293,95,828,155,22,95,2193,9173,22,95,9094,2984,64,243,505,22,95,907,95,5866,213,12714,1882,9492,1293,165,238,2803,239,139,4,11,363,366,139 1,1,1,1,1,1,1,1,1,1,1,1,1,1,21,1,1,1,1,1,1,9,1,1,1,16,1,1,1,1,1,1,1,1,1,12,1,1,1,1,1,1,1,1,1,1,1,1,26,1,1,1,1,1,1,11,1,1,1,1,1,1,1,1,1,1,1,1,1,1,1,1,1,1,1,1,1
1525,9,8,238,2803,239,149,331,4,149,30,3698 1,1,1,1,1,1,1,1,1,1,1,1
238,2803,239,204,331,4,29,113,31,232 1,1,1,1,1,1,14,14,14,14
29,113,31,154,541 1,1,1,1,1
29,113,31,154,366 1,1,1,1,1
238,2803,239,544,4,2630,4,111,259 1,1,1,1,1,1,1,1,1
603,4,111,259 1,1,1,1
4858,4,111,259 1,1,1,1
238,2803,239,544,5,7425,32,54,288,5,12,6,222,67,17,38,5197 1,1,1,1,1,1,1,1,1,1,1,1,1,1,1,1,1
223,175,191,382,69 1,1,1,1,1
105,78,4,202,4,339,32,140,820,54 1,1,1,1,1,1,1,1,1,1
29,14,1027,5,452 1,1,1,1,1
29,14,661,1098 1,1,1,1
29,14,4072,205 1,1,1,1
29,14,15,61,396,2,61,2123,2,373 1,1,1,1,1,1,1,1,1,1
238,2803,239,134,4,6,134,14,351 1,1,1,1,1,1,1,1,1
238,2803,239,2630,4,183,309,57,341 1,1,1,1,1,1,1,1,1
6,152,57,90,10,478,103 1,1,1,1,1,1,1
238,2803,239,603,4,6,138,309,45,15,44,2474 1,1,1,1,1,1,1,1,1,1,1,1
6,138,14,150,169,5,245 1,1,1,1,1,1,1
238,2803,239,3973,4,6,221,14,414,5,1695 1,1,1,1,1,1,1,1,1,1,1
221,14,159 1,1,1
320,309,57,63 1,1,1,1
238,2803,239,1039,4,3876,1295,14,24800,97,181,7,477,238,2803,239,141,258,4,141,258,17,4,2361,2,1685,646,145,400,4259,4557,3448,686,2862,571,2066,857,235,727,24801,415,763,844,24802,1529,2692,9,303,8,813,235,1424,875,141,258,17,4,2361,2,1685,646,145,400,4259,4259,4557,4557,9494,3448,364,3546,1177,1884,22,1568,952,2124,1652,1396,1398,2739,1395,1676,1740,798,9,59,8,2670,2242,2105,1800,141,258,17,4,2361,2,1685,646,145,400,4259,4557,9494,1423,517,9,59,8,1399,1170,1448,1361,952,2124,1652,1396,141,258,17,4,2361,2,1685,646,145,400,4259,4557,10303,1310,69,2237,69,141,258,17,4,2361,2,1685,646,145,400,4259,4557,3448,330,1884,9,59,8,660,24803,9,59,8,499,3491,9,59,8,296,4991,9,59,8,578,1484,700,8520,737,4183,484,4337,701,3499,2684,370,1050,1193,42,1124,1602,42,551,182,42,772,650,42,773,117,42,796,558,2395,24804,2396,24805,2463,6003,2464,11845,2465,1770,1467,180,1416,180,2466,180,2006,180,141,258,17,4,2361,2,1685,646,145,400,4259,4259,4557,4557,9494,3448,70,5008,9,77,8,1049,1710,10980,24806,9,77,8,4666,3210,383,3616,958 1,1,1,1,1,1,1,1,1,1,1,1,1,1,1,1,1,1,1,1,1,1,1,1,1,1,1,1,1,1,1,1,1,1,1,1,1,1,1,1,1,1,1,1,1,1,1,1,1,1,1,1,1,1,1,1,1,1,1,1,1,1,1,1,1,1,1,1,1,1,1,1,1,1,1,1,1,1,1,1,1,1,1,1,1,1,1,1,1,1,1,1,1,1,1,1,1,1,1,1,1,1,1,1,1,1,1,1,1,1,1,1,1,1,1,1,1,1,1,1,1,1,1,1,1,1,1,1,1,1,1,1,1,1,1,1,1,1,1,1,1,1,1,1,1,1,1,1,1,1,1,1,1,1,1,1,1,1,1,1,1,1,1,1,1,1,1,1,1,1,1,1,1,1,1,1,1,1,1,1,1,1,1,1,1,1,1,1,1,1,1,1,1,1,1,1,1,1,1,1,1,1,1,1,1,1,1,1,1,1,1,1,1,1,1,1,1,1,1,1,1,1,1,1,1,1,1,1,1,1,1,1,1,1,1,1,1,1,1,1,1,1,1,1,1,1,1,1
238,2803,239,1348,4,319,4,44,48 1,1,1,1,1,1,1,1,1
24807,152 1,1
424,237,4589,376,262,85,189,915,9896,12,13111,5,75,2797,13112,32,288,2,1327,447,5419,306,161,209,475 1,1,1,1,1,1,1,1,1,1,1,1,1,1,1,1,1,1,1,1,1,1,1,1,1
729,306,240,52,297,2317,17,176,7,475 1,1,1,1,1,1,1,1,1,1
55,11,181,7,2440,2532 1,1,1,1,1,1
238,2803,239,41,1642,24808,323,373,13,495,2,299,119,5225,36,3471,17,423 1,1,1,1,1,1,1,1,1,1,1,1,1,1,1,1,1,1
21,1439,1198,2,6289,522,12,12182,7,237,108,36,104,78,6289,522,12,248,238,2803,239,2284,262,54,222,4859,53,84,4,6658,13109,38,54,21,65,825,224,43,3300,13113,2,4234,6658,24809,226,1703,587,12,6,222,54,156,4,262,4,3300,13113,2,4234,238,13114,239,262,228,24810,323,509,39,93,184,372,943,2,132,13,278,939,7,1728,24811,471,324,27,1000 1,1,1,1,1,1,1,1,1,1,1,1,1,1,1,1,1,1,1,1,1,1,1,1,1,1,1,1,1,1,1,1,1,1,1,1,1,1,1,1,1,1,1,1,1,1,1,1,1,1,1,1,1,1,1,1,1,1,1,1,1,1,1,1,1,1,1,1,1,1,1,1,1,1,1,1,1,1,1,1,1,1,1,1
89,16,39,184,567,495,5,16,39,125,297,1239 1,1,1,1,1,1,1,1,1,1,1,1
758,10,222,17,176 1,1,1,1,1
423,7427,61,205,509,12,474,424,1566,402,613,764,134,351,2,11,207,48,90,724,354,1257,365,159,24812,559,184,372,60,1025,2488,2,11,4351,2,11,1344 1,1,1,1,1,1,1,1,1,1,1,1,1,1,1,1,1,1,1,1,1,1,1,1,1,1,1,1,1,1,1,1,1,1,1,1,1
292,88 1,1
352,10101,112,117,6388,203,2,643,184,280,341,634,621,10,33,862,4,70,39,171,200,178,130,173,51,539,10698,14,217 1,1,1,1,1,1,1,1,1,1,1,1,1,1,1,1,1,1,1,1,1,1,1,1,1,1,1,1,1
272,10,48,33,102,40,1337,423 1,1,1,1,1,1,1,1
470,14,37,38,4360 1,1,1,1,1
358,21,65,360,326,2,643,89,92,14,12441,102,40,1105,10,265,15,6289,522,12,1864,90,508,12901,61,17,154,3707,522,263 1,1,1,1,1,1,1,1,1,1,1,1,1,1,1,1,1,1,1,1,1,1,1,1,1,1,1,1,1,1
124,277,5163,344,876,192,10,1000 1,1,1,1,1,1,1,1
50,45,107,6,29,5,214,13,6,820,3108,6,29,79,211,5,755,13,6,108 1,1,1,1,1,1,1,1,1,1,1,1,1,1,1,1,1,1,1,1
238,13114,239 1,1,1
