67,53,4,24880,24881,2,24882,2,9495,6,29,20,231,19,24883,13,62,24884 1,1,1,1,1,1,1,1,1,1,1,1,1,1,1,1,1,1
6,29,20,1322,5,107,43,291 1,1,1,1,1,1,1,1
413,79,54,20,85,5,633 1,1,1,1,1,1,1
108,7,211,20,214 1,1,1,1,1
383,111,413,79,54,17,393 1,1,1,1,1,1,1
30,7,63,361,4,1824,2,38,14,15,6590,439,13,30,7,3596,72,5,3088,158,80,120,63,10,315,481,136,68,287,7,1197,397,13,15,73,401,12,6,1567,10,1521,9,140,1951,8,5,985,10,6501,3737,13,44,959,166,751,889,12,6,222 1,1,1,1,1,1,1,1,1,1,1,1,1,1,1,4,4,1,1,1,1,1,1,1,1,1,1,1,1,1,1,1,1,1,1,1,1,1,1,1,1,1,1,1,1,1,1,1,1,1,1,1,1,1,1,1,1,1,1
19,273,30,2,92,738,37,6,29,1351,23,766,225,7,157,38,486,5,5711,1241,51,1890,2876,5,1901,532,7,15,12055,12,6,11832,37,39,24885,23 1,1,1,1,1,1,1,1,1,1,1,1,1,1,7,1,1,1,1,1,1,1,1,1,1,1,1,1,1,1,1,1,1,1,1,1
18,21,39,186,287,7,1370,397,13,4681,851 1,1,1,1,1,1,1,1,1,1,1
382,2,18,21,65,199,61 1,1,1,1,1,1,1
11,93,83,12,41 1,1,1,1,1
82,41,30,4,72,2,127,2,1270,2,9811,2,5,3088,158,80,9,13134,8 1,1,1,1,4,1,8,1,1,1,1,1,1,1,1,1,1,1,1
41,4,157,2,2585,2,2960,2,9496,2,4292,2,5,1886 1,1,7,1,20,20,1,1,1,1,1,1,1,12
105,107,4,1027,2,452,2,997,114,12,891,2,5,637,1981 1,1,1,1,1,1,1,1,1,1,1,1,1,1,1
11,195,350 1,1,1
890,4784,2,137,14,505,2,1538,763,2,73,100,11755,2,5,137,4594,235,42,19,712,698 1,1,1,1,1,1,1,1,1,1,5,5,5,1,1,1,1,1,1,1,1,1
603,78,4,150,169,5,245 1,1,1,1,1,1,1
152,57,90 1,1,1
221,14,159,5,414 1,1,1,1,1
212,14,662,5,61,1061 1,1,1,1,1,1
310,4,452,5,661,1098,5,2212 1,1,1,1,1,1,1,1
489,512,4,167,4,97,338 1,1,1,1,1,1,1
810,821,2429,2,73,371,1859,2,358,2969,2,429,1550,2,5,673,10539,226,319,4,1370,12,441,7,158,377,257,31,85,43,262,327,257,108,4,10,229,529,225,71,182,10,274,168 1,1,1,1,1,1,1,1,1,1,1,1,1,1,1,1,1,1,1,1,1,1,1,1,1,1,1,1,1,1,1,1,1,1,1,1,1,7,1,1,1,1,1,1
480,2,62,13135,20,5747 1,1,1,1,1,1
6,29,40,104,114,13,194,19,4317 1,1,1,1,1,1,1,1,1
574,6526,2,9495,106 1,1,1,1,1
539,4,13136,303,4,13136,606,43,4,6526,2,9495,847,24886,1765 1,1,1,1,1,1,1,1,1,1,1,1,1,1,1
