67,53,4,24866,13127,315,1300,110,13128,2,13129,24867,110,53,4,24868,84,7,606,4,35,2712,63,278,5,30,7,63,278,4,38,29,14,15,3177,576,120,63,10,6,13127,1778,226,315,481,71,164,136,6,29,20,557,455,43,23,540,6774,23,164,17,68,3567,1403,7,84 1,1,1,1,1,1,1,1,1,1,1,1,1,1,1,1,1,1,1,1,1,1,1,1,1,1,1,1,1,1,1,1,1,1,1,1,1,1,1,1,1,1,1,1,1,1,1,1,1,1,1,1,1,1,1,1,1,1,1,1,1,1,1,1,1
6,13130,5,5645,151,446,6,12752 1,1,1,1,1,1,1,1
6,5645,151,418,10,6312,1508,6,5416,7,6,164 1,1,1,1,1,1,1,1,1,1,1,1
6,29,20,557,13116,19,6,1032,2,45,15,202,24869,24870,693 1,1,1,1,1,1,1,1,1,1,1,1,1,1,1
6,29,20,1959,5,146,213,22,7,1273,186,10,889,12,6,315,481,13,6,13130 1,1,1,1,1,1,1,1,1,1,1,1,1,1,1,1,1,1,1,1
19,889,12,6,315,481,2,6,29,20,54,10,52,24871,2,1959,2,5,90,12,195,350 1,1,1,1,1,1,1,1,1,1,1,1,1,1,1,1,1,1,1,1,1,1
6,29,21,15,30,7,72,369 1,1,1,1,1,1,4,4
18,21,39,15,693,12,6,82,2,771,621,10,1370 1,1,1,1,1,1,1,1,1,1,1,1,1
18,96,21,15,30,7,360,73,100 1,1,1,1,8,8,8,8,8
18,14,19,2585,2,216,2,5,41,17,831 1,1,1,20,20,16,16,1,1,1,15
105,107,4,23,890,14,24872,866,1843,2,23,137,801,2,23,410,169,624,2,23,73,100,19,889,24873,2,5,23,689,1097,14,776,42 1,1,1,1,1,1,1,1,1,1,1,1,1,1,1,1,1,1,1,1,5,5,5,5,5,1,1,1,1,1,1,1,1
19,105,107,2,6,234,107,290,15,1184,424,13,11,181,7,1309,19,107 1,1,1,1,1,1,1,1,1,1,1,1,1,1,1,1,1,1
6,1206,57,924,5,1534,2,374,1186,10,718 1,1,1,1,1,1,1,1,1,1,1
6,1206,57,55,713 1,1,1,1,1
6,2155,344,31,52,728 1,1,1,1,1,1
6,134,14,351 1,1,1,1
74,57,11,24874,54 1,1,1,1,1
6,48,14,90,10,478,103 1,1,1,1,1,1,1
6,138,21,44,276,5,282,2,11,1096,26,982,2,5,11,208 1,1,1,1,1,1,1,1,1,1,1,1,1,1,1,1
6,221,14,6082,2,51,159,5,976,2,97,1632,2,1540,2,236,2,26,1131 1,1,1,1,1,1,1,1,1,1,1,1,1,1,1,1,1,1,1
6,131,57,995,702,44,406 1,1,1,1,1,1,1
995,2,74,14,11,4855,28,74,57,11,3109,28,6,1057,57,200,427,103 1,1,1,1,1,1,1,1,1,1,1,1,1,1,1,1,1,1
489,176,4,6,424,237,14,54,10,52,69 1,1,1,1,1,1,1,1,1,1,1
6,167,290,561,217,12,1091,5,270,1603 1,1,1,1,1,1,1,1,1,1
6,138,169,14,665,6034,6,48,788,115,4463,2027,938 1,1,1,1,1,1,1,1,1,1,1,1,1
6,749,50,14,2318,2,5,14,12,6,1258,7,52,453 1,1,1,1,1,1,1,1,1,1,1,1,1,1
6,371,14,3904,2,6,415,2040,2,6,358,4202,2,6,429,1817,2,6,673,3487,2,6,790,2201,2,6,727,3622,6,886,14,54,10,52,24875,2,5,6,1310,14,2477,42 1,1,1,1,1,1,1,1,1,1,1,1,1,1,1,1,1,1,1,1,1,1,1,1,1,1,1,1,1,1,1,1,1,1,1,1,1,1,1,1,1,1
6,5846,994,14,69 1,1,1,1,1
6,749,50,467,14,6776,6,359,5846,14,96,54,10,52,69 1,1,1,1,1,1,1,1,1,1,1,1,1,1,1
6,810,821,14,830,2,6,691,875,2,6,863,2135,2,5,6,1315,821,24876,6,1663,115,1476,73 1,1,1,1,1,1,1,1,1,1,1,1,1,1,1,1,1,1,1,1,1,1,1,1
74,57,343,11078,4895,12,6,359 1,1,1,1,1,1,1,1
345,1863,12,222,4,6,108,14,10,170,6,29,10,6,2023,211,168,17,273,2026,5,176 1,1,1,1,1,1,1,1,1,1,1,1,1,1,1,1,1,1,1,1,1,1
68,2675,40,52,375,12,6,315,481,2,5,104,6,2675,2,6,29,40,52,758,10,6,41,2023,211,168 1,1,1,1,1,1,1,1,1,1,1,1,1,1,1,1,1,1,1,1,1,1,1,1,1,1
608,537,4,6,1320,319,12,6,315,481,14,693,5,11512,7,7444,1042 1,1,1,1,1,1,1,1,1,1,1,1,1,1,1,1,1
683,9,156,614,19,271,8,4,6,29,40,52,170,10,6,41,2023,211,168,104,23,1519,7440 1,1,1,1,1,1,1,1,1,1,1,1,1,1,1,1,1,1,1,1,1,1,1
1380,24877,2113,13131,13132,2,106 1,1,1,1,1,1,1
13133,24878,24879,606,43,4,2113,13131,13132,2,106 1,1,1,1,1,1,1,1,1,1,1
13133,257,31,85,43,262,327,257 1,1,1,1,1,1,1,1
