67,53,4,25037,4910,226,110,70,4,1823,6660,53,7,110,4,25038,2567,4,13157,13,328,638,144,2,135,2,254,2,7814,4261,2,4242,1469,2,5,2480,63,10,4910,17,384,110,589,4,35,8,144,2,55,8,25039,25040,28,117,8,1956,145,28,213,8,56,473,33,5,10,224,114,17,2089,2705 1,1,1,1,1,1,1,1,1,1,1,1,1,1,1,1,1,1,1,1,34,34,19,1,17,35,19,1,1,1,1,1,1,1,1,1,1,1,1,1,1,1,1,1,1,1,19,1,1,1,1,1,1,1,1,1,1,1,1,1,1,1,1,1,1,1,1,1,1,1
259,4,732,331,10,52,85,43,1619,470 1,1,1,1,1,1,1,1,1,1
35,8,144,4,348,93,1106,13158,4,3920,42,9,326,3017,8,5,359,7373,4,13159 1,1,19,1,1,1,13,13,13,13,13,13,13,34,34,1,1,1,1,1
6086,2050,517,933,9,686,4,1817,2,571,4,2005,2,8995,4,13160,8,2,813,4,13161,248,1192,4,25041,28,55,548,332,6410,25042 1,1,1,1,1,1,1,1,1,1,1,1,1,1,1,1,1,1,1,1,1,1,1,1,1,1,1,1,1,1,1
1556,55,287,140,130,854,18,199,3332,2,8403,5,21,10,637,28,21,31,147,1192,27,84,7,287,28,523,13,25,1259 1,1,1,1,1,1,1,1,1,1,1,1,1,1,1,1,1,1,1,1,1,1,1,1,1,1,1,1,1
746,1065,1890,851,28,31,637,1241 1,1,1,1,1,1,1,1
87,10,746,116,308,445 1,1,1,1,1,1
55,8,7814,4261,4,519,10,202,3095,62,6286,27,99,110 1,1,1,1,1,1,1,1,1,1,1,1,1,1
1823,739,62,6286,19,25043,120,597,37,146,6,3723,5135,7,6,56,2009,756,2,18,240,627,1020,2399,5,2817,2,5,161,4997,2163,2591 1,1,1,1,1,1,1,1,1,1,1,1,1,1,1,1,1,1,1,1,1,1,1,1,1,1,1,1,1,1,1,1
16,2,1198,2,519,23,10,4252,171 1,1,1,1,1,1,1,1,1
199,37,18,163,2116,467,3052,7,116,1344,5,769 1,1,1,1,1,1,1,1,1,1,1,1
3024,21,65,348,583,93 1,1,1,1,1,1
326,717,5,69,17,4241 1,1,1,1,1,1
89,2,91,275,2,507,2,2051,2,1239,2,116,33 1,1,1,1,1,1,1,1,1,1,1,1,1
117,8,1956,145,4,1823,93,148,37,23,6125,962,39,954,23,37,16,39,2041,471,685,151,3810,51,622,954,23 1,1,1,1,1,1,1,1,1,1,1,1,1,1,1,1,1,1,1,1,1,1,1,1,1,1,1
9426,2041,2881,69 1,1,1,1
464,273,1956,145,27,99,110,5,12744,2,25044,2,9453,2,5,2733,151,69 1,1,1,1,1,1,1,1,1,1,1,1,1,1,1,1,1,1
450,45,31,65,418,10,147,8438,5,7327,3052,1823,199,18,344,31,1688,2147,78,146,1093,12,1216,570 1,1,1,1,1,1,1,1,1,1,1,1,1,1,1,1,1,1,1,1,1,1,1,1
91,98,2002,271 1,1,1,1
31,129,2003,308 1,1,1,1
213,8,13162,33,4,111,54,71,13158,17,295,331,393 1,1,1,1,1,1,1,1,1,1,1,1,1
39,729,521,17,9463,51,816,10,568,849,928,25045 1,1,1,1,1,1,1,1,1,1,1,1
4338,17,1508,729,19,25046,76,18,20,418,10,464 1,1,1,1,1,1,1,1,1,1,1,1
45,31,1813,370,2487,7,258 1,1,1,1,1,1,1
94,8,33,25047,2089,2705,4,532,7,33,928,177,1093,5,132,59,473,2,1823,21,65,47,1280,5264,555,213,548 1,1,1,1,1,1,1,1,1,1,1,1,1,1,1,1,1,1,1,1,1,1,1,1,1,1,1
85,8416,17,2089,2705 1,1,1,1,1
85,307,5,1136,7,2089,154,2,156,13163 1,1,1,1,1,1,1,1,1,1
746,150,2513,66,5,11,153,13,631,12,25048,7,95,2089 1,1,1,1,1,1,1,1,1,1,1,1,1,1
153,328,55,72,283,247,4563,1270,247,3308,1047,127,254,247,3420,25049,993,2990,357,1427,4,518,2,3921,2,5,992,41,5343,1293,55,42,1975,9,5343,2082,55,42,8,35,1736,9,55,42,1293,9,1719,8,8,975,322,2411,2418,1975,975,64,112,1238,58,2,383,1974,834,15,58,10,1325,570,2235,4097,9,12443,12444,2013,634,8,35,293,25,34,112,182,58,4394,7766,9,12814,7766,8,12617,22,9,25050,46,8,25,64,112,830,58,336,856,22,9,819,46,47,55,8,25,64,112,182,58,2,118,13,819,35,293,5599,140,58,28,446,10,214,116,12,35,2568,1016,274,22,9,807,46,47,35,8,25,34,112,182,58,25051,9,6384,8,55,1293,9,55,42,1293,9,1719,8,8,975,64,2,1974,10,1325,570,834,15,58 1,34,34,34,22,1,1,1,1,1,13,4,19,1,1,1,1,1,1,1,1,1,1,1,1,1,1,1,1,1,1,1,1,1,1,1,1,1,1,1,1,1,1,1,1,1,1,1,1,1,1,1,1,1,1,1,1,1,1,1,1,1,1,1,1,1,1,1,1,1,1,1,1,1,1,1,1,1,1,1,1,1,1,1,1,1,1,1,1,1,1,1,1,1,1,1,1,1,1,1,34,1,1,1,1,1,1,1,1,1,1,1,1,1,1,1,1,1,1,1,1,1,1,1,1,1,1,1,1,1,1,8,1,1,1,1,1,1,1,1,1,1,1,1,1,1,1,1,1,1,1,1,1,1,1,1,1,1,1,1,1,1,1,1,1,1,1,1,1
1254,9,675,8,404,22,9,1607,46,47,35,8,25,314,112,182,58,2,124,356,396,784,33,26,374,2,469,6,366,1505,5,446,767,1453 19,13,27,13,1,1,1,1,1,1,1,1,1,1,1,1,1,1,1,1,1,1,1,1,1,1,1,1,1,1,1,1,1,1
2229,715,9,1345,715,8,798,22,9,1872,293,1518,5332,47,35,8,25,34,2598,9,6297,8,819,46,47,35,46,9,66,8,25,895,112,830,58,2202,9,2016,8,487,22,9,819,46,47,35,8,25,34,112,830,58,3024,9,4156,8,487,22,9,819,46,47,35,8,25,64,112,830,58,3251,35,42,3589,1975,975,64,112,1238,58,2,383,1974,10,1325,570,834,15,58,25052,9,25053,117,42,8,94,1447,975,34,112,182,58,216,155,22,9,485,46,47,35,8,25,34,112,182,58,1280,9,9501,8,9437,46,25,1541,165,33,112,182,58,2,172,31,1278,4402,1496,1492,13153,471,19,244,32,344,726,356,5842,1273,9,1797,8,723,22,9,2305,46,47,35,8,25,64,165,13164,2,47,178,46,834,95,32,163,17,4242,1469,139,2959,36,2698,2,423,4,339,224,133,25054,2,321,1531,2,653,5369,965,202,4,254,646,2,205,2988,688,736,7,473,234,4,855,2,1457,2,11,937,1342,4,1366,13,230,698,736,724,4,456,2,7378,2,11,1060,365,4,254,2,159,2,3130,2,1353,2,11,1006,901,559,4,11,580,88,2,59,473,688,1812,1543,928,33,28,292,116,769,5,143,1344,71,59,2131,862,4,13157,13,328,638,144,2,135,2,254,2,7814,4261,2,4242,1469,2,5,2480,28,862,10,52,214,43,1619,470 12,4,1,1,1,1,1,1,1,1,1,1,1,1,1,1,1,1,1,1,1,1,1,1,1,1,1,1,1,1,1,1,1,1,1,1,1,1,1,1,1,1,1,1,1,1,1,1,1,1,1,1,1,1,1,1,1,1,1,1,1,1,1,1,1,1,1,1,1,1,1,1,1,1,1,1,1,1,1,1,1,1,1,1,1,1,1,1,1,1,1,1,1,1,1,1,1,1,1,1,1,11,1,1,1,1,1,1,1,1,1,1,1,1,1,1,1,1,1,1,1,1,1,1,1,1,1,1,1,1,1,1,1,1,1,1,1,1,1,1,1,1,1,1,1,1,1,1,1,1,1,1,1,1,1,1,1,1,1,1,1,1,1,1,1,1,1,1,1,1,1,1,1,1,1,1,1,1,1,1,30,12,4,1,1,1,1,1,1,1,1,5,1,1,1,1,1,1,1,1,1,1,1,1,1,1,1,1,1,1,1,1,1,1,1,1,1,1,1,1,1,1,1,1,1,5,1,1,1,1,1,1,1,1,1,1,1,1,1,1,1,1,1,1,1,1,1,1,1,1,1,1,1,1,1,1,1,1,1,1,1,1,1,34,34,19,1,17,35,19,1,1,1,1,1,1,1,1,1,1,1,1,1,1,1,1,1
35,8,144,4,348,93,1106,437,288,858,7,496,517,9,3920,8,5,116,71,186,1106,25055,1385,116,1106,3114,93,2471,7,336,76,1823,20,31,418,10,562 1,1,19,1,1,1,1,1,1,1,1,1,1,1,1,1,1,1,1,1,1,1,1,1,1,1,1,1,1,34,1,1,1,1,1,1,1
140,23,148,2,812,248,1192,205,348,217,2,643,3660,1893,147,27,99,20,13161,794,1823,10,1209,15,2705,7,23,1192,2,147,812,2,55,548,6308,2,5,314,1192,19,1758,58 1,1,1,1,1,1,1,1,1,1,1,1,1,1,1,1,1,1,1,1,1,1,1,1,1,1,1,1,1,1,1,1,1,1,1,1,1,1,1,1,1,1
60,60,116,2229,715,798,22,34,10,566,34,5,520,47,27,405,146,217,812,1192,2,4681,1241,51,4427,1901,2,5,5881,287,7,1784,1370 1,1,1,12,4,1,1,1,1,1,1,1,1,1,1,1,1,1,1,1,1,1,1,1,1,1,1,1,1,1,1,1,1
60,60,635,467,85,6,1549,7,150,2,378,851,146,2229,28,214,442,1481,10,7601,2229,1823,66,437,1372,1139,1259,10,1512,1835,287 1,1,1,1,1,1,1,1,1,1,1,1,1,12,5,1,1,1,1,1,12,1,1,1,1,1,1,1,1,1,1
40,442,1481,27,435,110,5,13,85,7,1192,2705 1,1,1,1,1,1,1,1,1,1,1,1
60,60,794,1823,10,147,1192,468,287,7,8403,28,40,163,10,479,984,146,93,118,7,1301,5,497,37,92,197,2806,884,2610,214,38,688,1823,5,635,467,5117,1549,7,150,851,19,2229 1,1,1,1,1,1,1,1,1,1,1,1,1,1,1,1,1,1,1,1,1,30,1,1,1,1,1,1,1,1,1,1,1,1,1,1,1,1,1,1,1,1,1,12
60,60,87,243,942,34,2,216,485,34,60,60,6086,359,7373,4,13159,2,288,858,7,496,182,5,161,272,10,896,217,133 1,1,1,8,1,1,1,11,1,1,1,1,1,1,1,1,1,1,1,1,1,1,1,1,1,1,1,1,1,1
1144,466,73,100,1381,89,9,814,715,8,5,40,3413,25056,635,133,1110,458,187 1,1,1,1,1,1,1,8,5,1,1,1,1,1,1,1,1,1,1
6086,8995,4,13160 1,1,1,1
60,60,40,592,144,362,78,27,435,110 1,1,1,1,19,1,1,1,1,1
1823,91,98,839,26,1749,7,131,27,38,84 1,1,1,1,1,1,1,1,1,1,1
60,60,133,450,31,27,144,858,7,496,2815,28,1144,814,715,807,34,10,705,274,34,5,216,155,34,60,60,9426,9,13165,8,4,9504,4,3550,28,957,4,1865,2,2322,4,4841,2,593,4,2226,28,19,675,1607,314 1,1,1,1,1,1,19,1,1,1,1,1,35,8,5,1,1,1,22,1,1,1,11,1,1,1,1,1,1,1,1,1,1,1,1,1,1,1,1,1,1,1,1,1,13,13,13,12,1,27,1,1
593,437,288,144,858,7,496,235,2,51,1823,21,160,1105,10,116,305,5,637,277,2248,2,277,398,349 1,1,1,19,1,1,1,1,1,1,1,1,1,1,1,1,1,1,1,1,1,1,1,1,1
822,538,1078,89 1,1,1,1
60,60,3372,4,40,163,10,633,999,27,384,110,55,8,7814,4261,4,60,60,40,633,1449,10,4252,5,521,124,1576,60,60,1577,434,7,3024,146,5081,2515,9,600,300,326,2209,8,19,78,89 1,1,1,1,1,1,1,1,1,1,1,1,1,1,1,1,1,1,1,1,1,1,1,1,1,1,1,1,1,1,1,1,1,1,1,1,1,1,1,1,1,1,1,1,1,1
117,8,1956,145,4,93,5929,2,2733,2,25057,2,5,2041,174 1,1,1,1,1,1,1,1,1,1,1,1,1,1,1
450,31,418,10,145,17,25058,2,51,11,884,66,27,38,84,10,520,477 1,1,1,1,1,1,1,1,1,1,1,1,1,1,1,1,1,1
40,87,10,2550,2,51,467,1823,1542,146,185,1216,1093 1,1,1,1,1,1,1,1,1,1,1,1,1
60,60,390,7795,1179,5,1831,1823,2808,25059,8,56,13162,33,4,1385,3927,928,270,2163,2216,1149,2,2586,2315,2,5,3925,25060 1,1,1,1,1,1,1,1,1,1,1,1,1,1,1,1,1,1,1,1,1,1,1,1,1,1,1,1,1
2550,1176,1037,27,99,110,2,51,1823,1542,5,87,10,1542 1,1,1,1,1,1,1,1,1,1,1,1,1,1
60,60,40,446,200,729,258,5,442,527,740,25061,8,33,25062,2705,4,146,116,154,7,7601,1280,2,118,9090,931,3043,3727,64,5,1141,154,7,1280,17,25063,33 1,1,1,1,1,1,1,1,1,1,1,1,1,1,1,1,1,1,1,1,1,1,1,1,1,1,1,1,1,1,1,1,1,1,1,1,1,1
11,1902,688,631,27,38,84,2,51,8515,1823,7,116,307,146,95,154,7,2089,5,1141,1916,5,116,5636,1259 1,1,1,1,1,1,1,1,1,1,1,1,1,1,1,1,1,1,1,1,1,1,1,1,1,1
96,85,2089,2705,4023,5,614 1,1,1,1,1,1,1
1823,14,1833,7,614,5,836,32,61,32,8795,7,209,2089,527 1,1,1,1,1,1,1,1,1,1,1,1,1,1,1
18,755,10,366,145,89,32,61,32,223,614,746,12,4023 1,1,1,1,1,1,1,1,1,1,1,1,1,1
60,60,147,359,366,145,89,9,1823,11449,154,7,4492,5,1280,27,25064,8,289,8,135,4,450,288,858,7,496,2815,5,13,5081,25065,19,6086,359,145,19,705,807,34,5,216,485,34 1,1,1,1,1,1,1,1,1,1,1,1,1,1,1,1,1,1,1,1,17,1,1,1,1,1,1,1,1,1,1,1,1,1,1,1,1,22,1,1,1,11,1,1
40,1422,814,715,807,34,89 1,1,8,5,1,1,1
214,270,25066,156,644,2,1491,83,2,2039 1,1,1,1,1,1,1,1,1,1
60,60,521,384,13,1169,12,6685,10,3413,133,5,534,28,442,116,225,124,450,31,27,858,5,534,562 1,1,1,1,1,1,1,1,1,1,1,1,1,1,1,1,1,1,1,1,1,1,1,1,1
40,96,210,17,396,7,98,4391,27,37,110 1,1,1,1,1,1,1,1,1,1,1
60,60,10,172,4,85,440,1587,544,27,435,110,5,40,163,10,25067,232,2471,517,8,217,3228,4,1385,928,3977,916,9,217,9286,633,368,1130,5,2727,688,5081,3977,916,8,5,25068,27,38,84,28,87,3321,4021,9,653,302,2,3260,538,187,8 1,1,1,1,1,1,1,1,1,1,1,1,1,1,1,1,1,1,1,1,1,1,1,1,1,1,1,1,1,1,1,1,1,1,1,1,1,1,1,1,1,1,1,1,1,1,1,1,1,1,1,1,1,1,1,1,1,1
40,3413,12,289,2074,9,25069,8 1,1,1,1,1,1,1,1
442,368,1785,124,185,217,26,126 1,1,1,1,1,1,1,1
650,8,4242,1469,4,87,1683,849,1331,9,25070,5,4492,165,8 1,1,1,1,1,1,1,1,1,1,1,1,1,1,1
60,60,633,384,999,688,1331,27,435,110,910,8,5406,7,2990,357,9,518,2,992,2,3560,1719,611,7,2990,364,8 1,1,1,1,1,1,1,1,1,1,1,1,1,1,1,1,1,1,1,1,1,1,1,1,1,1,1,1
21,39,335,326,521,999,10,111,360,307,226,27,9502 1,1,1,1,1,1,1,1,1,1,1,1,1
467,2550,10,9503,17,23,2,51,1823,1599,37,18,39,6,1264,5,20,568,10,4338 1,1,1,1,1,1,1,1,1,1,1,1,1,1,1,1,1,1,1,1
794,23,10,446,291,13,53,10,633 1,1,1,1,1,1,1,1,1
123,8,708,154,4,1823,148,353,27,99,110,51,89,4149,7,232 1,1,17,17,17,17,17,17,17,17,17,17,17,17,17,17
633,37,18,39,1438,2,1556,213,6661 17,17,17,17,17,17,1,1,1
40,163,10,214,273,27,435,110,5,635,467,85,10678,1640,7,232,2471,17,23 1,1,1,1,1,1,1,1,1,1,1,1,1,1,1,1,1,1,1
875,8,3653,60,60,25071,538,1078,4,9,13165,8,4,9504,4,3550,28,957,4,1865,2,2322,4,4841,2,593,4,2226,28,822,89 1,1,1,1,1,1,1,1,1,1,1,1,1,1,1,1,1,1,1,1,1,1,1,1,1,13,13,13,12,1,1
60,60,1074,1503,4,70,3075,17,1074,28,635,467,794,10,1465,146,177,33,928,1093,28,40,87,10,2550,28,214,826,497,607,87,13166,7,1074,5,6,307,37,38,12198 1,1,1,1,1,1,1,1,1,1,1,1,1,1,1,1,1,1,1,1,1,1,1,1,1,1,1,1,1,1,1,1,1,1,1,1,1,1,1,1
1823,267,37,18,1434,307,51,199,37,78,240,52,9505,146,33 1,1,1,1,1,1,1,1,1,1,1,1,1,1,1
60,60,1207,4,521,19,177,3543,2,51,622,640,3052,7,33 1,1,1,1,1,1,1,1,1,1,1,1,1,1,1
1823,450,199,37,107,240,52,9505,146,1093 1,1,1,1,1,1,1,1,1,1
40,87,10,214,5,264,10,265,527,17,23,1093 1,1,1,1,1,1,1,1,1,1,1,1
2812,826,497,607,87,13166,7,1207,5,307,17,357 1,1,1,1,1,1,1,1,1,1,1,1
1823,267,37,18,1434,307,51,6825,199,37,92,240,52,9505,146,445,7,33 1,1,1,1,1,1,1,1,1,1,1,1,1,1,1,1,1,1
50,2550,10,741,23,33,41,51,18,450,113,31,199,37,18,563,1688,38,145,1813 1,1,1,1,1,1,1,1,1,1,1,1,1,1,1,1,1,1,1,1
40,87,10,214,13,23 1,1,1,1,1,1
60,60,852,994,4,69,89,28,12637,467,12,12638 1,1,1,1,1,1,1,1,1,1,1,1
326,247,1230 1,1,1
40,87,10,994 1,1,1,1
60,60,364,5,1664,539,4,1831,23,4910,70,2270,8412,607,95,627,60,60,6540,4,292,154,60,60,978,4,85,978,3321,27,435,110,10,172,4,60,60,40,163,10,85,326,3372,502,28,1823,1987,37,23,25072,1987,2933,50,494,725,28,794,23,10,265,2095,1264,426,50,344,446,194,10,502,316,1138,18,14,519,10 1,1,1,1,1,1,1,1,1,1,1,1,1,1,1,1,1,1,1,1,1,1,1,1,1,1,1,1,1,1,1,1,1,1,1,1,1,1,1,1,1,1,1,1,1,1,1,1,1,1,1,1,1,1,1,1,1,1,1,1,1,1,1,1,1,1,1,1,1,1,1,1,1,1,1
70,10,1502,12,35,2074,26,2780,124,163 1,1,1,1,1,1,1,1,1,1
40,446,1823,13,258,7,729 1,1,1,1,1,1,1
70,20,63,10,5,108,214,13,8166,2,62,3975 1,1,1,1,1,1,1,1,1,1,1,1
1291,13156,4090,899,2,106 1,1,1,1,1,1
