67,53,4,25107,1389,323,4724,63,10,826,632,17,17,2388,332,162,10,25108,17,1581,2029,1504,4,135,557,144,55,2,3376,1187,223,5868,284,2387,206,697,364,11,2645,697,13,144,2754,708,174,463,174,366,174,264,2485,4199,9506,35,818,7564,3477,174,3115,9507,1159,10,154,6540 1,1,1,1,1,1,1,1,1,1,1,1,1,1,1,1,1,1,1,1,1,1,1,8,1,4,4,4,15,1,1,1,1,1,1,1,1,1,1,1,1,4,14,14,14,1,1,1,1,1,1,1,1,1,1,1,1,1,1,1,1,1,1,1
544,48,33,174,411,174,823,174,399,174,420,174,256,174,7620,174,1557,558,5993,2370,3055,17,7244 1,1,1,1,1,1,1,1,1,1,1,1,1,1,1,1,1,1,1,1,1,1,1
349,1058,7344,13174,5325,6038,5901,2309,1788,117,398,9508,133,25109,534,981,618,763,653,5625,765,352,959,166,354,2117,354,709,354,770,354,1107,354,134,937,11,9509,11,681,174,663,933,48,420,11,724,309,276,282,1654,221,159,897,236,11,254,11,207,131,88,11,2117,44 1,1,1,1,1,1,1,1,1,1,1,1,5,5,1,1,1,1,1,1,1,1,1,1,1,1,1,1,1,1,1,1,1,1,1,1,1,1,1,1,1,1,1,1,1,1,1,1,1,1,1,1,1,1,1,66,1,1,1,1,1,1,1
6972,2029,13,13025,2,311,735,28,3500,25110,12,804,132,28,321,4,1151,244,135,133,360,27,632,2,321,4,116,216,122,3035 1,1,1,1,1,1,1,1,1,1,1,1,1,1,1,1,1,1,8,1,1,1,1,1,1,1,1,16,1,1
328,55,144,19,349,5,654,28,428,25111,13,25112 4,4,4,1,1,1,19,1,1,1,1,1
19,13174,349,5325,6038,5901,2309,28,321,4,87,349,2,654,2,147,605,64,3376,19,1142,2,5,349,28,321,4,87,1151 1,1,1,1,1,1,1,1,1,1,1,1,1,19,1,1,1,1,15,1,12,1,1,1,1,1,1,1,1
1187,226,9510,28,99,1013,1627,28,321,28,87,1501 1,1,1,1,1,1,1,1,1,1,1,1
1544,321,4,187,133 1,1,1,1,1
223,5868 1,1
41,243,9,687,942,46,47,35,46,9,66,8,34,2,47,32,454,3326,4869,9,47,35,8,25,34,2,4869,49,389,601,9,66,8,2728,9,2376,872,1360,8,991,1360,2309,34,112,830,58,49,35,2549,9,66,8,654,566,46,47,35,46,9,66,8,25,64,504,462,186,10,1241,5,1981,49,312,46,9,66,8,1501,429,25113,46,25,34,2,47,32,454,49,389,46,9,66,8,216,123,22,9,533,46,47,35,8,25,34,2,47,32,454,49,182,46,9,66,8,675,155,22,9,485,46,47,35,8,25,549,49,389,46,9,66,8,814,715,9,604,2292,929,1009,8,722,46,833,6608,47,949,46,9,66,8,25,34,2,383,1209,999,17,273,1112,49,3237,46,9,66,8,1768,429,213,22,9,1414,46,47,213,8,25,549,2,47,32,454,140,7422,226,3214,4448,2,106 1,11,1,1,1,1,1,1,1,1,1,1,1,1,1,1,1,27,1,1,1,1,1,1,1,1,1,1,1,1,1,1,1,1,1,1,1,1,1,1,1,1,1,1,1,1,1,1,1,1,1,1,19,1,1,1,1,1,1,1,1,1,1,1,1,1,1,1,1,1,1,1,1,1,1,1,1,1,1,1,1,1,1,1,1,1,1,1,1,1,1,1,16,1,1,1,1,1,1,1,1,1,1,1,1,1,1,1,1,1,1,1,1,12,1,1,1,1,1,1,1,1,1,1,1,1,1,1,1,1,9,9,1,1,1,1,1,1,1,1,1,1,1,1,1,1,1,1,1,1,1,1,1,1,1,1,1,1,1,1,1,1,1,1,1,1,1,1,1,1,1,1,1,1,1,1,1,1,1,1,1,1,1,1,1,1
