67,53,4,25614,5350,2,4052,13251,25615,30,7,63,361,4,599,5350,403,17,973,110 1,1,1,1,1,1,1,1,1,1,1,1,1,1,1,1,1,1,1,1
18,14,132,665,178,130,316,71,15,5617,56,1063,10,4760,128,734,535,154,15,12716,731,71,75,313 1,1,1,1,1,1,1,1,1,1,1,1,1,1,1,1,1,1,1,1,1,1,1,1
1851,2,18,252,61,2,643,18,20,246,2317,10,33,41,12,6,121,5,92,20,1160,10,265,23,1224 1,1,1,1,1,1,1,1,1,1,1,1,1,1,1,1,1,1,1,1,1,1,1,1,1
18,642,7,896,374,5,839,12,23,75,619,5,125,33,4038,908,23,75,2749 1,1,1,1,1,1,1,1,1,1,1,1,1,1,1,1,1,1,1
1573,10,6,29,2,38,20,63,881,468,23,121,2,51,532,7,175,470,2,92,20,31,25616,246,615,2086 1,1,1,1,1,1,1,1,1,1,1,1,1,1,1,1,1,1,1,1,1,1,1,1,1,1
18,91,98,185,33,12,6,280 1,1,1,1,1,1,1,1
105,107,4,19,107,89,2,18,205,202,61 1,1,1,1,1,1,1,1,1,1,1
6,75,313,4862,1295,14,1255,61,5,6,451,313,14,159,97,98,181,7,1644,2,13252 1,1,1,1,1,1,1,1,1,1,1,1,1,1,1,1,1,1,1,1,1
6,619,14,662,5,61,1061,13,203,525,137,28,306,2,18,90,21,374,7,2494,7,6,569,5,868,2866,5,125,374,7,10062 1,1,1,1,1,1,1,1,1,1,1,1,1,1,1,1,1,1,1,1,1,1,1,1,1,1,1,1,1,1,1
18,205,10,45,203,2821,5,1311,433 1,1,1,1,1,1,1,1,1
6,229,131,1923,21,96,1255,61,5,74,14,15,1646,1247,2422,215,6,4760,128,27,6,572 1,1,1,1,1,1,1,1,1,1,1,1,1,1,1,1,1,1,1,1,1,1
6,362,14,662,5,61,1061,5,6,326,970,266,19,6,2608,419,14,1255 1,1,1,1,1,1,1,1,1,1,1,1,1,1,1,1,1,1
18,39,15,973,535,522,89,2,76,290,23,734,535,10,52,883,13,11,181,7,185,2302 1,1,1,1,1,1,1,1,1,1,1,1,1,1,1,1,1,1,1,1,1,1
6,572,1430,20,1363,27,5532,19,6,56,5,25617,19,6,75 1,1,1,1,1,1,1,1,1,1,1,1,1,1,1
210,5,108,4,599,5350,229,131,3132,14,219,5,23,734,535,14,433,3403 1,1,1,1,1,1,1,1,1,1,1,1,1,1,1,1,1,1
2127,2,18,205,10,45,39,125,3933,664,12,23,75,313,37,197,45,65,422,10,23,731,4862,171 1,1,1,1,1,1,1,1,1,1,1,1,1,1,1,1,1,1,1,1,1,1,1,1
6,78,520,125,270,1530,12389,7,5744,1150,433 1,1,1,1,1,1,1,1,1,1,1
12,98,1461,2,18,14,418,10,433,431,61,5,15,434,7,2939,345,197,253,3023 1,1,1,1,1,1,1,1,1,1,1,1,1,1,1,1,1,1,1,1
74,14,11,181,7,1877,71,1644,5,11,181,7,477 1,1,1,1,1,1,1,1,1,1,1,1,1
102,40,87,10,104,23,984,13,15,403,110,521,12,1041,109,5,15,434,7,345,20,1577 1,1,1,1,1,1,1,1,1,1,1,1,1,1,1,1,1,1,1,1,1,1
13249,3501,13250,2,228 1,1,1,1,1
