67,53,4,25995,262,162,54,259,2692,86,333,439,13,144,5,247,1979,120,63,13,301,5,392 1,1,1,1,1,1,1,1,1,1,1,1,1,21,1,1,1,1,1,1,1,1,1
18,20,99,170,178,109,173,13,1586,5,394,17,1979 1,1,1,1,1,1,1,1,1,1,1,1,1
23,72,21,65,428,187,13,23,99,691,412,215,624,12,1537,7,5145,18,21,39,656,287,7,301,5,392 1,8,1,1,1,1,1,13,13,13,13,13,13,1,1,1,1,1,1,1,1,1,1,1,1,1
468,38,82,86,12,1094,2,18,20,170,10,4813,4898,121 1,1,1,1,1,1,1,1,1,1,1,1,1,1
18,39,15,69,2386,2,5,25996,522,115,277,893,1166,10,25997 1,1,1,1,1,1,1,1,1,1,1,1,1,1,1
18,591,15,5258,1546 1,1,1,1,1
18,20,170,467,15,492,109,536,10,4813,4898,5,39,15,1532,2830,263,2,76,20,515,13,1979 1,1,1,1,1,1,1,1,1,1,1,1,1,1,1,1,1,1,1,1,1,1,1
12,1379,2,18,20,231,12,6,25998,267,121,315,712,13,301,5,392,5,39,15,7754,2,76,115,185,491 1,1,1,1,1,1,1,1,1,1,1,1,1,1,1,1,1,1,1,1,1,1,1,1,1,1
18,63,467,19,25999,5,39,68,294,237,37,115,1397,7,6,3080,4900,5,270,1397,7,6,1532,5,270,6013,780 1,1,1,1,1,1,1,1,1,1,1,1,1,1,1,1,1,1,1,1,1,1,1,1,1,1,1
368,20,285,5,6,779,375,19,13334,20,44,2,51,252,31,728,6,3080,4900 1,1,1,1,1,1,1,1,1,1,1,1,1,1,1,1,1,1,1
15,10727,10546,19,13335,20,44 1,1,1,1,1,1,1
18,20,271,19,15,346,7,1914,5,2959 1,1,1,1,1,1,1,1,1,1
160,1379,2,18,21,65,231,335,84,12,6,1275,226,32,61,32,41,7171 1,1,1,1,1,1,1,1,1,1,1,1,1,1,1,1,1,1
18,148,52,278,13,23,346,7,2959,1697,22,944,84,15,58,5,1914,123,22,834,15,58 1,1,1,1,1,1,1,1,1,1,1,1,1,1,1,1,1,1,1,1,1,1
18,20,96,93,118,19,989,1405,114,10,856,22,1191 1,1,1,1,1,1,7,1,1,1,1,1,1
32,18,39,524,13,335,233,140,58,346,7,157,3517 1,1,1,1,1,1,1,1,1,1,1,1,1
18,20,170,71,26000,5,394,13,242,2980,5,10507 1,1,1,1,1,1,1,1,1,1,1,1
368,739,6,70,5,390,116,1914,10,322,5,1144,907,5,3187 1,1,1,1,1,1,1,1,1,1,1,1,1,1,1
18,96,39,15,424,237,10,1337,236,266,721,6,301,2,5,38,20,69 1,1,1,1,1,1,1,1,1,1,1,1,1,1,1,1,1,1
27,6,84,7,876,2,23,301,39,341 1,1,1,1,1,1,1,1,1,1
18,267,37,6,1586,252,31,253,615,160,37,162,2,5,18,21,31,65,418,10,637,615 1,1,1,1,1,1,1,1,1,1,1,1,1,1,1,1,1,1,1,1,1,1
18,21,33,762,23,221 1,1,1,1,1,1
18,91,3731,2,472,2,631,2,845,2,4428,2,26,1420 1,1,1,1,1,1,1,1,1,1,1,1,1,1
153,72,369,4,160,2669,79,2,428,187,127,1979,4,1586,272,10,72,986,4,272,10,4548,2,119,569,2188,527,9551,2,111,5252,12,13336,119,1546,119,6600,4,3192,27,447,1854,2,39,125,2548,2290,76,57,1266,253 1,8,5,1,1,1,1,1,1,1,11,1,1,1,1,1,8,1,1,1,1,16,1,1,1,1,1,1,1,1,1,1,1,1,1,1,1,1,1,1,1,1,1,1,1,1,1,1,1,1,1
41,336,856,22,9,819,46,47,55,8,25,64,26001,26002,2292,4664,9,2959,8,2985,46,25,895,243,9,912,577,8,407,22,9,1024,46,47,35,8,25,34,216,485,46,25,550,1914,9,3822,805,8,123,22,9,533,46,47,35,8,25,322,878,9,157,2798,8,155,969,438,314,255,227,22,25,34,907,55,46,314,3187,1155,1719,1882,2980,650,22,25,64,165,301,139,1280,36,368,1564,2,204,30,249,1296,28,12432,5304,3848,28,11,232,28,6381,180 1,9,1,1,1,1,1,1,1,1,1,1,1,1,1,1,1,1,1,1,1,1,1,8,1,1,1,1,1,1,1,1,1,1,1,1,1,1,21,1,1,1,1,1,1,1,1,1,1,1,1,1,1,1,1,1,1,1,4,1,1,1,1,1,1,1,1,4,1,1,1,1,1,1,1,1,1,1,1,1,1,1,1,1,1,1,1,1,1,1,1,1,1,1,1,1,1,1,1,1,1,1,4,4,1,1,1
149,30,1114,13,144 1,1,1,1,21
85,7,191,11,565,2,3731,2,256,2,299,2,495,2,845,2,623,33 1,1,1,1,1,1,1,1,1,1,1,1,1,1,1,1,1,1
105,78,133,4,26003,303,4,3913,321,4,1487,618,4,610,202,4,205,4177,12,23,891 1,1,13,13,13,1,1,1,1,1,1,1,1,1,1,1,1,1,1,1,1
212,4,354,3410,2,11,510,266,48,4,90,152,2,354,9552,724,4,354,1257,2,11,208,2,506,2,26,560 1,1,1,1,1,1,1,1,1,1,1,1,1,1,1,1,1,1,1,1,1,1,1,1,1,1,1
365,4,9516,605,28,752,250,51,11,1632,26,1540,28,11,1006 1,1,1,1,1,1,1,1,1,1,1,1,1,1,1
559,4,11,88,2,753,2,26,711,352,4,354,931,210,5,108,189,3511,4,348,161,621,10,23,1979 1,1,1,1,1,1,1,1,1,1,1,1,1,1,1,1,1,1,1,1,1,1,1,1,1
23,2279,5,2171,57,96,217,2,1876,6,743,7,1429,32,61 1,1,1,1,1,1,1,1,1,1,1,1,1,1,1
40,147,26004,3233,1221,13,1760 1,1,1,1,1,1,1
87,1914,5,2959 1,1,1,1
368,21,65,285,17,273,390 1,1,1,1,1,1,1
1584,165,294,33 1,1,1,1
190,144,4,87,989 1,21,1,1,7
1226,157,1123,19,605 1,1,1,1,1
220,135,4,87,216,5,255 1,14,1,1,21,1,4
1291,5408,1694,13337,2,106 1,1,1,1,1,1
