67,53,4,26573,222,310,285,29,400,4,1685,5600,528,4,13404,53,4,7835,2567,4,2540,2214,3627,509,63,13,56,6439,5,26574 1,1,1,1,1,1,1,1,1,1,1,1,1,1,1,1,1,1,1,1,1,1,1,1,1,1,1,1,1,1
259,4,38,70,21,15,82,41,30,185,17,127,2,831,2,5,72,369,328,190,140,24,547,2,12,1537,16,746,56,619,374 1,1,1,1,1,1,1,1,1,1,1,8,1,15,1,1,1,1,1,1,1,1,1,1,1,1,1,1,1,1,1
16,469,232,27,6,84,5,267,37,24,1122,523 1,1,1,1,1,1,1,1,1,1,1,1
16,20,12,24,766,267,7,457,585,38,761 1,1,1,1,1,1,1,1,1,1,1
16,99,54,199,44,136,6,26575,9442,2,76,1132,27,200,12811 1,1,1,1,1,1,1,1,1,1,1,1,1,1,1
16,902,1351,15,12371,2,140,24,1054,2,5,2827,27,26576,10,3297,2128,17,24,405,3881,32,68,2260 1,1,1,1,1,1,1,1,1,1,1,1,1,1,1,1,1,1,1,1,1,1,1,1
16,1351,15,6235,5,54,374,12,24,75,313,468,6,6235 1,1,1,1,1,1,1,1,1,1,1,1,1,1
136,2,471,460,10,1462,24,6830,19,2,16,396,584,374,1161,37,24,313,1714,13405,5,16,20,11,1666,418,10,1175 1,1,1,1,1,1,1,1,1,1,1,1,1,1,1,1,1,1,1,1,1,1,1,1,1,1,1,1
1951,20,2095,5,6,70,889,27,6,13406,222,1021,26577 1,1,1,1,1,1,1,1,1,1,1,1,1
26578,516,919,1338,624 1,1,1,1,1
70,1014,17,6259,5,627,3041,5,1959,10,562,522 1,1,1,1,1,1,1,1,1,1,1,1
1504,4,189,72,369,328,55,190,127,220,831,244,4,189,336,190,654,220,198,9,252,31,47,8,281,911,9,252,31,47,8,223,4,789,2754,4,286,17,232,2,630,6103,2387,4,920,678,4,303,1272,534,1679,133,12546,904,776,42,19,670,423,4,202,254,509,2,2015,234,1305,855,2,832,2678,1140,134,4,11,207,48,4,90,10,478,103,138,4,150,169,5,245,2,11,208,365,159,2,414,2,1695,559,11,711,2,753,2,26,88,28,1311,5,2326,2150,137,196,352,931,4,452,2,661,10,400,2,86,2,130,2,58,7,109,2,13406,7715,4,2562,967,4832,1748,28,104,26579,1672,1582,2356,97,1197,28,453,11,124,2,5,2,26,51,97,1748,28,400,2153,2,26580,26581,4,4811,63,19,728,2,6875,2013,6383,9307 1,1,1,4,4,4,4,1,8,1,15,1,1,1,21,1,19,1,54,1,1,1,1,1,1,38,1,1,1,1,1,1,1,1,1,1,1,1,1,1,1,1,1,1,1,1,1,1,1,1,1,5,5,1,1,1,1,1,1,1,1,1,1,1,1,1,1,1,1,1,1,1,1,1,1,1,1,1,1,1,1,1,1,1,1,1,1,1,1,1,1,1,1,1,1,1,1,1,1,1,1,1,1,1,1,1,1,1,1,1,1,1,1,1,1,1,1,1,1,1,1,1,1,1,1,1,1,1,1,1,1,1,1,1,1,1,1,1,1,1,1,1,1,1,1,1,1,1,1,1,1,1,1,1,1,1,1,1,1,1,1,1,1,1,1,1,1,1,1,1,1
966,4,1206,4929,2,1534,2,26582,10,4707 1,1,1,1,1,1,1,1,1,1
11,26583,10,26584,10,56,402 1,1,1,1,1,1,1
75,5229,2403,2,402,3441,1056,28,1336,498,8111,10,718,1008 1,1,1,1,1,1,1,1,1,1,1,1,1,1
56,1185,2368,2,395,229,5,451 1,1,1,1,1,1,1,1
2813,217,641,2,1515,3301,1056 1,1,1,1,1,1,1
770,4,44,2569,5,1332 1,1,1,1,1,1
295,634,12,75,451,5,229,131,28,26585,4855,12,56,451,131,10,33,11836 1,1,1,1,1,1,1,1,1,1,1,1,1,1,1,1,1,1
26586,736,7,56,657,2494 1,1,1,1,1,1
4029,4,31,210,1057,4,9610,9611,3797,9612,4932,4582,419,59,55,55,55,174,55,55,455,184,55,55,55,174,55,55,455,3190,4,1336,498,10,718,1008,12,56,1406,2,313,2,5,280 1,1,1,1,1,1,1,1,1,1,1,1,1,1,1,1,1,1,1,1,1,1,1,1,1,1,1,1,1,1,1,1,1,1,1,1,1,1,1,1,1,1,1,1
418,10,1948,9307,32,63,19,6,56,2,51,31,297,1619 1,1,1,1,1,1,1,1,1,1,1,1,1,1
709,4,31,210 1,1,1,1
141,4,386,429,2510,59,1284,325,386,673,3449,77,1249,325,386,790,2201,1285,325,386,1067,1623,10827,59,1383,325,483,2583,1436,193,1490,2380,1662,193,1046,1568,1624,1384,386,1782,1967,122,1286,193,386,358,1708,1535,193,386,371,9390,77,1333,193,1113,1102,3083,2001,2377,1235,1639,1798,1430,2924,42,258,2256,4,1639,1986,3624,1392,277,10,2312,422,1430 1,1,1,1,1,1,1,1,1,1,1,1,1,1,1,1,1,1,1,1,1,1,1,1,1,1,1,1,1,1,1,1,1,1,1,1,1,1,1,1,1,1,1,1,1,1,1,1,1,1,1,1,1,1,1,1,1,1,1,1,1,1,1,1,1,1,1,1,1,1,1,1,1,1,1,1,1,1
2145,496,1770,2378,1235,1113,1102,1661,3678,658,330,3673,1250,430,296,13259,1868,42,499,6109,2080,1367,660,26587,2189,1700,484,12959,77,1460,1287,578,1487,1321,1153,700,6475,1409,1516,737,3186,77,1410,598,701,3499,1356,42,1390,70,3386,2923,1059,1390,2042,8283,2730,1059,1100,1101,370,674,4,6259,4,333,75,6113,475,28,1570,75,304,218,128,28,2571,12,75,2873,2734,128 1,1,1,1,1,1,1,1,1,1,1,1,1,1,1,1,1,1,1,1,1,1,1,1,1,1,1,1,1,1,1,1,1,1,1,1,1,1,1,1,1,1,1,1,1,1,1,1,1,1,1,1,1,1,1,1,1,1,1,1,1,1,1,1,1,1,1,1,1,1,1,1,1,1,1,1,1,1,1,1,1,1
167,4,804,2,1156,2,298,2,11,7249,83 1,1,1,1,1,1,1,1,1,1,1
319,4,2540,2214,3627,509,63,13,75,26588,516 1,1,1,1,1,1,1,1,1,1,1
16,21,15,186,75,6113,516,771,43,237,522,5,68,1570,75,304,218,128 1,1,1,1,1,1,1,1,1,1,1,1,1,1,1,1,1,1
26589,3492,71,6,75,2451,10,6,75,2358,1327,15,161,1042,17,516,12,38,29 1,1,1,1,1,1,1,1,1,1,1,1,1,1,1,1,1,1,1
390,4,189,170,10,6684,310,190,729,13,752,10,210,2028,7,516,5,1095,26590,13230,14,63 1,1,1,1,1,1,1,1,1,1,1,1,1,1,1,1,1,1,1,1,1,1
220,1510,73,100,10,9309,2,13,665,2081,858,26591,179,522,375,2,70,494,52,7003,5,78,104,2,3395,13,73,100 1,1,1,1,1,1,1,1,1,1,1,1,1,1,1,1,1,1,1,1,1,1,1,1,1,1,1,1
281,442,652,124,1998,7,475,14,31,426,781,32,10,5218,2532,908,475,1392,1382,15,307 1,1,1,1,1,1,1,1,1,1,1,1,1,1,1,1,1,1,1,1,1
3746,26592,10949,2,106 1,1,1,1,1
310,413,742,49,26593 1,1,1,1,1
