67,53,4,26629,26630,26631,162,54,421,959,166,83,2,1586,259,1130,4,4865 1,1,1,1,1,1,1,1,1,1,1,1,1,1,1,1,1,1
29,119,26632,17,237,227,323,509,13,26633,185,17,184,2358,516,7835,258,12,26634,272,10,1536,417,76,20,664,43,1303,2434,26635,2,396,7,59,4483,1150,3807,5,119,13407,13408,63,17,868,162,12,55,109,17,1586 1,1,1,1,1,1,1,1,1,1,1,1,1,1,1,1,1,1,1,1,1,1,1,1,1,1,1,1,1,1,1,1,1,1,1,1,1,1,1,1,1,1,1,1,1,1,1,1,1,1
99,162,20,26636,17,301,2,392,2,428,25,1259,2,10031,73,401,2,2015 1,1,1,1,1,1,1,1,1,1,1,1,1,1,1,1,1,1
149,1928,746,6,301,738,10,45,15,1757,940,12,6,486 1,1,1,1,1,1,1,1,1,1,1,1,1,1
38,486,6,29,20,12154,2015,2,76,20,3295,32,959,166,83 1,1,1,1,1,1,1,1,1,1,1,1,1,1,1
273,743,290,4356,2471,7,9700,1702,5,6623,43,4865,951,548,173 1,1,1,1,1,1,1,1,1,1,1,1,1,1,1
1504,184,2358,835,13,59,567,374,2098,381,580,209,33,135,283,144,41,1591,213,22,25,4475,1886,122,314,4100,1702,227,26637,1882,6623,4024,22,555,2204,165,8087,157,529,122,969,550,157,150,2281,157,150,123,969,549,216,122,34,545,235,22,64,971,856,322,26638,856,64,1417,122,550,783,155,64,139,7207,204,331,249,13,540,5,576,2643 1,1,1,1,1,1,1,1,1,1,1,1,1,8,15,4,1,49,1,1,1,1,12,1,1,1,1,1,1,1,1,1,1,1,1,1,1,7,7,7,7,7,7,7,7,7,7,7,7,7,16,1,1,9,1,1,1,1,1,1,21,1,1,1,1,1,1,1,1,1,1,1,1,1,1,1,1,1,1
1387,2260,5,2608,1114,6292 1,1,1,1,1,1
21,936,7075,521,17,26639,801,26640 1,1,1,1,1,1,1,1
11,2136,423,678,26641,26642,26643,26644,10992,42,670,799,4272,2,9283,234,764,2,563,31,2514,13,6097,78,2,855,2,978,90,967,769,134,351,2,11,870,2,11,2238,2,11,207,2,530,935,48,787,612,138,456,2,354,2474,2,11,1060,365,143,2087,250,2,143,2727,250,10,1671,1073,2,159,2,1307,2,1353,2,11,236,2,11,1006,559,11,1458,2,4107,196,612,212,11,284,26,266,352,661,10,400,2,86,2,4861,2,31,2146,19,453,6307,5,1105,750,2514,13,352,78 14,14,1,1,1,1,5,1,1,1,1,1,1,1,1,1,1,1,1,1,1,1,1,1,1,1,1,1,1,1,1,1,1,1,1,1,1,1,1,1,1,1,1,1,1,1,1,1,1,1,1,1,1,1,1,1,1,1,1,1,1,1,1,1,1,1,1,1,1,1,1,1,1,1,1,1,1,1,1,1,1,1,1,1,1,1,1,1,1,1,1,1,1,1,1,1,1,1,1,1,1,1,1,1,1,1,1,1,1,1,1,1
418,10,901,59,1185,2368,2,3787,10,7454,13,59,619,184,619,7454,1038 1,1,1,1,1,1,1,1,1,1,1,1,1,1,1,1,1
418,10,1224,580,1764,10,3036,2,1224,419,750 1,1,1,1,1,1,1,1,1,1,1
141,686,1817,571,2066,857,2201,727,5024,415,1400,844,1598,813,4856,9,77,8,4340,9,77,8,330,3371,660,26645,9,59,8,499,3820,9,59,8,296,12535,9,59,8,578,2227,700,6084,737,6976,484,1283,701,4042,9,77,8,2684,370,1050,1193,42,1124,1860,9,77,8,42,551,1155,9,59,8,42,772,94,42,773,35,42,796,558,70,2771,9,303,8,1049,1256,9,303,8,167,237,1303,176,406,43,730,5816 1,1,1,1,1,1,1,1,1,1,1,1,1,1,1,1,1,1,1,1,1,1,1,1,1,1,1,1,1,1,1,1,1,1,1,1,1,1,1,1,1,1,1,1,1,1,1,1,1,1,1,1,1,1,1,1,1,1,1,1,1,1,1,1,1,1,1,1,1,1,1,1,1,1,1,1,1,1,1,1,1,1,1,1,1,1,1,1,1,1,1,1,1,1,1
11,311,3220,475,2,584,4343,2,26,311,781,2440,2532 1,1,1,1,1,1,1,1,1,1,1,1,1
210,5,108,227,323,509,119,184,2358,835,12,26646,119,4915,2,184,13407,26647,13408 1,1,1,1,1,1,1,1,1,1,1,1,1,1,1,1,1,1,1
332,978,434,185,17,3283,2,301,2,392,17,76,16,20,170,26648 1,1,1,1,1,1,1,1,1,1,1,1,1,1,1,1
63,89,13,656,392,5,931,83 1,1,1,1,1,1,1,1
7,54,2,24,4865,4356,876,223,2089,244,720,1157,951,548,173 1,1,1,1,1,1,1,1,1,1,1,1,1,1,1
38,563,45,2441,10,38,311,735,931,83,2,2015,2,1586 1,1,1,1,1,1,1,1,1,1,1,1,1,1
189,931,83 1,1,1
2015,89 1,1
237,115,11,311,1258 1,1,1,1,1
1845,933 1,1
270,1042,116,7295 1,1,1,1
270,272,10,4101,7,2089,33,244,4356,5,656,7,26649,3079 1,1,1,1,1,1,1,1,1,1,1,1,1,1
748,1438,33,244,32,1577,867,214,13,4865,6,307,7,4356,876,2089,244,1055,87,10,479,1694,442,2675,2392,3213 1,1,1,1,1,1,1,1,1,1,1,1,1,1,1,1,1,1,1,1,1,1,1,1,1,1
2051,442,2244,352,5,26650,2051,104,190,301,2,392 1,1,1,1,1,1,1,1,1,1,1,1
148,7,248,1757,10,392 1,1,1,1,1,1
906,185 1,1
270,422,10,26651,71,2089 1,1,1,1,1,1
748,187,13,1914,867,118,13,90,349,2426,2111,32,562,1055,1760,2051,1524,404,17,945,220,144 1,1,1,1,1,1,1,1,1,1,1,1,1,1,1,1,1,1,1,1,1,4
428,25,1259,12,441,7,1586,748,710,164,346,867,2030,1055,1192,895,281,337 1,1,1,1,1,1,1,1,1,1,1,1,1,1,1,1,1,1
748,4865,1101,10,285,62,8849,380,2838 1,1,1,1,1,1,1,1,1
270,627,1000,1218,26652,26653,2,228,26654,26655 1,1,1,1,1,1,1,1,1,1
