67,53,4,26670,41,324,12,168,8585,202,121,1238,4986,561,26671,2,9128,26672,2095,4,26673,2487,4,26674,480,4,820,210,4,653,4,1163,4,321,4,235,133,4,26675,431,17,110,4,70,1058,56,6,2257 1,1,1,1,1,1,1,1,1,1,1,1,1,1,1,1,1,1,1,1,1,1,1,1,1,1,1,1,1,1,1,1,1,1,1,1,14,14,14,1,1,1,1,1,1,1,1,1
54,135,21,65,699,244,17,15,471 1,5,1,1,1,1,1,1,1
20,3900,146,98,244,141,512,4,139,4,41,4,699,244,17,297,300,117,130,30,7,6,63,361,4,1602,1528,576,436,17,360,73,100 1,1,1,1,1,1,1,1,1,1,1,1,1,1,1,1,1,1,1,1,1,1,1,1,1,1,1,1,1,1,5,5,5
70,20,231,12,2257,17,41,5,20,146,2628,2,971,2,5,11973 1,1,1,1,1,1,1,1,1,1,1,1,1,1,1,1
70,21,65,316,7,244,17,297,300,117,130 1,1,1,1,1,1,1,1,1,1,1
70,2731,52,255,5,705 1,1,1,4,1,69
70,108,10,482,10,6,41,7171,1696,13,223,23,41 1,1,1,1,1,1,1,1,1,1,1,1,1
70,91,1592,2,728,153,2,48,33,2,153,13,359 1,1,1,1,1,1,1,1,1,1,1,1,1
651,39,206,5,611,27,447,26676,518,611,179,18,20,1593,9,123,130,173,8 1,1,1,1,1,1,1,1,1,1,1,1,1,1,1,1,1,1,1
70,622,39,15,138,1469 1,1,1,1,1,1
70,622,232 8,8,8
2609,677,4,72,135,1491,956,105,78,4,799,4,474,339,4,534,235,2,133,10261,19,75,313,138,4,1654,2,11,208,152,4,1366,2584,4,360,73,100,60,604,227,25,132,5,268,64,60,216,123,25,132,5,268,34,60,476,12,6,2257,132,10,726,1692,133,14,229,329,271,476,4,10,2257 1,1,1,8,5,1,1,1,1,1,1,1,1,1,1,1,1,1,14,14,25,25,25,1,1,1,1,1,1,1,1,1,1,1,5,5,5,1,50,1,1,1,1,1,1,1,43,1,1,1,1,1,1,1,1,1,1,1,1,1,1,1,1,1,1,1,1,1,1,1,1
